<?xml version="1.0" encoding="UTF-8" standalone="no"?>
<svg
   xmlns:dc="http://purl.org/dc/elements/1.1/"
   xmlns:cc="http://creativecommons.org/ns#"
   xmlns:rdf="http://www.w3.org/1999/02/22-rdf-syntax-ns#"
   xmlns:svg="http://www.w3.org/2000/svg"
   xmlns="http://www.w3.org/2000/svg"
   xmlns:xlink="http://www.w3.org/1999/xlink"
   id="svg2319"
   version="1.1"
   viewBox="0 0 300 99.000004"
   height="99"
   width="300">
  <defs
     id="defs2313">
    <linearGradient
       y2="128.17346"
       x2="165.79822"
       y1="173.91913"
       x1="136.81311"
       gradientTransform="matrix(0.90517218,0.77044105,-0.78854982,0.93240349,23.175542,837.15496)"
       gradientUnits="userSpaceOnUse"
       id="linearGradient1174"
       xlink:href="#linearGradient1346" />
    <linearGradient
       id="linearGradient1346">
      <stop
         style="stop-color:#ffe198;stop-opacity:1"
         offset="0"
         id="stop1339" />
      <stop
         style="stop-color:#ffbb4d;stop-opacity:1"
         offset="1"
         id="stop1343" />
    </linearGradient>
    <linearGradient
       gradientTransform="matrix(1.0623882,0,0,1.0922585,-105.89683,932.5185)"
       gradientUnits="userSpaceOnUse"
       y2="104.08393"
       x2="133.64702"
       y1="104.08393"
       x1="112.46608"
       id="linearGradient862-2-3"
       xlink:href="#linearGradient1160" />
    <linearGradient
       id="linearGradient1160">
      <stop
         style="stop-color:#fff9d1;stop-opacity:1"
         offset="0"
         id="stop1156" />
      <stop
         style="stop-color:#ffdc8e;stop-opacity:1"
         offset="1"
         id="stop1158" />
    </linearGradient>
    <radialGradient
       r="10.743572"
       fy="390.91138"
       fx="495.03906"
       cy="390.91138"
       cx="495.03906"
       gradientTransform="matrix(0.41096538,-0.01011743,0.02672964,1.3544746,-180.67955,523.01659)"
       gradientUnits="userSpaceOnUse"
       id="radialGradient3304-7-6"
       xlink:href="#linearGradient1172" />
    <linearGradient
       id="linearGradient1172">
      <stop
         id="stop1168"
         offset="0"
         style="stop-color:#ff9912;stop-opacity:1" />
      <stop
         id="stop1170"
         offset="1"
         style="stop-color:#ff9810;stop-opacity:0" />
    </linearGradient>
    <linearGradient
       gradientTransform="matrix(1.0623882,0,0,1.0922585,-105.89683,932.5185)"
       gradientUnits="userSpaceOnUse"
       y2="119.1124"
       x2="116.98858"
       y1="119.1124"
       x1="109.17788"
       id="linearGradient878-8-7"
       xlink:href="#linearGradient1166" />
    <linearGradient
       id="linearGradient1166">
      <stop
         style="stop-color:#ffd782;stop-opacity:1"
         offset="0"
         id="stop1162" />
      <stop
         style="stop-color:#ffd57d;stop-opacity:1"
         offset="1"
         id="stop1164" />
    </linearGradient>
    <linearGradient
       gradientTransform="matrix(1.0623882,0,0,1.0922585,-103.61108,932.4163)"
       gradientUnits="userSpaceOnUse"
       y2="118.32003"
       x2="144.10342"
       y1="118.32003"
       x1="124.89785"
       id="linearGradient914-1-5"
       xlink:href="#linearGradient1154" />
    <linearGradient
       id="linearGradient1154">
      <stop
         style="stop-color:#ffe5a3;stop-opacity:1"
         offset="0"
         id="stop1150" />
      <stop
         style="stop-color:#ffd987;stop-opacity:1"
         offset="1"
         id="stop1152" />
    </linearGradient>
    <linearGradient
       gradientTransform="matrix(1.0623882,0,0,1.0922585,-105.89683,932.5185)"
       y2="115.77173"
       x2="176.97937"
       y1="129.18776"
       x1="130.21443"
       gradientUnits="userSpaceOnUse"
       id="linearGradient1345-9-3"
       xlink:href="#linearGradient1148" />
    <linearGradient
       id="linearGradient1148">
      <stop
         id="stop1142"
         offset="0"
         style="stop-color:#ffe198;stop-opacity:1" />
      <stop
         id="stop1144"
         offset="0.73873258"
         style="stop-color:#ffd277;stop-opacity:1" />
      <stop
         id="stop1146"
         offset="1"
         style="stop-color:#ff8f00;stop-opacity:1" />
    </linearGradient>
    <radialGradient
       r="35"
       fy="147.13304"
       fx="146.95654"
       cy="147.13304"
       cx="146.95654"
       gradientTransform="matrix(1.0628313,0,0,1.0628312,-105.94456,936.0262)"
       gradientUnits="userSpaceOnUse"
       id="radialGradient3302-0-5"
       xlink:href="#linearGradient1140" />
    <linearGradient
       id="linearGradient1140">
      <stop
         style="stop-color:#8baccb;stop-opacity:1"
         offset="0"
         id="stop1136" />
      <stop
         style="stop-color:#395477;stop-opacity:1"
         offset="1"
         id="stop1138" />
    </linearGradient>
    <linearGradient
       gradientTransform="matrix(0.99209277,0,0,1.0199867,-97.519814,940.2495)"
       gradientUnits="userSpaceOnUse"
       y2="99.608566"
       x2="119.384"
       y1="99.608566"
       x1="105.04161"
       id="linearGradient854-0-6"
       xlink:href="#linearGradient1166" />
  </defs>
  <metadata
     id="metadata2316">
    <rdf:RDF>
      <cc:Work
         rdf:about="">
        <dc:format>image/svg+xml</dc:format>
        <dc:type
           rdf:resource="http://purl.org/dc/dcmitype/StillImage" />
        <dc:title></dc:title>
      </cc:Work>
    </rdf:RDF>
  </metadata>
  <g
     transform="translate(0,-1023.5197)"
     id="layer1">
    <rect
       y="1023.5197"
       x="0"
       height="99"
       width="300"
       id="rect3300"
       style="opacity:1;fill:#fffffc;fill-opacity:1;stroke:none;stroke-width:3.21057677;stroke-miterlimit:4;stroke-dasharray:none;stroke-opacity:1" />
    <path
       id="path832-5-2"
       d="m 7.979828,1034.8772 c 4.455573,2.7425 8.354814,5.3993 12.726865,6.167 l -4.97167,8.3146 c -0.593764,-0.5244 -0.993181,-0.8526 -1.539327,-1.3653 -0.02637,-0.025 -0.213794,0.2563 -0.341253,0.1747 -0.128843,-0.082 0.171945,-0.3185 0.149411,-0.3397 -0.01868,-0.018 -0.743834,0.5714 -0.691305,0.2641 0.06856,-0.4008 0.406426,-0.3689 0.366467,-0.4425 -0.03999,-0.074 -0.284307,0.055 -0.29792,0.042 -0.06252,-0.059 0.233339,-0.2754 0.171417,-0.3348 -4.873349,-4.6641 -7.617123,-8.8191 -6.628557,-12.3902 0.01571,-0.056 -0.65918,-1.0248 -0.336407,-1.0102 0.264058,0.012 0.474347,0.6785 0.564055,0.6597 0.03395,-0.011 -0.01846,-1.0133 0.10866,-1.0049 0.274694,0.017 0.374707,1.1685 0.470744,1.1674 0.106463,0 -0.171428,-0.7503 0.07196,-0.7919 0.290064,-0.049 0.139984,0.6075 0.176888,0.8903 z"
       style="fill:url(#linearGradient854-0-6);fill-opacity:1;stroke:none;stroke-width:0.26615578px;stroke-linecap:butt;stroke-linejoin:miter;stroke-opacity:1" />
    <path
       id="path916-1-9"
       d="m 45.745988,1045.1215 c -20.544444,0 -37.198996,16.6546 -37.199029,37.1991 3.3e-5,20.5444 16.654585,37.199 37.199029,37.199 20.544434,0 37.198986,-16.6546 37.199019,-37.199 -3.3e-5,-20.5445 -16.654585,-37.1991 -37.199019,-37.1991 z"
       style="fill:url(#radialGradient3302-0-5);fill-opacity:1;stroke:none;stroke-width:0.56074053;stroke-miterlimit:4;stroke-dasharray:none;stroke-opacity:1" />
    <path
       id="path826-7-1-1"
       d="m 17.37544,1059.0581 c -0.864173,1.1609 -2.34695,3.1453 -2.201682,3.2118 0.08273,0.038 0.255181,-0.3071 0.32887,-0.2542 0.01703,0.012 -0.669815,0.9252 -0.591929,1.0008 0.06339,0.062 0.258785,-0.3959 0.349482,-0.3373 0.120526,0.079 -1.939755,3.9221 -2.351532,5.2155 -0.256884,0.807 -0.0099,2.6272 1.393608,2.5766 1.415615,-0.052 3.001867,-1.3033 3.376124,-2.7076 0.221309,-0.8302 0.991181,-2.2602 1.687166,-3.3047 -0.03428,0.9377 -0.139302,2.2641 -0.08734,3.1938 2.550284,1.8648 4.611784,1.4886 6.750225,-0.078 0.193589,-0.142 0.387529,-0.2936 0.58281,-0.4542 0.252424,-0.2078 0.506869,-0.4306 0.763731,-0.6665 0.107671,-0.099 0.03747,0.429 0.146092,0.3255 0.926501,-1.7326 2.618502,-3.1499 3.75438,-4.3699 0.838782,-0.9 5.435031,-1.5505 5.688443,-3.6542 6.26e-4,-0.011 4.73e-4,-0.018 0.0011,-0.024 0.875071,-0.1434 1.771051,-0.3025 2.683511,-0.4726 -3.25329,2.4261 -5.635827,4.6419 -5.597867,4.6761 0.04834,0.044 0.186568,-0.1279 0.232152,-0.095 0.0077,-10e-5 -0.710345,0.5466 -0.631229,0.6123 0.06779,0.057 0.178284,-0.1223 0.2506,-0.069 0.08745,0.065 -1.845158,2.5195 -2.508919,3.6514 0,0 -1.610082,3.9998 1.192021,4.1396 3.789977,0.1891 3.255411,-2.6369 4.836796,-4.013 1.672587,-1.4557 3.94743,-3.5148 6.117305,-5.5012 0.18548,-0.1699 -0.106903,0.9851 0.07669,0.8168 0.663453,-1.2701 1.278092,-2.0585 2.270009,-2.9733 0.230692,-0.2127 -0.176383,1.0908 0.04329,0.8876 0.678341,-1.6712 1.879536,-2.767 3.162155,-3.8975 11.670499,-1.9266 23.901209,-2.0845 30.166331,11.0201 2.287357,4.7844 3.535268,10.022 3.65608,15.3494 1.49538,-15.222 -2.119511,-30.6708 -11.061211,-40.2375 -0.105804,-0.1133 0.701457,0.2776 0.594181,0.1661 -0.330452,-0.3436 -1.582033,-1.1821 -1.926659,-1.5096 -0.210893,-0.2003 0.947739,0.5174 1.16762,0.3274 0.288372,-0.2492 -2.418981,-1.4571 -2.732348,-1.7166 -0.10866,-0.09 0.574306,0.2815 0.979469,0.3959 0.266409,0.075 0.331298,-0.078 0.258488,-0.1356 -2.799489,-2.2102 -6.562229,-4.1448 -10.662201,-5.431 -0.328167,-0.1033 1.261326,-0.068 0.929149,-0.1632 -2.004885,-0.1975 -4.179319,-0.7468 -5.991945,-1.0489 -0.494959,-0.081 2.193101,-0.6836 1.696791,-0.7433 -2.167293,0.2652 -4.521396,0.3296 -6.57404,0.3063 -18.32214,1.8404 -40.468822,7.35 -32.21579,25.9852 z"
       style="opacity:0.2;fill:#011842;fill-opacity:1;stroke:none;stroke-width:0.27370155px;stroke-linecap:butt;stroke-linejoin:miter;stroke-opacity:1" />
    <path
       id="path826-0-2"
       d="m 49.261667,1030.3291 c -6.083102,-0.094 -11.768184,1.8084 -17.019679,3.5578 l 0.851505,23.208 c 14.899399,-1.596 37.34042,-10.1167 46.335418,9.7113 2.281424,5.0288 3.470654,10.5082 3.48508,16.0571 1.875042,-15.8166 -1.565487,-31.9762 -10.674946,-42.1232 -0.107781,-0.1201 0.724464,0.3034 0.6151,0.1852 -0.336857,-0.3646 -1.622058,-1.2639 -1.974001,-1.612 -0.215386,-0.2129 0.975965,0.5587 1.208864,0.3656 0.305435,-0.2534 -2.488483,-1.568 -2.809321,-1.8447 -0.111221,-0.096 0.592148,0.3054 1.011583,0.4327 0.275793,0.084 0.346691,-0.075 0.27209,-0.1356 -2.86842,-2.3596 -6.745282,-4.4528 -10.986973,-5.8776 -0.339517,-0.114 1.314381,-0.045 0.970525,-0.15 -2.083199,-0.2476 -4.335431,-0.865 -6.216274,-1.2173 -0.513615,-0.096 2.297575,-0.6659 1.782104,-0.7383 -2.261967,0.2307 -4.714501,0.2483 -6.851075,0.1812 z"
       style="fill:url(#linearGradient1345-9-3);fill-opacity:1;stroke:none;stroke-width:0.28501442px;stroke-linecap:butt;stroke-linejoin:miter;stroke-opacity:1" />
    <path
       id="path834-8-7"
       d="m 47.474894,1051.1158 c -6.908041,2.701 -15.08633,9.9122 -15.016717,9.9776 0.04944,0.047 0.196819,-0.1297 0.243579,-0.094 0.0077,0 -0.75114,0.5541 -0.670133,0.624 0.06933,0.061 0.188117,-0.1231 0.262278,-0.066 0.08976,0.069 -1.973605,2.5844 -2.688312,3.7489 0,0 -1.759933,4.1308 1.15449,4.3348 3.94187,0.2761 3.444681,-2.677 5.11985,-4.0768 1.771798,-1.4804 4.183209,-3.5768 6.483838,-5.5998 0.196665,-0.1728 -0.131996,1.0237 0.06263,0.8523 0.717289,-1.3083 1.373931,-2.1168 2.425759,-3.0485 0.244634,-0.2167 -0.206806,1.1318 0.02615,0.9251 0.962978,-2.2422 2.823616,-3.4535 4.60439,-5.05"
       style="fill:url(#linearGradient914-1-5);fill-opacity:1;stroke:none;stroke-width:0.28501442px;stroke-linecap:butt;stroke-linejoin:miter;stroke-opacity:1" />
    <path
       id="path836-5-0"
       d="m 15.518339,1056.2703 c -0.804415,1.043 -2.867475,3.6565 -2.699398,3.7376 0.08537,0.042 0.271936,-0.3149 0.347559,-0.2582 0.01747,0.013 -0.716564,0.9494 -0.637052,1.0297 0.06471,0.066 0.277661,-0.4069 0.370862,-0.3438 0.123833,0.085 -2.101822,4.0427 -2.557568,5.3807 -0.284319,0.8348 -0.06526,2.7352 1.397145,2.7118 1.4749,-0.024 3.152882,-1.2943 3.571877,-2.7483 0.425665,-1.4772 2.579202,-4.7999 3.052396,-4.7073"
       style="fill:url(#linearGradient878-8-7);fill-opacity:1;stroke:none;stroke-width:0.28501442px;stroke-linecap:butt;stroke-linejoin:miter;stroke-opacity:1" />
    <path
       id="path828-5-0-9"
       d="m 35.629341,1032.7836 c -1.146349,0.3626 -2.279283,0.7355 -3.387353,1.1045 l 0.851505,23.2068 c 1.404419,-0.194 2.830944,-0.4054 4.266863,-0.6073 0.29547,-0.2997 0.496562,-0.6388 0.551749,-1.0305 0.806657,-6.1369 0.258818,-11.2768 -1.307185,-17.1338 0.16187,-0.3328 -0.185228,-2.771 -0.975579,-5.5397 z"
       style="fill:url(#radialGradient3304-7-6);fill-opacity:1;stroke:none;stroke-width:0.28500643px;stroke-linecap:butt;stroke-linejoin:miter;stroke-opacity:1" />
    <path
       id="path828-6-3"
       d="m 23.226698,1037.7547 c -4.441192,3.0911 -14.832852,9.2157 -6.146563,22.3395 -0.08163,0.4107 -0.129459,1.0163 -0.149466,1.7917 -0.0033,0.1355 0.134556,-0.2738 0.132744,-0.1279 -0.0011,0.124 -0.0055,0.2615 -0.0099,0.4096 -0.0011,0.042 0.105804,-0.2061 0.104376,-0.1633 -0.03318,0.9621 -0.89019,2.8663 -0.178317,3.6935 2.145912,2.4937 4.770017,1.6458 7.029138,0.059 0.204521,-0.1437 0.40991,-0.2975 0.616573,-0.4607 0.267146,-0.2108 0.536445,-0.4375 0.808787,-0.6778 0.114176,-0.1011 0.02989,0.4474 0.14517,0.3419 1.000816,-1.7843 2.792446,-3.2248 4.00053,-4.4712 0.89209,-0.9194 5.690508,-1.5005 5.998317,-3.6855 0.109539,-0.8336 -0.172099,-3.6583 0.0044,-3.6726 0.155047,-0.013 0.0534,0.5425 0.239833,0.5542 0.211113,0.013 0.07339,-0.6834 0.104375,-0.6795 0.04373,0 0.282143,0.606 0.330958,0.6051 0.241239,0 -0.551673,-2.8546 -0.404877,-2.859 0.190204,0 0.156222,0.5492 0.396494,0.552 0.12759,0 -1.156874,-3.9742 -0.830509,-3.9665 0.264927,0.011 0.343889,0.7535 0.632756,0.8189 0.238426,0.054 -1.11831,-5.8966 -1.681926,-8.1079 -0.01538,-0.06 0.13894,-0.081 0.175175,-0.1364 0.02307,-0.035 -0.08734,-0.1125 -0.04329,-0.1303 0.05032,-0.021 0.201631,0.044 0.217155,0.012 0.05428,-0.1088 -0.378014,-0.2367 -0.295415,-0.3658 0.03955,-0.061 -0.0066,-0.2951 0.04076,-0.3702 0.272101,-0.4361 0.708214,-0.8717 0.541158,-0.904 -0.187128,-0.036 -0.405514,0.4833 -0.599268,0.4781 -0.09976,0 0.320191,-1.0887 0.231483,-1.1054 -0.212399,-0.041 -0.468744,0.5249 -0.650632,0.615 -0.05746,0.029 0.291009,-0.5172 0.0557,-0.5232 -0.04285,0 -0.249632,0.3196 -0.313807,0.1657 -0.715926,-1.7172 -2.967807,-11.1828 -6.05168,-12.3249 -0.06142,-0.023 0.04208,-0.8377 -0.143027,-0.8496 -0.05581,0 -0.25628,0.8697 -0.441244,0.8247 -0.180481,-0.044 -0.344955,-1.0081 -0.443243,-0.9073 -0.107013,0.1098 0.0123,0.8084 -0.0534,0.7691 -0.359567,-0.2152 -0.519591,-0.3633 -0.631152,-0.3578 -0.279143,0.014 0.486104,0.5126 0.246711,0.6641 -0.12023,0.076 -0.543213,-0.067 -0.654005,0.039 -0.06526,0.063 0.178625,0.3656 0.116516,0.4378 -2.287292,2.6637 -2.4477,11.676 -2.4477,11.676 z"
       style="fill:url(#linearGradient862-2-3);fill-opacity:1;stroke:none;stroke-width:0.28501442px;stroke-linecap:butt;stroke-linejoin:miter;stroke-opacity:1" />
    <path
       id="path838-4-6"
       d="m 16.189176,1058.7136 c 0.357865,-0.092 0.678033,0.1257 1.003893,0.2968 l -0.66508,0.1806 z"
       style="fill:#501616;stroke:none;stroke-width:0.28501442px;stroke-linecap:butt;stroke-linejoin:miter;stroke-opacity:1" />
    <path
       id="path840-6-0"
       d="m 20.719251,1057.3332 c 0.973206,-1.3723 1.827414,-2.9079 3.061877,-3.9221 l 0.376454,0.1807 c -1.278344,1.0772 -2.340654,2.432 -3.438331,3.7414 z"
       style="fill:#501616;stroke:none;stroke-width:0.28501442px;stroke-linecap:butt;stroke-linejoin:miter;stroke-opacity:1" />
    <path
       id="path844-2-6"
       d="m 18.029752,1064.8904 c -0.113022,-0.1136 -0.08229,-0.3988 0.01813,-0.5232 0.372564,-0.4613 0.584435,-0.8296 1.464934,-0.8831 0.09954,-0.011 0.179021,0 0.276848,0.062 0.06526,0.044 0.06801,0.092 0.08735,0.1728 0.04878,0.2037 0.114132,0.4079 0.0099,0.5827 -0.322092,0.5409 -0.04571,0.688 -0.0088,0.8723 -0.0479,0.1466 -0.120548,0.2883 -0.401548,0.387 -0.669453,-0.026 -0.987929,-0.2088 -1.446455,-0.6696 z"
       style="fill:#550000;stroke:none;stroke-width:0.28501442px;stroke-linecap:butt;stroke-linejoin:miter;stroke-opacity:1" />
    <path
       id="path846-5-2"
       d="m 20.167106,1066.6998 -0.02044,-0.042 c 1.129956,-0.519 2.196672,-1.2547 3.257521,-2.0105 l 0.0757,0.1173 c -1.06821,0.697 -2.130904,1.4019 -3.312872,1.9352 z"
       style="fill:#501616;stroke:none;stroke-width:0.28501442px;stroke-linecap:butt;stroke-linejoin:miter;stroke-opacity:1" />
    <path
       id="path1352-1-8-6"
       d="m 70.047845,1089.7433 c -0.148894,-0.1606 -1.670456,-1.4092 -1.29031,-1.0419 1.546128,1.494 0.929885,7.1754 -2.558843,11.3988 -2.844974,3.444 -12.620172,6.8077 -16.927301,0.038 2.412564,1.2727 4.899278,1.5122 7.025062,1.1238 0.531556,-0.097 -0.792307,-0.4962 -0.312653,-0.6653 1.010001,-0.011 1.885941,-0.1118 2.668382,-0.3599 0.229713,-0.074 -0.940652,-0.065 -0.726057,-0.165 1.555104,-0.1055 2.521059,-0.7912 3.446396,-1.7532 3.88286,-5.8841 2.100427,-13.4516 -6.143245,-14.6921 -3.639787,-0.3287 -8.171993,1.108 -12.560469,3.6234 -0.366841,0.21 1.135175,0.1185 0.770949,0.3434 -2.601725,0.5339 -4.782389,2.2139 -6.580204,3.6993 -0.306589,0.2545 1.639978,-0.1436 1.340992,0.12 -8.660437,4.6714 -13.707642,17.9259 -9.846624,23.7956 -2.549779,0.077 -6.195344,-0.1597 -8.104643,-0.3716 -3.348745,-0.3717 -5.814957,-1.9938 -8.533868,-4.1292 -0.553947,-0.4544 2.133101,1.108 1.680135,0.5791 -1.090997,-2.0775 -2.584333,-2.685 -3.814599,-4.6917 -0.156289,-0.321 1.759548,1.3532 1.626859,1.0179 -0.447649,-2.9618 -2.182224,-6.3612 -2.38168,-9.2177 -0.0055,-0.5727 1.215907,1.505 1.251219,0.9188 1.037139,-5.2014 3.486563,-8.1662 5.762824,-12.5657 0.35603,-0.3762 0.09394,1.6551 0.479599,1.2878 11.3845,-10.8482 35.215108,-17.7487 45.176786,-10.5709 1.281146,1.2603 2.79427,1.981 4.131097,3.2544 0.19916,0.2093 -1.369986,-0.7515 -1.172706,-0.5261 1.149612,2.2065 3.157903,3.2621 4.587273,5.2553 0.158068,0.2611 -1.599469,-1.042 -1.443082,-0.7687 0.851703,1.4891 1.670445,3.1721 2.448887,5.0627 z"
       style="opacity:0.3;fill:#001842;fill-opacity:1;stroke:none;stroke-width:0.29996118px;stroke-linecap:butt;stroke-linejoin:miter;stroke-opacity:1" />
    <path
       id="path1352-6-1"
       d="m 73.162986,1088.9858 c -0.154981,-0.1736 -1.746693,-1.5307 -1.350133,-1.1328 1.612906,1.6183 0.844583,7.6425 -2.946625,12.0601 -3.09164,3.6025 -13.54508,6.9808 -17.986128,-0.298 2.537935,1.4004 5.17529,1.7045 7.441718,1.3344 0.566757,-0.092 -0.831905,-0.5429 -0.318895,-0.7132 1.073275,0.011 2.006094,-0.08 2.842327,-0.3294 0.245567,-0.074 -0.998147,-0.088 -0.768125,-0.1897 1.654436,-0.08 2.694443,-0.7903 3.696852,-1.7939 4.243186,-6.1743 2.50058,-14.2505 -6.233579,-15.7333 -3.860733,-0.422 -8.704944,1.014 -13.418006,3.5987 -0.393967,0.216 1.203755,0.1487 0.812271,0.3805 -2.775021,0.5151 -5.125564,2.2566 -7.065439,3.799 -0.330848,0.2642 1.745396,-0.1192 1.422404,0.1541 -9.295137,4.7904 -14.922746,18.7727 -10.937708,25.0863 -2.710692,0.031 -6.579402,-0.2935 -8.603821,-0.5568 -3.550639,-0.4619 -6.138586,-2.2347 -8.984758,-4.5578 -0.579481,-0.494 2.244289,1.2199 1.773578,0.6488 -1.117673,-2.2292 -2.692202,-2.9044 -3.959252,-5.0613 -0.15965,-0.3442 1.842477,1.473 1.708206,1.1141 -0.416435,-3.1559 -2.191486,-6.8023 -2.346324,-9.8415 0.0055,-0.6086 1.261843,1.6235 1.311075,1.0013 1.20593,-5.5058 3.867698,-8.607 6.374189,-13.236 0.385804,-0.3924 0.0668,1.7605 0.48384,1.3778 12.312935,-11.2986 37.771039,-18.1541 48.21191,-10.3285 1.336037,1.3646 2.929342,2.1605 4.32428,3.5403 0.207432,0.2265 -1.440599,-0.8258 -1.235496,-0.5825 1.177375,2.3676 3.290096,3.5292 4.768973,5.6756 0.162727,0.2805 -1.678618,-1.1392 -1.517913,-0.8456 0.87517,1.5991 1.711447,3.4036 2.500766,5.428 z"
       style="fill:url(#linearGradient1174);fill-opacity:1;stroke:none;stroke-width:0.31876716px;stroke-linecap:butt;stroke-linejoin:miter;stroke-opacity:1" />
    <path
       id="path1352-7-2"
       d="m 68.866228,1099.9131 c -3.09164,3.6025 -13.54508,6.9808 -17.986128,-0.298 2.537935,1.4004 5.17529,1.7046 7.441718,1.3345 0.566757,-0.092 -0.831905,-0.5429 -0.318895,-0.7133 1.073275,0.011 2.006094,-0.08 2.842327,-0.3294 0.245567,-0.074 -0.998147,-0.088 -0.768125,-0.1897 1.654436,-0.08 2.694443,-0.7903 3.696852,-1.7939 0.694294,-0.987 1.097633,-1.9126 1.097633,-1.9126 0.257422,0.11 -0.465327,2.4026 0.01615,2.7459 0.10064,0.071 0.795153,-0.9377 0.795153,-0.9377 0.198929,0.071 0.154333,1.0768 0.496618,0.6164 0.777047,-1.0448 1.65347,-2.5953 1.65347,-2.5953 0.147532,0.05 -0.52258,2.1738 -0.373949,2.2935 0.180195,0.1452 0.46325,-0.4621 0.46325,-0.4621 0.118164,0.037 0.07372,0.5585 0.06131,0.7159 -0.02132,0.2713 0.484213,-0.2305 0.639359,-0.3172 0.180712,-0.101 -0.150212,1.0543 -0.08515,1.16 0.08141,0.1323 1.575419,-1.5258 1.815218,-1.3596 0,0 -0.682318,1.1134 -1.486832,2.0426 z"
       style="fill:#501616;fill-opacity:1;stroke:none;stroke-width:0.31876716px;stroke-linecap:butt;stroke-linejoin:miter;stroke-opacity:1" />
  </g>
  <text
     xml:space="preserve"
     style="font-style:normal;font-weight:normal;font-size:59.87985992px;line-height:1.25;font-family:sans-serif;letter-spacing:0px;word-spacing:0px;fill:#263769;fill-opacity:1;stroke:none;stroke-width:1.49699652"
     x="98.611115"
     y="78.281441"
     id="text1586-2-3-7"><tspan
       id="tspan1584-8-6-5"
       x="98.611115"
       y="78.281441"
       style="font-style:normal;font-variant:normal;font-weight:normal;font-stretch:normal;font-family:'Source Sans Pro';-inkscape-font-specification:'Source Sans Pro';fill:#263769;fill-opacity:1;stroke-width:1.49699652">Fennec</tspan></text>
  <text
     id="text1165-3-3"
     y="35.218437"
     x="102.07796"
     style="font-style:normal;font-weight:normal;font-size:23.1570797px;line-height:1.25;font-family:sans-serif;letter-spacing:0px;word-spacing:0px;fill:#263769;fill-opacity:1;stroke:none;stroke-width:0.57892698"
     xml:space="preserve"><tspan
       style="font-style:normal;font-variant:normal;font-weight:600;font-stretch:normal;font-family:'Source Sans Pro';-inkscape-font-specification:'Source Sans Pro Semi-Bold';fill:#263769;fill-opacity:1;stroke-width:0.57892698"
       y="35.218437"
       x="102.07796"
       id="tspan1163-6-5">F-droid</tspan></text>
</svg>
