<?xml version="1.0" encoding="UTF-8" standalone="no"?>
<svg
   xmlns:dc="http://purl.org/dc/elements/1.1/"
   xmlns:cc="http://creativecommons.org/ns#"
   xmlns:rdf="http://www.w3.org/1999/02/22-rdf-syntax-ns#"
   xmlns:svg="http://www.w3.org/2000/svg"
   xmlns="http://www.w3.org/2000/svg"
   xmlns:xlink="http://www.w3.org/1999/xlink"
   width="192"
   height="192"
   viewBox="0 0 192 192"
   version="1.1"
   id="svg4319">
  <defs
     id="defs4313">
    <linearGradient
       xlink:href="#linearGradient2936"
       id="linearGradient1360"
       x1="136.81311"
       y1="173.91913"
       x2="167.58571"
       y2="126.60291"
       gradientUnits="userSpaceOnUse"
       gradientTransform="matrix(1.5692704,1.3356909,-1.3670856,1.6164805,59.576557,616.99252)" />
    <linearGradient
       id="linearGradient2936">
      <stop
         id="stop2932"
         offset="0"
         style="stop-color:#dfb14e;stop-opacity:1" />
      <stop
         id="stop2934"
         offset="1"
         style="stop-color:#b54047;stop-opacity:1" />
    </linearGradient>
    <linearGradient
       xlink:href="#linearGradient860"
       id="linearGradient862"
       x1="112.46608"
       y1="104.08393"
       x2="133.64702"
       y2="104.08393"
       gradientUnits="userSpaceOnUse"
       gradientTransform="matrix(1.8418312,0,0,1.8936164,-164.19245,782.32148)" />
    <linearGradient
       id="linearGradient860">
      <stop
         style="stop-color:#dfb24f;stop-opacity:1"
         offset="0"
         id="stop856" />
      <stop
         style="stop-color:#d58b2f;stop-opacity:1"
         offset="1"
         id="stop858" />
    </linearGradient>
    <radialGradient
       xlink:href="#linearGradient1019"
       id="radialGradient3304"
       gradientUnits="userSpaceOnUse"
       gradientTransform="matrix(0.7124786,-0.01754029,0.04634039,2.3482127,-293.84105,72.380096)"
       cx="495.03906"
       cy="390.91138"
       fx="495.03906"
       fy="390.91138"
       r="10.743572" />
    <linearGradient
       id="linearGradient1019">
      <stop
         id="stop1015"
         offset="0"
         style="stop-color:#be5133;stop-opacity:1" />
      <stop
         id="stop1017"
         offset="1"
         style="stop-color:#81176b;stop-opacity:0" />
    </linearGradient>
    <linearGradient
       xlink:href="#linearGradient860"
       id="linearGradient878"
       x1="109.17788"
       y1="119.1124"
       x2="116.98858"
       y2="119.1124"
       gradientUnits="userSpaceOnUse"
       gradientTransform="matrix(1.8418312,0,0,1.8936164,-164.19245,782.32148)" />
    <linearGradient
       xlink:href="#linearGradient912"
       id="linearGradient914"
       x1="124.89785"
       y1="118.32003"
       x2="144.10342"
       y2="118.32003"
       gradientUnits="userSpaceOnUse"
       gradientTransform="matrix(1.8418312,0,0,1.8936164,-160.22969,782.14433)" />
    <linearGradient
       id="linearGradient912">
      <stop
         style="stop-color:#d99b3c;stop-opacity:1"
         offset="0"
         id="stop908" />
      <stop
         style="stop-color:#c96e35;stop-opacity:1"
         offset="1"
         id="stop910" />
    </linearGradient>
    <linearGradient
       xlink:href="#linearGradient2453"
       id="linearGradient1345"
       gradientUnits="userSpaceOnUse"
       x1="130.76288"
       y1="128.29868"
       x2="176.97937"
       y2="115.77173"
       gradientTransform="matrix(1.8418312,0,0,1.8936164,-164.19245,782.32148)" />
    <linearGradient
       id="linearGradient2453">
      <stop
         id="stop2447"
         offset="0"
         style="stop-color:#d68e31;stop-opacity:1" />
      <stop
         id="stop2449"
         offset="0.82477462"
         style="stop-color:#be5133;stop-opacity:1" />
      <stop
         id="stop2451"
         offset="1"
         style="stop-color:#a3206d;stop-opacity:1" />
    </linearGradient>
    <radialGradient
       xlink:href="#linearGradient922"
       id="radialGradient3302"
       gradientUnits="userSpaceOnUse"
       gradientTransform="matrix(1.8425994,0,0,1.8425993,-164.27518,788.40281)"
       cx="146.95654"
       cy="147.13304"
       fx="146.95654"
       fy="147.13304"
       r="35" />
    <linearGradient
       id="linearGradient922">
      <stop
         style="stop-color:#9d1c6f;stop-opacity:1"
         offset="0"
         id="stop918" />
      <stop
         style="stop-color:#590f66;stop-opacity:1"
         offset="1"
         id="stop920" />
    </linearGradient>
    <linearGradient
       xlink:href="#linearGradient860"
       id="linearGradient854"
       x1="105.04161"
       y1="99.608566"
       x2="119.384"
       y2="99.608566"
       gradientUnits="userSpaceOnUse"
       gradientTransform="matrix(1.7199621,0,0,1.7683209,-149.66942,795.72452)" />
    <linearGradient
       gradientTransform="matrix(1.5692665,1.3356877,-1.3670822,1.6164765,-148.46307,-327.51298)"
       gradientUnits="userSpaceOnUse"
       y2="126.60291"
       x2="167.58571"
       y1="173.91913"
       x1="136.81311"
       id="linearGradient1360-6"
       xlink:href="#linearGradient2936" />
    <linearGradient
       gradientTransform="matrix(1.8418266,0,0,1.8936118,-372.2315,-162.18448)"
       gradientUnits="userSpaceOnUse"
       y2="104.08393"
       x2="133.64702"
       y1="104.08393"
       x1="112.46608"
       id="linearGradient862-2"
       xlink:href="#linearGradient860" />
    <radialGradient
       r="10.743572"
       fy="390.91138"
       fx="495.03906"
       cy="390.91138"
       cx="495.03906"
       gradientTransform="matrix(0.71247683,-0.01754024,0.04634027,2.3482069,-501.87978,-872.12406)"
       gradientUnits="userSpaceOnUse"
       id="radialGradient3304-7"
       xlink:href="#linearGradient1019" />
    <linearGradient
       gradientTransform="matrix(1.8418266,0,0,1.8936118,-372.2315,-162.18448)"
       gradientUnits="userSpaceOnUse"
       y2="119.1124"
       x2="116.98858"
       y1="119.1124"
       x1="109.17788"
       id="linearGradient878-8"
       xlink:href="#linearGradient860" />
    <linearGradient
       gradientTransform="matrix(1.8418266,0,0,1.8936118,-368.26877,-162.36162)"
       gradientUnits="userSpaceOnUse"
       y2="118.32003"
       x2="144.10342"
       y1="118.32003"
       x1="124.89785"
       id="linearGradient914-1"
       xlink:href="#linearGradient912" />
    <linearGradient
       gradientTransform="matrix(1.8418266,0,0,1.8936118,-372.2315,-162.18448)"
       y2="115.77173"
       x2="176.97937"
       y1="128.29868"
       x1="130.76288"
       gradientUnits="userSpaceOnUse"
       id="linearGradient1345-9"
       xlink:href="#linearGradient2453" />
    <radialGradient
       r="35"
       fy="147.13304"
       fx="146.95654"
       cy="147.13304"
       cx="146.95654"
       gradientTransform="matrix(1.8425948,0,0,1.8425947,-372.31424,-156.10314)"
       gradientUnits="userSpaceOnUse"
       id="radialGradient3302-0"
       xlink:href="#linearGradient922" />
    <linearGradient
       gradientTransform="matrix(1.7199578,0,0,1.7683165,-357.70854,-148.78147)"
       gradientUnits="userSpaceOnUse"
       y2="99.608566"
       x2="119.384"
       y1="99.608566"
       x1="105.04161"
       id="linearGradient854-0"
       xlink:href="#linearGradient860" />
  </defs>
  <metadata
     id="metadata4316">
    <rdf:RDF>
      <cc:Work
         rdf:about="">
        <dc:format>image/svg+xml</dc:format>
        <dc:type
           rdf:resource="http://purl.org/dc/dcmitype/StillImage" />
        <dc:title></dc:title>
      </cc:Work>
    </rdf:RDF>
  </metadata>
  <g
     id="layer1"
     transform="translate(0,-930.5197)">
    <path
       style="fill:url(#linearGradient854);fill-opacity:1;stroke:none;stroke-width:0.46142641px;stroke-linecap:butt;stroke-linejoin:miter;stroke-opacity:1"
       d="m 33.232185,959.77756 c 7.724507,4.75467 14.484507,9.36054 22.0642,10.6916 l -8.619266,14.4148 c -1.029374,-0.9092 -1.72184,-1.4784 -2.668667,-2.36693 -0.04573,-0.0427 -0.370653,0.44413 -0.591613,0.30267 -0.223387,-0.1428 0.29808,-0.552 0.259026,-0.5888 -0.0324,-0.0307 -1.28956,0.99026 -1.198493,0.458 0.118933,-0.69494 0.7046,-0.6396 0.635307,-0.76734 -0.06933,-0.128 -0.492894,0.096 -0.516494,0.072 -0.1084,-0.10266 0.404534,-0.4776 0.297187,-0.58026 -8.44876,-8.0864 -13.205572,-15.28947 -11.49172,-21.4808 0.0272,-0.0987 -1.1428,-1.77655 -0.583227,-1.75148 0.457774,0.0213 0.822374,1.17641 0.97788,1.14374 0.05893,-0.0187 -0.032,-1.75668 0.188374,-1.74214 0.476226,0.0307 0.649626,2.02588 0.816146,2.02388 0.18456,0 -0.297213,-1.30068 0.124667,-1.37282 0.502893,-0.0867 0.242693,1.05308 0.306667,1.54335 z"
       id="path832" />
    <path
       style="fill:url(#radialGradient3302);fill-opacity:1;stroke:none;stroke-width:0.97213936;stroke-miterlimit:4;stroke-dasharray:none;stroke-opacity:1"
       d="m 98.706252,977.53796 c -35.617293,0 -64.490787,28.87334 -64.49084,64.49084 5.3e-5,35.6174 28.873547,64.491 64.49084,64.491 35.617308,0 64.490798,-28.8736 64.490858,-64.491 -6e-5,-35.6175 -28.87355,-64.49097 -64.490858,-64.49084 z"
       id="path916" />
    <path
       style="opacity:0.2;fill:#3c1842;fill-opacity:1;stroke:none;stroke-width:0.47450829px;stroke-linecap:butt;stroke-linejoin:miter;stroke-opacity:1"
       d="m 49.521092,1001.699 c -1.498187,2.013 -4.06884,5.4531 -3.817,5.5684 0.143427,0.067 0.4424,-0.5322 0.57016,-0.4405 0.0296,0.021 -1.161253,1.6039 -1.026213,1.7348 0.109866,0.1067 0.44864,-0.6864 0.605866,-0.5848 0.208974,0.1375 -3.362866,6.8 -4.07676,9.042 -0.44536,1.3991 -0.01707,4.5548 2.416054,4.4671 2.454213,-0.091 5.204253,-2.2596 5.853066,-4.694 0.38368,-1.4396 1.718387,-3.9186 2.925014,-5.7295 -0.05947,1.6257 -0.241494,3.9253 -0.151427,5.5371 4.421333,3.233 7.995307,2.5809 11.702653,-0.1347 0.335627,-0.2463 0.671854,-0.5089 1.0104,-0.7875 0.437614,-0.3602 0.878747,-0.7465 1.324054,-1.1554 0.186693,-0.1714 0.06493,0.7437 0.253293,0.5644 1.606253,-3.0038 4.539613,-5.461 6.508853,-7.5762 1.454174,-1.5602 9.422547,-2.6878 9.86188,-6.3353 0.0011,-0.02 8.27e-4,-0.031 0.0013,-0.041 1.517066,-0.2484 3.0704,-0.5243 4.652333,-0.8194 -5.640147,4.206 -9.770693,8.0479 -9.704867,8.107 0.08387,0.076 0.32344,-0.2216 0.402467,-0.1639 0.012,-10e-5 -1.231507,0.9475 -1.094347,1.0616 0.117467,0.099 0.309094,-0.2119 0.434467,-0.12 0.151653,0.112 -3.198893,4.3681 -4.34964,6.3304 0,0 -2.79136,6.9344 2.066573,7.1769 6.57056,0.3278 5.6438,-4.5717 8.3854,-6.9572 2.89972,-2.5238 6.843534,-6.0934 10.605387,-9.5373 0.321587,-0.2945 -0.18524,1.7077 0.132933,1.416 1.150227,-2.2019 2.215787,-3.5689 3.935454,-5.1548 0.39996,-0.3687 -0.305787,1.8911 0.0752,1.5388 1.176015,-2.8973 3.258495,-4.7972 5.482155,-6.75694 20.23278,-3.34026 41.43682,-3.61386 52.29845,19.10534 3.96555,8.2947 6.12901,17.3747 6.33845,26.6108 2.59251,-26.39 -3.67452,-53.1732 -19.17649,-69.7584 -0.1834,-0.1964 1.21609,0.4812 1.03011,0.28786 -0.5729,-0.59546 -2.74272,-2.0492 -3.34019,-2.6172 -0.36561,-0.3472 1.64307,0.89707 2.02427,0.56774 0.49994,-0.432 -4.19371,-2.52614 -4.737,-2.976 -0.18834,-0.15627 0.99568,0.488 1.69808,0.68626 0.46186,0.12934 0.57436,-0.13466 0.44813,-0.23493 -4.8534,-3.83213 -11.37673,-7.186 -18.48473,-9.41587 -0.56895,-0.17906 2.1867,-0.11733 1.61082,-0.28266 -3.4758,-0.34268 -7.24556,-1.29482 -10.38804,-1.81855 -0.8581,-0.14107 3.8021,-1.1852 2.94166,-1.28867 -3.75736,0.45987 -7.8386,0.57134 -11.3972,0.53107 -31.764569,3.19068 -70.159622,12.74255 -55.851595,45.04965 z"
       id="path826-7" />
    <path
       style="fill:url(#linearGradient1345);fill-opacity:1;stroke:none;stroke-width:0.49412113px;stroke-linecap:butt;stroke-linejoin:miter;stroke-opacity:1"
       d="m 104.80129,951.89288 c -10.546105,-0.16386 -20.402145,3.1348 -29.506518,6.16774 l 1.476227,40.23508 c 25.830651,-2.76707 64.736001,-17.53907 80.330351,16.8361 3.95525,8.7183 6.01697,18.2178 6.04197,27.8378 3.25072,-27.4208 -2.71403,-55.4363 -18.50684,-73.02764 -0.18683,-0.20826 1.25599,0.526 1.0664,0.3212 -0.584,-0.6324 -2.81212,-2.19133 -3.42227,-2.79466 -0.37341,-0.3692 1.692,0.96826 2.09578,0.6336 0.52952,-0.4392 -4.31422,-2.71814 -4.87044,-3.198 -0.19283,-0.1656 1.02658,0.52933 1.75374,0.75026 0.47815,0.1448 0.60106,-0.12933 0.47171,-0.23533 -4.97289,-4.09053 -11.69409,-7.71948 -19.04779,-10.18975 -0.5886,-0.1976 2.27871,-0.0773 1.68259,-0.25986 -3.61159,-0.42934 -7.51621,-1.4996 -10.77699,-2.11054 -0.89044,-0.1656 3.98324,-1.1544 3.08958,-1.28013 -3.92148,0.40013 -8.17339,0.43067 -11.8775,0.31427 z"
       id="path826" />
    <path
       style="fill:url(#linearGradient914);fill-opacity:1;stroke:none;stroke-width:0.49412113px;stroke-linecap:butt;stroke-linejoin:miter;stroke-opacity:1"
       d="m 101.70363,987.9297 c -11.976285,4.6828 -26.154751,17.1847 -26.034045,17.298 0.08573,0.083 0.341214,-0.2245 0.422294,-0.1637 0.01387,0 -1.30224,0.9604 -1.1618,1.0818 0.120266,0.104 0.32612,-0.2134 0.454693,-0.1133 0.15556,0.12 -3.42156,4.4804 -4.660627,6.4992 0,0 -3.051146,7.1616 2.001494,7.5152 6.833906,0.4784 5.971933,-4.6412 8.876133,-7.0679 3.071707,-2.5665 7.25232,-6.2013 11.240827,-9.7084 0.34096,-0.2997 -0.228827,1.775 0.108533,1.4779 1.243547,-2.2684 2.381947,-3.6701 4.20548,-5.28534 0.424107,-0.37573 -0.35856,1.96224 0.04547,1.60374 1.669466,-3.8872 4.895208,-5.9872 7.982478,-8.7552"
       id="path834" />
    <path
       style="fill:url(#linearGradient878);fill-opacity:1;stroke:none;stroke-width:0.49412113px;stroke-linecap:butt;stroke-linejoin:miter;stroke-opacity:1"
       d="m 46.301479,996.86596 c -1.394614,1.8084 -4.971254,6.33934 -4.679854,6.47984 0.147987,0.072 0.47144,-0.546 0.602547,-0.4477 0.03027,0.024 -1.24228,1.646 -1.10444,1.7853 0.112267,0.1134 0.481373,-0.7056 0.642933,-0.5964 0.214707,0.1468 -3.643866,7.0091 -4.43396,9.3286 -0.49292,1.4473 -0.1132,4.7418 2.422187,4.7014 2.557,-0.041 5.466067,-2.244 6.192467,-4.7648 0.73796,-2.5609 4.47148,-8.3213 5.29184,-8.1608"
       id="path836" />
    <path
       style="fill:url(#radialGradient3304);fill-opacity:1;stroke:none;stroke-width:0.49410725px;stroke-linecap:butt;stroke-linejoin:miter;stroke-opacity:1"
       d="m 81.167345,956.14808 c -1.9874,0.62867 -3.951533,1.27507 -5.872573,1.91494 l 1.476227,40.23241 c 2.434813,-0.3364 4.907933,-0.7028 7.397346,-1.05293 0.51224,-0.5196 0.86088,-1.10734 0.956547,-1.7864 1.39848,-10.63934 0.44872,-19.55014 -2.266213,-29.70414 0.280613,-0.57693 -0.321134,-4.80386 -1.691334,-9.60388 z"
       id="path828-5" />
    <path
       style="fill:url(#linearGradient862);fill-opacity:1;stroke:none;stroke-width:0.49412113px;stroke-linecap:butt;stroke-linejoin:miter;stroke-opacity:1"
       d="m 59.665239,964.76623 c -7.699574,5.3588 -25.71528,15.97707 -10.65612,38.72907 -0.14152,0.7121 -0.22444,1.762 -0.25912,3.1065 -0.0053,0.2347 0.23328,-0.4749 0.230133,-0.2217 -0.0013,0.2149 -0.0093,0.4533 -0.01707,0.7099 -0.0013,0.072 0.183427,-0.3571 0.180947,-0.2831 -0.05747,1.668 -1.543293,4.9691 -0.30916,6.4032 3.72032,4.3232 8.269653,2.8535 12.186227,0.1027 0.354573,-0.2492 0.71064,-0.5159 1.068933,-0.7987 0.463147,-0.3657 0.930013,-0.7584 1.402173,-1.1751 0.197947,-0.1752 0.05187,0.7756 0.251667,0.5927 1.735093,-3.0935 4.841187,-5.5908 6.9356,-7.7517 1.5466,-1.5939 9.86548,-2.6012 10.39912,-6.3895 0.189907,-1.44507 -0.298373,-6.34227 0.008,-6.36707 0.268787,-0.0227 0.09267,0.94053 0.4158,0.96067 0.365987,0.0227 0.1272,-1.18454 0.18088,-1.17774 0.07587,0 0.489133,1.05054 0.573773,1.04894 0.418227,0 -0.956426,-4.94907 -0.701933,-4.95667 0.32976,0 0.270827,0.95227 0.687387,0.95693 0.221213,0 -2.005627,-6.88973 -1.439827,-6.8764 0.459307,0.02 0.596213,1.3064 1.097,1.41974 0.413347,0.0933 -1.938787,-10.22254 -2.915907,-14.05614 -0.02667,-0.104 0.240894,-0.14106 0.30368,-0.2364 0.04,-0.0613 -0.15132,-0.1952 -0.07493,-0.226 0.08733,-0.036 0.349573,0.076 0.376507,0.0213 0.094,-0.18854 -0.655387,-0.41027 -0.512187,-0.634 0.06867,-0.10667 -0.01067,-0.5116 0.0708,-0.64187 0.471747,-0.75613 1.227813,-1.51133 0.9382,-1.56733 -0.324427,-0.0627 -0.703027,0.83786 -1.03892,0.82893 -0.17288,0 0.555093,-1.88733 0.401307,-1.91627 -0.36824,-0.068 -0.812654,0.90987 -1.128,1.066 -0.0996,0.0507 0.504533,-0.89653 0.09667,-0.90693 -0.07427,0 -0.432786,0.55413 -0.54404,0.28733 -1.241173,-2.97693 -5.145186,-19.38748 -10.4916,-21.36748 -0.106533,-0.04 0.07307,-1.4524 -0.247973,-1.47293 -0.09667,0 -0.444293,1.50787 -0.764973,1.4296 -0.312907,-0.076 -0.598027,-1.74747 -0.768427,-1.5728 -0.185547,0.1904 0.02133,1.40147 -0.09267,1.33333 -0.623386,-0.37293 -0.900813,-0.62973 -1.094213,-0.62026 -0.483947,0.0253 0.842747,0.88866 0.42772,1.15133 -0.208453,0.132 -0.941773,-0.116 -1.13384,0.0693 -0.1132,0.10934 0.30968,0.63374 0.202,0.75907 -3.9654,4.61787 -4.24352,20.24215 -4.24352,20.24215 z"
       id="path828" />
    <path
       style="fill:#501616;stroke:none;stroke-width:0.49412113px;stroke-linecap:butt;stroke-linejoin:miter;stroke-opacity:1"
       d="m 47.464505,1001.102 c 0.620414,-0.16 1.17548,0.2178 1.740414,0.5145 l -1.153027,0.3132 z"
       id="path838" />
    <path
       style="fill:#501616;stroke:none;stroke-width:0.49412113px;stroke-linecap:butt;stroke-linejoin:miter;stroke-opacity:1"
       d="m 55.318145,998.70876 c 1.687214,-2.3792 3.168134,-5.04133 5.308294,-6.7996 l 0.652653,0.31307 c -2.21624,1.86773 -4.057947,4.21653 -5.960947,6.48653 z"
       id="path840" />
    <path
       style="fill:#550000;stroke:none;stroke-width:0.49412113px;stroke-linecap:butt;stroke-linejoin:miter;stroke-opacity:1"
       d="m 50.655452,1011.8108 c -0.19596,-0.197 -0.142667,-0.6918 0.03147,-0.9072 0.645893,-0.7998 1.0132,-1.4382 2.539693,-1.5311 0.172547,-0.02 0.31036,0 0.479973,0.1067 0.1132,0.076 0.117867,0.16 0.151334,0.2997 0.08467,0.3532 0.197853,0.7072 0.01733,1.0101 -0.558413,0.938 -0.07933,1.193 -0.016,1.5122 -0.08307,0.2544 -0.208987,0.4996 -0.69616,0.6712 -1.160613,-0.045 -1.712747,-0.3622 -2.507693,-1.1611 z"
       id="path844" />
    <path
       style="fill:#501616;stroke:none;stroke-width:0.49412113px;stroke-linecap:butt;stroke-linejoin:miter;stroke-opacity:1"
       d="m 54.360919,1014.9476 -0.03547,-0.072 c 1.958973,-0.9 3.808307,-2.1755 5.647467,-3.4856 l 0.1312,0.2032 c -1.85192,1.2082 -3.69428,2.4305 -5.743427,3.355 z"
       id="path846" />
    <path
       style="opacity:0.3;fill:#3c1842;fill-opacity:1;stroke:none;stroke-width:0.52003384px;stroke-linecap:butt;stroke-linejoin:miter;stroke-opacity:1"
       d="m 140.83768,1054.8973 c -0.25813,-0.2785 -2.89601,-2.4432 -2.23697,-1.8064 2.68046,2.5901 1.6121,12.44 -4.43619,19.7619 -4.93227,5.9709 -21.87921,11.8022 -29.34636,0.067 4.18259,2.2064 8.49373,2.6216 12.17913,1.9483 0.92155,-0.1676 -1.3736,-0.8601 -0.54204,-1.1532 1.751,-0.02 3.2696,-0.194 4.6261,-0.6243 0.39825,-0.128 -1.63078,-0.112 -1.25875,-0.286 2.69607,-0.1829 4.37068,-1.3717 5.97492,-3.0394 6.73161,-10.2015 3.64145,-23.321 -10.65036,-25.4715 -6.3102,-0.5699 -14.16753,1.9211 -21.775721,6.2819 -0.635974,0.3641 1.968013,0.2056 1.336573,0.5954 -4.510533,0.9255 -8.29108,3.838 -11.407907,6.4134 -0.53152,0.441 2.843174,-0.2491 2.32484,0.2078 -15.014333,8.0988 -23.76452,31.0782 -17.070786,41.2542 -4.420494,0.1333 -10.740694,-0.2768 -14.050787,-0.6443 -5.80564,-0.6443 -10.081213,-3.4565 -14.794907,-7.1587 -0.96036,-0.7877 3.698067,1.921 2.9128,1.004 -1.891453,-3.6017 -4.480386,-4.6548 -6.613266,-8.1338 -0.270974,-0.5566 3.05048,2.3461 2.82044,1.7646 -0.77608,-5.1348 -3.783254,-11.0281 -4.129067,-15.9805 -0.0093,-0.9927 2.108,2.6095 2.169213,1.5931 1.798067,-9.0178 6.044534,-14.1578 9.990827,-21.785 0.617253,-0.6521 0.162853,2.8694 0.831493,2.2326 19.73696,-18.8072 61.051375,-30.7703 78.321645,-18.3264 2.22109,2.1849 4.84434,3.4344 7.16197,5.642 0.34528,0.3629 -2.37511,-1.3028 -2.03308,-0.912 1.99304,3.8253 5.47475,5.6554 7.9528,9.1109 0.27405,0.4527 -2.77293,-1.8065 -2.50181,-1.3327 1.47656,2.5816 2.896,5.4992 4.24557,8.7771 z"
       id="path1352-1" />
    <path
       style="fill:url(#linearGradient1360);fill-opacity:1;stroke:none;stroke-width:0.55263722px;stroke-linecap:butt;stroke-linejoin:miter;stroke-opacity:1"
       d="m 146.23832,1053.5838 c -0.26869,-0.3006 -3.02821,-2.6537 -2.34069,-1.9637 2.79625,2.8055 1.46424,13.2496 -5.10848,20.9083 -5.35988,6.2456 -23.48271,12.1025 -31.18202,-0.5166 4.39992,2.4278 8.97224,2.9554 12.90147,2.3135 0.98257,-0.16 -1.44225,-0.9412 -0.55285,-1.2365 1.8607,0.019 3.4779,-0.1391 4.92766,-0.5711 0.42572,-0.128 -1.73046,-0.1524 -1.33168,-0.3289 2.86826,-0.139 4.6713,-1.3702 6.40912,-3.1102 7.35628,-10.7042 4.33519,-24.7056 -10.80697,-27.2762 -6.69323,-0.7316 -15.09151,1.7578 -23.262401,6.2388 -0.683014,0.3745 2.08692,0.2577 1.408213,0.6594 -4.81096,0.8934 -8.88604,3.9124 -12.249147,6.5863 -0.573586,0.4583 3.025947,-0.2065 2.465987,0.2672 -16.114707,8.3053 -25.871133,32.5457 -18.962373,43.4917 -4.69944,0.053 -11.406534,-0.5088 -14.9162,-0.9656 -6.15564,-0.8008 -10.64228,-3.874 -15.576614,-7.9017 -1.004626,-0.8564 3.890854,2.1149 3.074814,1.1248 -1.93768,-3.8648 -4.6674,-5.0353 -6.864054,-8.7747 -0.276786,-0.5968 3.194254,2.5538 2.961467,1.9314 -0.72196,-5.4712 -3.79932,-11.7928 -4.067747,-17.0618 0.0093,-1.055 2.1876,2.8147 2.272974,1.7359 2.09068,-9.5453 6.70532,-14.9217 11.050746,-22.9469 0.668867,-0.6804 0.115867,3.052 0.8388,2.3885 21.346587,-19.5879 65.482545,-31.4729 83.583585,-17.9063 2.31624,2.366 5.07851,3.7458 7.49688,6.1378 0.35962,0.3928 -2.49753,-1.4316 -2.14196,-1.0098 2.04119,4.1047 5.70394,6.1184 8.26784,9.8396 0.28211,0.4864 -2.91017,-1.9749 -2.63157,-1.466 1.51727,2.7724 2.96708,5.9008 4.33552,9.4106 z"
       id="path1352" />
  </g>
  <path
     id="path1352-7"
     d="m 138.78911,142.00861 c -5.35987,6.24551 -23.48264,12.10245 -31.18194,-0.51657 4.39991,2.4278 8.97223,2.95523 12.90145,2.31351 0.98255,-0.15999 -1.44226,-0.94114 -0.55287,-1.23656 1.86072,0.019 3.47791,-0.13905 4.92766,-0.57105 0.42574,-0.12762 -1.73045,-0.15238 -1.33169,-0.32895 2.86826,-0.13905 4.67129,-1.37009 6.40913,-3.11009 1.20365,-1.71104 1.90293,-3.3158 1.90293,-3.3158 0.44628,0.19086 -0.80672,4.16532 0.028,4.76056 0.17447,0.12381 1.37853,-1.62571 1.37853,-1.62571 0.34487,0.12381 0.26756,1.86685 0.86097,1.06876 1.34714,-1.81143 2.86656,-4.49942 2.86656,-4.49942 0.25577,0.0857 -0.90598,3.76856 -0.6483,3.97618 0.3124,0.25162 0.80312,-0.80114 0.80312,-0.80114 0.20484,0.0648 0.12781,0.96819 0.10629,1.24114 -0.0369,0.47028 0.83946,-0.39962 1.10843,-0.5499 0.3133,-0.17524 -0.26042,1.8278 -0.14762,2.01104 0.14114,0.22933 2.73125,-2.64533 3.14699,-2.35714 0,0 -1.18292,1.93028 -2.57767,3.54114 z"
     style="fill:#501616;fill-opacity:1;stroke:none;stroke-width:0.55263585px;stroke-linecap:butt;stroke-linejoin:miter;stroke-opacity:1" />
</svg>
