<?xml version="1.0" encoding="UTF-8" standalone="no"?>
<svg
   xmlns:dc="http://purl.org/dc/elements/1.1/"
   xmlns:cc="http://creativecommons.org/ns#"
   xmlns:rdf="http://www.w3.org/1999/02/22-rdf-syntax-ns#"
   xmlns:svg="http://www.w3.org/2000/svg"
   xmlns="http://www.w3.org/2000/svg"
   xmlns:xlink="http://www.w3.org/1999/xlink"
   id="svg8"
   version="1.1"
   viewBox="0 0 300 250.00002"
   height="250"
   width="300">
  <title
     id="title2459">Fennec Logo</title>
  <defs
     id="defs2">
    <linearGradient
       id="linearGradient1175">
      <stop
         style="stop-color:#000000;stop-opacity:0"
         offset="0"
         id="stop1171" />
      <stop
         id="stop1177"
         offset="0.92585164"
         style="stop-color:#000000;stop-opacity:0" />
      <stop
         style="stop-color:#000000;stop-opacity:0.3"
         offset="1"
         id="stop1173" />
    </linearGradient>
    <linearGradient
       id="linearGradient1019">
      <stop
         style="stop-color:#be5133;stop-opacity:1"
         offset="0"
         id="stop1015" />
      <stop
         style="stop-color:#81176b;stop-opacity:0"
         offset="1"
         id="stop1017" />
    </linearGradient>
    <linearGradient
       id="linearGradient922">
      <stop
         id="stop918"
         offset="0"
         style="stop-color:#9d1c6f;stop-opacity:1" />
      <stop
         id="stop920"
         offset="1"
         style="stop-color:#590f66;stop-opacity:1" />
    </linearGradient>
    <linearGradient
       id="linearGradient884">
      <stop
         id="stop880"
         offset="0"
         style="stop-color:#d89538;stop-opacity:1" />
      <stop
         id="stop890"
         offset="0.71995175"
         style="stop-color:#be5133;stop-opacity:1" />
      <stop
         id="stop882"
         offset="1"
         style="stop-color:#a3206d;stop-opacity:1" />
    </linearGradient>
    <linearGradient
       id="linearGradient860">
      <stop
         id="stop856"
         offset="0"
         style="stop-color:#dfb24f;stop-opacity:1" />
      <stop
         id="stop858"
         offset="1"
         style="stop-color:#d58b2f;stop-opacity:1" />
    </linearGradient>
    <linearGradient
       gradientUnits="userSpaceOnUse"
       y2="115.77173"
       x2="176.97937"
       y1="128.29868"
       x1="130.76288"
       id="linearGradient898"
       xlink:href="#linearGradient884" />
    <radialGradient
       gradientTransform="matrix(0.96736463,0,0,0.96736455,-87.638691,906.59412)"
       gradientUnits="userSpaceOnUse"
       r="35"
       fy="147.13304"
       fx="146.95654"
       cy="147.13304"
       cx="146.95654"
       id="radialGradient924"
       xlink:href="#linearGradient922" />
    <clipPath
       id="clipPath947"
       clipPathUnits="userSpaceOnUse">
      <rect
         y="130.97395"
         x="-20.599701"
         height="12.473214"
         width="40.632439"
         id="rect949"
         style="fill:#ffffff;fill-opacity:1;stroke:none;stroke-width:0.52916664;stroke-miterlimit:4;stroke-dasharray:none;stroke-opacity:1" />
    </clipPath>
    <radialGradient
       gradientUnits="userSpaceOnUse"
       gradientTransform="matrix(0.37405124,-0.00920865,0.0243287,1.2328116,-155.66076,530.68223)"
       r="10.743572"
       fy="390.91138"
       fx="495.03906"
       cy="390.91138"
       cx="495.03906"
       id="radialGradient1013"
       xlink:href="#linearGradient1019" />
    <radialGradient
       gradientTransform="matrix(0.82721054,0,0,0.82721054,30.897651,22.271848)"
       gradientUnits="userSpaceOnUse"
       r="35"
       fy="140.99358"
       fx="137.95357"
       cy="140.99358"
       cx="137.95357"
       id="radialGradient924-3"
       xlink:href="#linearGradient1175" />
    <radialGradient
       gradientTransform="matrix(3.7795276,0,0,3.7795276,9.8361233e-7,5.1911418e-6)"
       gradientUnits="userSpaceOnUse"
       r="35"
       fy="147.6622"
       fx="136.10863"
       cy="147.6622"
       cx="136.10863"
       id="radialGradient924-0"
       xlink:href="#linearGradient922" />
    <radialGradient
       id="radial-gradient"
       cx="-15255.97"
       cy="8846.1299"
       fx="-15267.12"
       r="174.94"
       gradientTransform="matrix(0.76,0.03,0.05,-1.12,11869.429,10569.689)"
       gradientUnits="userSpaceOnUse">
      <stop
         offset="0.1"
         stop-color="#ffea00"
         id="stop1588" />
      <stop
         offset="0.17"
         stop-color="#ffde00"
         id="stop1590" />
      <stop
         offset="0.28"
         stop-color="#ffbf00"
         id="stop1592" />
      <stop
         offset="0.43"
         stop-color="#ff8e00"
         id="stop1594" />
      <stop
         offset="0.77"
         stop-color="#ff272d"
         id="stop1596" />
      <stop
         offset="0.87"
         stop-color="#e0255a"
         id="stop1598" />
      <stop
         offset="0.95"
         stop-color="#cc2477"
         id="stop1600" />
      <stop
         offset="1"
         stop-color="#c42482"
         id="stop1602" />
    </radialGradient>
    <radialGradient
       id="radial-gradient-2"
       cx="-7884.4399"
       cy="8442.2002"
       r="306.98999"
       gradientTransform="matrix(1.23,0,0,-1.23,9918.06,10417.47)"
       gradientUnits="userSpaceOnUse">
      <stop
         offset="0"
         stop-color="#00ccda"
         id="stop1605" />
      <stop
         offset="0.22"
         stop-color="#0083ff"
         id="stop1607" />
      <stop
         offset="0.26"
         stop-color="#007af9"
         id="stop1609" />
      <stop
         offset="0.33"
         stop-color="#0060e8"
         id="stop1611" />
      <stop
         offset="0.33"
         stop-color="#005fe7"
         id="stop1613" />
      <stop
         offset="0.44"
         stop-color="#2639ad"
         id="stop1615" />
      <stop
         offset="0.52"
         stop-color="#401e84"
         id="stop1617" />
      <stop
         offset="0.57"
         stop-color="#4a1475"
         id="stop1619" />
    </radialGradient>
    <linearGradient
       id="linear-gradient"
       x1="209.78"
       y1="101.08"
       x2="135.5"
       y2="344.04999"
       gradientTransform="matrix(1,0,0,-1,333.54871,431.03892)"
       gradientUnits="userSpaceOnUse">
      <stop
         offset="0"
         stop-color="#000f43"
         stop-opacity="0.4"
         id="stop1622" />
      <stop
         offset="0.48"
         stop-color="#001962"
         stop-opacity="0.17"
         id="stop1624" />
      <stop
         offset="1"
         stop-color="#002079"
         stop-opacity="0"
         id="stop1626" />
    </linearGradient>
    <radialGradient
       id="radial-gradient-3"
       cx="-8792.46"
       cy="7205.23"
       r="103.55"
       gradientTransform="matrix(1.22,0.12,0.12,-1.22,10554.819,10154.779)"
       gradientUnits="userSpaceOnUse">
      <stop
         offset="0"
         stop-color="#ffea00"
         id="stop1629" />
      <stop
         offset="0.5"
         stop-color="#ff272d"
         id="stop1631" />
      <stop
         offset="1"
         stop-color="#c42482"
         id="stop1633" />
    </radialGradient>
    <radialGradient
       id="radial-gradient-4"
       cx="-8801.8203"
       cy="7304.52"
       r="172.92"
       gradientTransform="matrix(1.22,0.12,0.12,-1.22,10554.819,10154.779)"
       gradientUnits="userSpaceOnUse">
      <stop
         offset="0"
         stop-color="#ffe900"
         id="stop1636" />
      <stop
         offset="0.16"
         stop-color="#ffaf0e"
         id="stop1638" />
      <stop
         offset="0.32"
         stop-color="#ff7a1b"
         id="stop1640" />
      <stop
         offset="0.47"
         stop-color="#ff4e26"
         id="stop1642" />
      <stop
         offset="0.62"
         stop-color="#ff2c2e"
         id="stop1644" />
      <stop
         offset="0.76"
         stop-color="#ff1434"
         id="stop1646" />
      <stop
         offset="0.89"
         stop-color="#ff0538"
         id="stop1648" />
      <stop
         offset="1"
         stop-color="#ff0039"
         id="stop1650" />
    </radialGradient>
    <radialGradient
       id="radial-gradient-5"
       cx="-8777.3701"
       cy="7144.23"
       r="158.67"
       gradientTransform="matrix(1.22,0.12,0.12,-1.22,10554.819,10154.779)"
       gradientUnits="userSpaceOnUse">
      <stop
         offset="0"
         stop-color="#ff272d"
         id="stop1653" />
      <stop
         offset="0.5"
         stop-color="#c42482"
         id="stop1655" />
      <stop
         offset="0.99"
         stop-color="#620700"
         id="stop1657" />
    </radialGradient>
    <radialGradient
       id="radial-gradient-6"
       cx="277.48999"
       cy="231.11"
       fx="288.34348"
       r="303.48001"
       gradientTransform="matrix(1,0,0,-1,333.54871,431.03892)"
       gradientUnits="userSpaceOnUse">
      <stop
         offset="0.16"
         stop-color="#ffea00"
         id="stop1660" />
      <stop
         offset="0.23"
         stop-color="#ffde00"
         id="stop1662" />
      <stop
         offset="0.37"
         stop-color="#ffbf00"
         id="stop1664" />
      <stop
         offset="0.54"
         stop-color="#ff8e00"
         id="stop1666" />
      <stop
         offset="0.76"
         stop-color="#ff272d"
         id="stop1668" />
      <stop
         offset="0.8"
         stop-color="#f92433"
         id="stop1670" />
      <stop
         offset="0.84"
         stop-color="#e91c45"
         id="stop1672" />
      <stop
         offset="0.89"
         stop-color="#cf0e62"
         id="stop1674" />
      <stop
         offset="0.94"
         stop-color="#b5007f"
         id="stop1676" />
    </radialGradient>
    <radialGradient
       id="radial-gradient-7"
       cx="260.09"
       cy="371.85999"
       r="345.87"
       gradientTransform="matrix(1,0,0,-1,333.54871,431.03892)"
       gradientUnits="userSpaceOnUse">
      <stop
         offset="0.28"
         stop-color="#ffea00"
         id="stop1679" />
      <stop
         offset="0.4"
         stop-color="#fd0"
         id="stop1681" />
      <stop
         offset="0.63"
         stop-color="#ffba00"
         id="stop1683" />
      <stop
         offset="0.86"
         stop-color="#ff9100"
         id="stop1685" />
      <stop
         offset="0.93"
         stop-color="#ff6711"
         id="stop1687" />
      <stop
         offset="0.99"
         stop-color="#ff4a1d"
         id="stop1689" />
    </radialGradient>
    <linearGradient
       id="linear-gradient-2"
       x1="-9059.7598"
       y1="7275.7402"
       x2="-8940.6299"
       y2="7306.1001"
       gradientTransform="matrix(1.22,0.12,0.12,-1.22,10554.819,10154.779)"
       gradientUnits="userSpaceOnUse">
      <stop
         offset="0"
         stop-color="#c42482"
         stop-opacity="0.5"
         id="stop1692" />
      <stop
         offset="0.47"
         stop-color="#ff272d"
         stop-opacity="0.5"
         id="stop1694" />
      <stop
         offset="0.49"
         stop-color="#ff2c2c"
         stop-opacity="0.51"
         id="stop1696" />
      <stop
         offset="0.68"
         stop-color="#ff7a1a"
         stop-opacity="0.72"
         id="stop1698" />
      <stop
         offset="0.83"
         stop-color="#ffb20d"
         stop-opacity="0.87"
         id="stop1700" />
      <stop
         offset="0.94"
         stop-color="#ffd605"
         stop-opacity="0.96"
         id="stop1702" />
      <stop
         offset="1"
         stop-color="#ffe302"
         id="stop1704" />
    </linearGradient>
    <linearGradient
       id="linear-gradient-3"
       x1="129.91"
       y1="1613.65"
       x2="108.74"
       y2="1667.91"
       gradientTransform="matrix(0.99,0.1,0.1,-0.99,100.74871,1737.8789)"
       gradientUnits="userSpaceOnUse">
      <stop
         offset="0"
         stop-color="#891551"
         stop-opacity="0.6"
         id="stop1707" />
      <stop
         offset="1"
         stop-color="#c42482"
         stop-opacity="0"
         id="stop1709" />
    </linearGradient>
    <linearGradient
       id="linear-gradient-4"
       x1="-156.48"
       y1="-66.730003"
       x2="-119.96"
       y2="-108.2"
       gradientTransform="matrix(0.99,0.1,0.1,-0.99,579.87871,177.46892)"
       gradientUnits="userSpaceOnUse">
      <stop
         offset="0.01"
         stop-color="#891551"
         stop-opacity="0.5"
         id="stop1712" />
      <stop
         offset="0.48"
         stop-color="#ff272d"
         stop-opacity="0.5"
         id="stop1714" />
      <stop
         offset="1"
         stop-color="#ff272d"
         stop-opacity="0"
         id="stop1716" />
    </linearGradient>
    <linearGradient
       id="linear-gradient-5"
       x1="-86.150002"
       y1="-137.49001"
       x2="-86.120003"
       y2="-108.48"
       gradientTransform="matrix(0.99,0.1,0.1,-0.99,579.87871,177.46892)"
       gradientUnits="userSpaceOnUse">
      <stop
         offset="0"
         stop-color="#c42482"
         id="stop1719" />
      <stop
         offset="0.08"
         stop-color="#c42482"
         stop-opacity="0.81"
         id="stop1721" />
      <stop
         offset="0.21"
         stop-color="#c42482"
         stop-opacity="0.57"
         id="stop1723" />
      <stop
         offset="0.33"
         stop-color="#c42482"
         stop-opacity="0.36"
         id="stop1725" />
      <stop
         offset="0.45"
         stop-color="#c42482"
         stop-opacity="0.2"
         id="stop1727" />
      <stop
         offset="0.56"
         stop-color="#c42482"
         stop-opacity="0.09"
         id="stop1729" />
      <stop
         offset="0.67"
         stop-color="#c42482"
         stop-opacity="0.02"
         id="stop1731" />
      <stop
         offset="0.77"
         stop-color="#c42482"
         stop-opacity="0"
         id="stop1733" />
    </linearGradient>
    <linearGradient
       id="linear-gradient-6"
       x1="240.77"
       y1="370"
       x2="359.35999"
       y2="104.8"
       gradientTransform="matrix(1,0,0,-1,333.54871,431.03892)"
       gradientUnits="userSpaceOnUse">
      <stop
         offset="0"
         stop-color="#fff14f"
         id="stop1736" />
      <stop
         offset="0.27"
         stop-color="#ffee4c"
         id="stop1738" />
      <stop
         offset="0.45"
         stop-color="#ffe643"
         id="stop1740" />
      <stop
         offset="0.61"
         stop-color="#ffd834"
         id="stop1742" />
      <stop
         offset="0.76"
         stop-color="#ffc41e"
         id="stop1744" />
      <stop
         offset="0.89"
         stop-color="#ffab02"
         id="stop1746" />
      <stop
         offset="0.9"
         stop-color="#ffa900"
         id="stop1748" />
      <stop
         offset="0.95"
         stop-color="#ffa000"
         id="stop1750" />
      <stop
         offset="1"
         stop-color="#ff9100"
         id="stop1752" />
    </linearGradient>
    <linearGradient
       id="linear-gradient-7"
       x1="264.17999"
       y1="217.47"
       x2="208"
       y2="66.639999"
       gradientTransform="matrix(1,0,0,-1,333.54871,431.03892)"
       gradientUnits="userSpaceOnUse">
      <stop
         offset="0"
         stop-color="#ff8e00"
         id="stop1755" />
      <stop
         offset="0.04"
         stop-color="#ff8e00"
         stop-opacity="0.86"
         id="stop1757" />
      <stop
         offset="0.08"
         stop-color="#ff8e00"
         stop-opacity="0.73"
         id="stop1759" />
      <stop
         offset="0.13"
         stop-color="#ff8e00"
         stop-opacity="0.63"
         id="stop1761" />
      <stop
         offset="0.18"
         stop-color="#ff8e00"
         stop-opacity="0.56"
         id="stop1763" />
      <stop
         offset="0.23"
         stop-color="#ff8e00"
         stop-opacity="0.51"
         id="stop1765" />
      <stop
         offset="0.28"
         stop-color="#ff8e00"
         stop-opacity="0.5"
         id="stop1767" />
      <stop
         offset="0.39"
         stop-color="#ff8e00"
         stop-opacity="0.48"
         id="stop1769" />
      <stop
         offset="0.52"
         stop-color="#ff8e00"
         stop-opacity="0.42"
         id="stop1771" />
      <stop
         offset="0.68"
         stop-color="#ff8e00"
         stop-opacity="0.31"
         id="stop1773" />
      <stop
         offset="0.84"
         stop-color="#ff8e00"
         stop-opacity="0.17"
         id="stop1775" />
      <stop
         offset="1"
         stop-color="#ff8e00"
         stop-opacity="0"
         id="stop1777" />
    </linearGradient>
    <radialGradient
       id="radial-gradient-49"
       cx="-15255.97"
       cy="8846.1299"
       fx="-15267.12"
       r="174.94"
       gradientTransform="matrix(0.76,0.03,0.05,-1.12,11535.88,10522.65)"
       gradientUnits="userSpaceOnUse">
      <stop
         offset="0.1"
         stop-color="#ffea00"
         id="stop1997" />
      <stop
         offset="0.17"
         stop-color="#ffde00"
         id="stop1999" />
      <stop
         offset="0.28"
         stop-color="#ffbf00"
         id="stop2001" />
      <stop
         offset="0.43"
         stop-color="#ff8e00"
         id="stop2003" />
      <stop
         offset="0.77"
         stop-color="#ff272d"
         id="stop2005" />
      <stop
         offset="0.87"
         stop-color="#e0255a"
         id="stop2007" />
      <stop
         offset="0.95"
         stop-color="#cc2477"
         id="stop2009" />
      <stop
         offset="1"
         stop-color="#c42482"
         id="stop2011" />
    </radialGradient>
    <radialGradient
       id="radial-gradient-2-5"
       cx="-7884.4399"
       cy="8442.2002"
       r="306.98999"
       gradientTransform="matrix(1.23,0,0,-1.23,9918.06,10417.47)"
       gradientUnits="userSpaceOnUse">
      <stop
         offset="0"
         stop-color="#00ccda"
         id="stop2014" />
      <stop
         offset="0.22"
         stop-color="#0083ff"
         id="stop2016" />
      <stop
         offset="0.26"
         stop-color="#007af9"
         id="stop2018" />
      <stop
         offset="0.33"
         stop-color="#0060e8"
         id="stop2020" />
      <stop
         offset="0.33"
         stop-color="#005fe7"
         id="stop2022" />
      <stop
         offset="0.44"
         stop-color="#2639ad"
         id="stop2024" />
      <stop
         offset="0.52"
         stop-color="#401e84"
         id="stop2026" />
      <stop
         offset="0.57"
         stop-color="#4a1475"
         id="stop2028" />
    </radialGradient>
    <linearGradient
       id="linear-gradient-0"
       x1="209.78"
       y1="101.08"
       x2="135.5"
       y2="344.04999"
       gradientTransform="matrix(1,0,0,-1,0,384)"
       gradientUnits="userSpaceOnUse">
      <stop
         offset="0"
         stop-color="#000f43"
         stop-opacity="0.4"
         id="stop2031" />
      <stop
         offset="0.48"
         stop-color="#001962"
         stop-opacity="0.17"
         id="stop2033" />
      <stop
         offset="1"
         stop-color="#002079"
         stop-opacity="0"
         id="stop2035" />
    </linearGradient>
    <radialGradient
       id="radial-gradient-3-4"
       cx="-8792.46"
       cy="7205.23"
       r="103.55"
       gradientTransform="matrix(1.22,0.12,0.12,-1.22,10221.27,10107.74)"
       gradientUnits="userSpaceOnUse">
      <stop
         offset="0"
         stop-color="#ffea00"
         id="stop2038" />
      <stop
         offset="0.5"
         stop-color="#ff272d"
         id="stop2040" />
      <stop
         offset="1"
         stop-color="#c42482"
         id="stop2042" />
    </radialGradient>
    <radialGradient
       id="radial-gradient-4-8"
       cx="-8801.8203"
       cy="7304.52"
       r="172.92"
       gradientTransform="matrix(1.22,0.12,0.12,-1.22,10221.27,10107.74)"
       gradientUnits="userSpaceOnUse">
      <stop
         offset="0"
         stop-color="#ffe900"
         id="stop2045" />
      <stop
         offset="0.16"
         stop-color="#ffaf0e"
         id="stop2047" />
      <stop
         offset="0.32"
         stop-color="#ff7a1b"
         id="stop2049" />
      <stop
         offset="0.47"
         stop-color="#ff4e26"
         id="stop2051" />
      <stop
         offset="0.62"
         stop-color="#ff2c2e"
         id="stop2053" />
      <stop
         offset="0.76"
         stop-color="#ff1434"
         id="stop2055" />
      <stop
         offset="0.89"
         stop-color="#ff0538"
         id="stop2057" />
      <stop
         offset="1"
         stop-color="#ff0039"
         id="stop2059" />
    </radialGradient>
    <radialGradient
       id="radial-gradient-5-7"
       cx="-8777.3701"
       cy="7144.23"
       r="158.67"
       gradientTransform="matrix(1.22,0.12,0.12,-1.22,10221.27,10107.74)"
       gradientUnits="userSpaceOnUse">
      <stop
         offset="0"
         stop-color="#ff272d"
         id="stop2062" />
      <stop
         offset="0.5"
         stop-color="#c42482"
         id="stop2064" />
      <stop
         offset="0.99"
         stop-color="#620700"
         id="stop2066" />
    </radialGradient>
    <radialGradient
       id="radial-gradient-6-1"
       cx="277.48999"
       cy="231.11"
       fx="288.34348"
       r="303.48001"
       gradientTransform="matrix(1,0,0,-1,0,384)"
       gradientUnits="userSpaceOnUse">
      <stop
         offset="0.16"
         stop-color="#ffea00"
         id="stop2069" />
      <stop
         offset="0.23"
         stop-color="#ffde00"
         id="stop2071" />
      <stop
         offset="0.37"
         stop-color="#ffbf00"
         id="stop2073" />
      <stop
         offset="0.54"
         stop-color="#ff8e00"
         id="stop2075" />
      <stop
         offset="0.76"
         stop-color="#ff272d"
         id="stop2077" />
      <stop
         offset="0.8"
         stop-color="#f92433"
         id="stop2079" />
      <stop
         offset="0.84"
         stop-color="#e91c45"
         id="stop2081" />
      <stop
         offset="0.89"
         stop-color="#cf0e62"
         id="stop2083" />
      <stop
         offset="0.94"
         stop-color="#b5007f"
         id="stop2085" />
    </radialGradient>
    <radialGradient
       id="radial-gradient-7-7"
       cx="260.09"
       cy="371.85999"
       r="345.87"
       gradientTransform="matrix(1,0,0,-1,0,384)"
       gradientUnits="userSpaceOnUse">
      <stop
         offset="0.28"
         stop-color="#ffea00"
         id="stop2088" />
      <stop
         offset="0.4"
         stop-color="#fd0"
         id="stop2090" />
      <stop
         offset="0.63"
         stop-color="#ffba00"
         id="stop2092" />
      <stop
         offset="0.86"
         stop-color="#ff9100"
         id="stop2094" />
      <stop
         offset="0.93"
         stop-color="#ff6711"
         id="stop2096" />
      <stop
         offset="0.99"
         stop-color="#ff4a1d"
         id="stop2098" />
    </radialGradient>
    <linearGradient
       id="linear-gradient-2-2"
       x1="-9059.7598"
       y1="7275.7402"
       x2="-8940.6299"
       y2="7306.1001"
       gradientTransform="matrix(1.22,0.12,0.12,-1.22,10221.27,10107.74)"
       gradientUnits="userSpaceOnUse">
      <stop
         offset="0"
         stop-color="#c42482"
         stop-opacity="0.5"
         id="stop2101" />
      <stop
         offset="0.47"
         stop-color="#ff272d"
         stop-opacity="0.5"
         id="stop2103" />
      <stop
         offset="0.49"
         stop-color="#ff2c2c"
         stop-opacity="0.51"
         id="stop2105" />
      <stop
         offset="0.68"
         stop-color="#ff7a1a"
         stop-opacity="0.72"
         id="stop2107" />
      <stop
         offset="0.83"
         stop-color="#ffb20d"
         stop-opacity="0.87"
         id="stop2109" />
      <stop
         offset="0.94"
         stop-color="#ffd605"
         stop-opacity="0.96"
         id="stop2111" />
      <stop
         offset="1"
         stop-color="#ffe302"
         id="stop2113" />
    </linearGradient>
    <linearGradient
       id="linear-gradient-3-7"
       x1="129.91"
       y1="1613.65"
       x2="108.74"
       y2="1667.91"
       gradientTransform="matrix(0.99,0.1,0.1,-0.99,-232.8,1690.84)"
       gradientUnits="userSpaceOnUse">
      <stop
         offset="0"
         stop-color="#891551"
         stop-opacity="0.6"
         id="stop2116" />
      <stop
         offset="1"
         stop-color="#c42482"
         stop-opacity="0"
         id="stop2118" />
    </linearGradient>
    <linearGradient
       id="linear-gradient-4-2"
       x1="-156.48"
       y1="-66.730003"
       x2="-119.96"
       y2="-108.2"
       gradientTransform="matrix(0.99,0.1,0.1,-0.99,246.33,130.43)"
       gradientUnits="userSpaceOnUse">
      <stop
         offset="0.01"
         stop-color="#891551"
         stop-opacity="0.5"
         id="stop2121" />
      <stop
         offset="0.48"
         stop-color="#ff272d"
         stop-opacity="0.5"
         id="stop2123" />
      <stop
         offset="1"
         stop-color="#ff272d"
         stop-opacity="0"
         id="stop2125" />
    </linearGradient>
    <linearGradient
       id="linear-gradient-5-2"
       x1="-86.150002"
       y1="-137.49001"
       x2="-86.120003"
       y2="-108.48"
       gradientTransform="matrix(0.99,0.1,0.1,-0.99,246.33,130.43)"
       gradientUnits="userSpaceOnUse">
      <stop
         offset="0"
         stop-color="#c42482"
         id="stop2128" />
      <stop
         offset="0.08"
         stop-color="#c42482"
         stop-opacity="0.81"
         id="stop2130" />
      <stop
         offset="0.21"
         stop-color="#c42482"
         stop-opacity="0.57"
         id="stop2132" />
      <stop
         offset="0.33"
         stop-color="#c42482"
         stop-opacity="0.36"
         id="stop2134" />
      <stop
         offset="0.45"
         stop-color="#c42482"
         stop-opacity="0.2"
         id="stop2136" />
      <stop
         offset="0.56"
         stop-color="#c42482"
         stop-opacity="0.09"
         id="stop2138" />
      <stop
         offset="0.67"
         stop-color="#c42482"
         stop-opacity="0.02"
         id="stop2140" />
      <stop
         offset="0.77"
         stop-color="#c42482"
         stop-opacity="0"
         id="stop2142" />
    </linearGradient>
    <linearGradient
       id="linear-gradient-6-6"
       x1="240.77"
       y1="370"
       x2="359.35999"
       y2="104.8"
       gradientTransform="matrix(1,0,0,-1,0,384)"
       gradientUnits="userSpaceOnUse">
      <stop
         offset="0"
         stop-color="#fff14f"
         id="stop2145" />
      <stop
         offset="0.27"
         stop-color="#ffee4c"
         id="stop2147" />
      <stop
         offset="0.45"
         stop-color="#ffe643"
         id="stop2149" />
      <stop
         offset="0.61"
         stop-color="#ffd834"
         id="stop2151" />
      <stop
         offset="0.76"
         stop-color="#ffc41e"
         id="stop2153" />
      <stop
         offset="0.89"
         stop-color="#ffab02"
         id="stop2155" />
      <stop
         offset="0.9"
         stop-color="#ffa900"
         id="stop2157" />
      <stop
         offset="0.95"
         stop-color="#ffa000"
         id="stop2159" />
      <stop
         offset="1"
         stop-color="#ff9100"
         id="stop2161" />
    </linearGradient>
    <linearGradient
       id="linear-gradient-7-1"
       x1="264.17999"
       y1="217.47"
       x2="208"
       y2="66.639999"
       gradientTransform="matrix(1,0,0,-1,0,384)"
       gradientUnits="userSpaceOnUse">
      <stop
         offset="0"
         stop-color="#ff8e00"
         id="stop2164" />
      <stop
         offset="0.04"
         stop-color="#ff8e00"
         stop-opacity="0.86"
         id="stop2166" />
      <stop
         offset="0.08"
         stop-color="#ff8e00"
         stop-opacity="0.73"
         id="stop2168" />
      <stop
         offset="0.13"
         stop-color="#ff8e00"
         stop-opacity="0.63"
         id="stop2170" />
      <stop
         offset="0.18"
         stop-color="#ff8e00"
         stop-opacity="0.56"
         id="stop2172" />
      <stop
         offset="0.23"
         stop-color="#ff8e00"
         stop-opacity="0.51"
         id="stop2174" />
      <stop
         offset="0.28"
         stop-color="#ff8e00"
         stop-opacity="0.5"
         id="stop2176" />
      <stop
         offset="0.39"
         stop-color="#ff8e00"
         stop-opacity="0.48"
         id="stop2178" />
      <stop
         offset="0.52"
         stop-color="#ff8e00"
         stop-opacity="0.42"
         id="stop2180" />
      <stop
         offset="0.68"
         stop-color="#ff8e00"
         stop-opacity="0.31"
         id="stop2182" />
      <stop
         offset="0.84"
         stop-color="#ff8e00"
         stop-opacity="0.17"
         id="stop2184" />
      <stop
         offset="1"
         stop-color="#ff8e00"
         stop-opacity="0"
         id="stop2186" />
    </linearGradient>
    <linearGradient
       gradientTransform="matrix(0.27627464,0,0,0.28404243,105.77117,198.87015)"
       gradientUnits="userSpaceOnUse"
       y2="104.08393"
       x2="133.64702"
       y1="104.08393"
       x1="112.46608"
       id="linearGradient862-9"
       xlink:href="#linearGradient860" />
    <linearGradient
       y2="104.08393"
       x2="133.64702"
       y1="104.08393"
       x1="112.46608"
       gradientTransform="matrix(0.27627464,0,0,0.28404243,105.77117,198.87015)"
       gradientUnits="userSpaceOnUse"
       id="linearGradient4034"
       xlink:href="#linearGradient860" />
    <linearGradient
       y2="128.17346"
       x2="165.79822"
       y1="173.91913"
       x1="136.81311"
       gradientTransform="matrix(0.8238669,0.70123772,-0.71771991,0.84865221,35.177686,820.51785)"
       gradientUnits="userSpaceOnUse"
       id="linearGradient1174"
       xlink:href="#linearGradient1346" />
    <linearGradient
       id="linearGradient1346">
      <stop
         style="stop-color:#ffe198;stop-opacity:1"
         offset="0"
         id="stop1339" />
      <stop
         style="stop-color:#ffbb4d;stop-opacity:1"
         offset="1"
         id="stop1343" />
    </linearGradient>
    <linearGradient
       gradientTransform="matrix(0.96696131,0,0,0.99414859,-82.301018,907.31552)"
       gradientUnits="userSpaceOnUse"
       y2="104.08393"
       x2="133.64702"
       y1="104.08393"
       x1="112.46608"
       id="linearGradient862-2"
       xlink:href="#linearGradient1160" />
    <linearGradient
       id="linearGradient1160">
      <stop
         style="stop-color:#fff9d1;stop-opacity:1"
         offset="0"
         id="stop1156" />
      <stop
         style="stop-color:#ffdc8e;stop-opacity:1"
         offset="1"
         id="stop1158" />
    </linearGradient>
    <radialGradient
       r="10.743572"
       fy="390.91138"
       fx="495.03906"
       cy="390.91138"
       cx="495.03906"
       gradientTransform="matrix(0.37405124,-0.00920865,0.0243287,1.2328116,-150.36653,534.59634)"
       gradientUnits="userSpaceOnUse"
       id="radialGradient3304-7"
       xlink:href="#linearGradient1172" />
    <linearGradient
       id="linearGradient1172">
      <stop
         id="stop1168"
         offset="0"
         style="stop-color:#ff9912;stop-opacity:1" />
      <stop
         id="stop1170"
         offset="1"
         style="stop-color:#ff9810;stop-opacity:0" />
    </linearGradient>
    <linearGradient
       gradientTransform="matrix(0.96696131,0,0,0.99414859,-82.301018,907.31552)"
       gradientUnits="userSpaceOnUse"
       y2="119.1124"
       x2="116.98858"
       y1="119.1124"
       x1="109.17788"
       id="linearGradient878-8"
       xlink:href="#linearGradient1166" />
    <linearGradient
       id="linearGradient1166">
      <stop
         style="stop-color:#ffd782;stop-opacity:1"
         offset="0"
         id="stop1162" />
      <stop
         style="stop-color:#ffd57d;stop-opacity:1"
         offset="1"
         id="stop1164" />
    </linearGradient>
    <linearGradient
       gradientTransform="matrix(0.96696131,0,0,0.99414859,-80.220578,907.22252)"
       gradientUnits="userSpaceOnUse"
       y2="118.32003"
       x2="144.10342"
       y1="118.32003"
       x1="124.89785"
       id="linearGradient914-1"
       xlink:href="#linearGradient1154" />
    <linearGradient
       id="linearGradient1154">
      <stop
         style="stop-color:#ffe5a3;stop-opacity:1"
         offset="0"
         id="stop1150" />
      <stop
         style="stop-color:#ffd987;stop-opacity:1"
         offset="1"
         id="stop1152" />
    </linearGradient>
    <linearGradient
       gradientTransform="matrix(0.96696131,0,0,0.99414859,-82.301018,907.31552)"
       y2="115.77173"
       x2="176.97937"
       y1="129.18776"
       x1="130.21443"
       gradientUnits="userSpaceOnUse"
       id="linearGradient1345-9"
       xlink:href="#linearGradient1148" />
    <linearGradient
       id="linearGradient1148">
      <stop
         id="stop1142"
         offset="0"
         style="stop-color:#ffe198;stop-opacity:1" />
      <stop
         id="stop1144"
         offset="0.73873258"
         style="stop-color:#ffd277;stop-opacity:1" />
      <stop
         id="stop1146"
         offset="1"
         style="stop-color:#ff8f00;stop-opacity:1" />
    </linearGradient>
    <radialGradient
       r="35"
       fy="147.13304"
       fx="146.95654"
       cy="147.13304"
       cx="146.95654"
       gradientTransform="matrix(0.96736463,0,0,0.96736455,-82.344458,910.50823)"
       gradientUnits="userSpaceOnUse"
       id="radialGradient3302-0"
       xlink:href="#linearGradient1140" />
    <linearGradient
       id="linearGradient1140">
      <stop
         style="stop-color:#8baccb;stop-opacity:1"
         offset="0"
         id="stop1136" />
      <stop
         style="stop-color:#395477;stop-opacity:1"
         offset="1"
         id="stop1138" />
    </linearGradient>
    <linearGradient
       gradientTransform="matrix(0.90298002,0,0,0.92836839,-74.676448,914.35212)"
       gradientUnits="userSpaceOnUse"
       y2="99.608566"
       x2="119.384"
       y1="99.608566"
       x1="105.04161"
       id="linearGradient854-0"
       xlink:href="#linearGradient1166" />
    <linearGradient
       gradientTransform="translate(29.999999,825.51964)"
       gradientUnits="userSpaceOnUse"
       y2="274.5"
       x2="100"
       y1="274.5"
       x1="0"
       id="linearGradient1574"
       xlink:href="#linearGradient1392" />
    <linearGradient
       id="linearGradient1392">
      <stop
         style="stop-color:#fff9d1;stop-opacity:1"
         offset="0"
         id="stop1386" />
      <stop
         style="stop-color:#ffd277;stop-opacity:1"
         offset="0.73873258"
         id="stop1388" />
      <stop
         style="stop-color:#ff8f00;stop-opacity:1"
         offset="1"
         id="stop1390" />
    </linearGradient>
    <radialGradient
       gradientUnits="userSpaceOnUse"
       gradientTransform="matrix(0.50000003,0,0,0.5,54.999991,970.26964)"
       r="50"
       fy="289.5"
       fx="50"
       cy="289.5"
       cx="50"
       id="radialGradient1558"
       xlink:href="#linearGradient1140" />
    <linearGradient
       y2="128.17346"
       x2="165.79822"
       y1="173.91913"
       x1="136.81311"
       gradientTransform="matrix(0.8238669,0.70123772,-0.71771991,0.84865221,35.177687,710.51784)"
       gradientUnits="userSpaceOnUse"
       id="linearGradient1174-3"
       xlink:href="#linearGradient1346" />
    <linearGradient
       gradientTransform="matrix(0.96696131,0,0,0.99414859,-82.301021,797.31551)"
       gradientUnits="userSpaceOnUse"
       y2="104.08393"
       x2="133.64702"
       y1="104.08393"
       x1="112.46608"
       id="linearGradient862-2-4"
       xlink:href="#linearGradient1160" />
    <radialGradient
       r="10.743572"
       fy="390.91138"
       fx="495.03906"
       cy="390.91138"
       cx="495.03906"
       gradientTransform="matrix(0.37405124,-0.00920865,0.0243287,1.2328116,-150.36653,424.59633)"
       gradientUnits="userSpaceOnUse"
       id="radialGradient3304-7-4"
       xlink:href="#linearGradient1172" />
    <linearGradient
       gradientTransform="matrix(0.96696131,0,0,0.99414859,-82.301021,797.31551)"
       gradientUnits="userSpaceOnUse"
       y2="119.1124"
       x2="116.98858"
       y1="119.1124"
       x1="109.17788"
       id="linearGradient878-8-3"
       xlink:href="#linearGradient1166" />
    <linearGradient
       gradientTransform="matrix(0.96696131,0,0,0.99414859,-80.220581,797.22251)"
       gradientUnits="userSpaceOnUse"
       y2="118.32003"
       x2="144.10342"
       y1="118.32003"
       x1="124.89785"
       id="linearGradient914-1-0"
       xlink:href="#linearGradient1154" />
    <linearGradient
       gradientTransform="matrix(0.96696131,0,0,0.99414859,-82.301021,797.31551)"
       y2="115.77173"
       x2="176.97937"
       y1="129.18776"
       x1="130.21443"
       gradientUnits="userSpaceOnUse"
       id="linearGradient1345-9-2"
       xlink:href="#linearGradient1148" />
    <radialGradient
       r="35"
       fy="147.13304"
       fx="146.95654"
       cy="147.13304"
       cx="146.95654"
       gradientTransform="matrix(0.96736463,0,0,0.96736455,-82.344461,800.50822)"
       gradientUnits="userSpaceOnUse"
       id="radialGradient3302-0-5"
       xlink:href="#linearGradient1140" />
    <linearGradient
       gradientTransform="matrix(0.90298002,0,0,0.92836839,-74.676451,804.35211)"
       gradientUnits="userSpaceOnUse"
       y2="99.608566"
       x2="119.384"
       y1="99.608566"
       x1="105.04161"
       id="linearGradient854-0-7"
       xlink:href="#linearGradient1166" />
  </defs>
  <metadata
     id="metadata5">
    <rdf:RDF>
      <cc:Work
         rdf:about="">
        <dc:format>image/svg+xml</dc:format>
        <dc:type
           rdf:resource="http://purl.org/dc/dcmitype/StillImage" />
        <dc:title>Fennec Logo</dc:title>
        <dc:date>14.05.2018</dc:date>
        <dc:creator>
          <cc:Agent>
            <dc:title>Stasiek Michalski &lt;hellcp@opensus&gt;</dc:title>
          </cc:Agent>
        </dc:creator>
      </cc:Work>
    </rdf:RDF>
  </metadata>
  <g
     transform="translate(0,-872.51965)"
     id="layer1">
    <text
       id="text2457"
       y="1120.1716"
       x="236.30392"
       style="font-style:normal;font-weight:normal;font-size:6.53594732px;line-height:1.25;font-family:sans-serif;letter-spacing:0px;word-spacing:0px;fill:#a3206c;fill-opacity:1;stroke:none;stroke-width:0.1633987"
       xml:space="preserve"><tspan
         style="fill:#a3206c;fill-opacity:1;stroke-width:0.1633987"
         y="1120.1716"
         x="236.30392"
         id="tspan2455">hellcp@opensuse.org</tspan></text>
    <text
       id="text3253"
       y="1088.5197"
       x="100"
       style="font-style:normal;font-weight:normal;font-size:40px;line-height:1.25;font-family:sans-serif;letter-spacing:0px;word-spacing:0px;fill:#000000;fill-opacity:1;stroke:none"
       xml:space="preserve"><tspan
         y="1125.3004"
         x="100"
         id="tspan3251" /></text>
    <rect
       y="1092.5197"
       x="130"
       height="30"
       width="30"
       id="rect3153-9"
       style="opacity:1;fill:#ffffff;fill-opacity:1;stroke:none;stroke-width:1.81288326;stroke-miterlimit:4;stroke-dasharray:none;stroke-opacity:1" />
    <path
       id="rect4063"
       d="m 139.49418,1102.8284 c -0.32102,0.2637 -0.54379,0.6627 -0.79687,1.0196 0.28545,-0.3405 0.56209,-0.6925 0.89453,-0.9727 z m -1.9375,1.3829 c 0.0218,0.038 0.0392,0.076 0.0625,0.1152 l 0.16211,-0.043 c -0.0731,-0.038 -0.14641,-0.072 -0.22461,-0.072 z m 0.82813,1.2363 v 0 c -0.22897,0.014 -0.28396,0.1105 -0.38086,0.2305 -0.0265,0.032 -0.0353,0.1048 -0.006,0.1348 h 0.002 c 0.11924,0.1198 0.20091,0.1638 0.375,0.1738 0.0732,-0.026 0.093,-0.064 0.10547,-0.1016 -0.01,-0.048 -0.0819,-0.086 0.002,-0.2265 0.0266,-0.045 0.009,-0.099 -0.004,-0.1524 -0.005,-0.021 -0.004,-0.033 -0.0215,-0.045 -0.0254,-0.016 -0.0464,-0.016 -0.0723,-0.016 z m 1.01171,0.3027 c -0.27588,0.1965 -0.55381,0.3885 -0.84765,0.5235 l 0.006,0.01 c 0.30737,-0.1388 0.58354,-0.3227 0.86133,-0.5039 z"
       style="opacity:1;fill:#000000;fill-opacity:0.68556704;stroke:none;stroke-width:2;stroke-miterlimit:4;stroke-dasharray:none;stroke-opacity:1" />
    <rect
       y="1107.5197"
       x="30"
       height="15"
       width="100"
       id="rect1533"
       style="opacity:1;fill:url(#radialGradient1558);fill-opacity:1;stroke:none;stroke-width:0.64173591;stroke-miterlimit:4;stroke-dasharray:none;stroke-opacity:1" />
    <rect
       y="1092.5197"
       x="30"
       height="15"
       width="100"
       id="rect1533-6"
       style="opacity:1;fill:url(#linearGradient1574);fill-opacity:1;stroke:none;stroke-width:0.64173597;stroke-miterlimit:4;stroke-dasharray:none;stroke-opacity:1" />
    <path
       id="path832-5"
       d="m 21.346902,1000.48 c 4.055355,2.4962 7.60436,4.9144 11.583701,5.6131 l -4.525108,7.5678 c -0.540426,-0.4773 -0.90397,-0.7761 -1.401057,-1.2427 -0.024,-0.023 -0.194588,0.2333 -0.3106,0.159 -0.117274,-0.075 0.156498,-0.2899 0.135994,-0.3092 -0.01705,-0.016 -0.677025,0.5201 -0.629209,0.2404 0.06238,-0.3648 0.369919,-0.3358 0.333542,-0.4028 -0.03644,-0.067 -0.25877,0.05 -0.27116,0.038 -0.05692,-0.054 0.21238,-0.2507 0.15602,-0.3047 -4.435605,-4.2452 -6.932926,-8.027 -6.033157,-11.2773 0.01425,-0.052 -0.599967,-0.93276 -0.306194,-0.91946 0.240342,0.011 0.431747,0.61746 0.51339,0.60046 0.0309,-0.01 -0.01675,-0.92226 0.09891,-0.91466 0.250022,0.016 0.34105,1.06346 0.428467,1.06256 0.09687,-10e-4 -0.156034,-0.68286 0.06546,-0.72076 0.264009,-0.045 0.127407,0.55286 0.161001,0.81026 z"
       style="fill:url(#linearGradient854-0);fill-opacity:1;stroke:none;stroke-width:0.24224885px;stroke-linecap:butt;stroke-linejoin:miter;stroke-opacity:1" />
    <path
       id="path916-1"
       d="m 55.720781,1009.8042 c -18.699074,0 -33.857661,15.1586 -33.857692,33.8577 3.1e-5,18.6991 15.158618,33.8577 33.857692,33.8577 18.69908,0 33.85767,-15.1586 33.8577,-33.8577 -3e-5,-18.6991 -15.15862,-33.8577 -33.8577,-33.8577 z"
       style="fill:url(#radialGradient3302-0);fill-opacity:1;stroke:none;stroke-width:0.51037312;stroke-miterlimit:4;stroke-dasharray:none;stroke-opacity:1" />
    <path
       id="path826-7-1"
       d="m 29.898571,1022.4889 c -0.786548,1.0567 -2.136142,2.8628 -2.003922,2.9233 0.07532,0.035 0.23226,-0.2795 0.299333,-0.2313 0.01552,0.011 -0.609655,0.8421 -0.53876,0.9109 0.05769,0.056 0.235539,-0.3604 0.318082,-0.307 0.109705,0.072 -1.765517,3.5698 -2.140305,4.747 -0.233809,0.7345 -0.0091,2.3912 1.268434,2.3452 1.288455,-0.047 2.732224,-1.1863 3.072863,-2.4644 0.201428,-0.7557 0.902148,-2.0572 1.535627,-3.0079 -0.03118,0.8535 -0.126795,2.0607 -0.07954,2.9069 2.321201,1.6973 4.197534,1.3549 6.143892,-0.071 0.176205,-0.1292 0.352719,-0.2672 0.53046,-0.4134 0.22975,-0.1891 0.461346,-0.3919 0.69513,-0.6066 0.09801,-0.09 0.03406,0.3905 0.132976,0.2963 0.843282,-1.577 2.383298,-2.867 3.417149,-3.9774 0.763439,-0.8192 4.946841,-1.4112 5.177491,-3.326 5.6e-4,-0.01 4.3e-4,-0.016 0.001,-0.022 0.79647,-0.1305 1.61196,-0.2753 2.44247,-0.4302 -2.96107,2.2082 -5.1296,4.225 -5.09505,4.2561 0.044,0.04 0.16981,-0.1164 0.2113,-0.086 0.007,-10e-5 -0.64655,0.4975 -0.57453,0.5573 0.0617,0.052 0.16227,-0.1113 0.22809,-0.063 0.0796,0.059 -1.679426,2.2932 -2.283563,3.3234 0,0 -1.465457,3.6406 1.084951,3.7678 3.449552,0.1721 2.963002,-2.4 4.402332,-3.6525 1.52236,-1.325 3.59286,-3.1991 5.56783,-5.0071 0.16883,-0.1546 -0.0972,0.8966 0.0698,0.7434 0.60387,-1.156 1.16329,-1.8736 2.06612,-2.7062 0.20997,-0.1936 -0.16054,0.9928 0.0394,0.8079 0.6174,-1.5211 1.7107,-2.5185 2.87812,-3.5474 10.62222,-1.7536 21.75433,-1.8973 27.45669,10.0302 2.08191,4.3547 3.21773,9.1218 3.32768,13.9707 1.36107,-13.8547 -1.92912,-27.9159 -10.06766,-36.6233 -0.0963,-0.1031 0.63845,0.2527 0.54081,0.1512 -0.30077,-0.3127 -1.43993,-1.0759 -1.75359,-1.374 -0.19196,-0.1823 0.8626,0.4709 1.06274,0.298 0.26247,-0.2268 -2.2017,-1.3262 -2.48693,-1.5624 -0.0989,-0.082 0.52273,0.2562 0.8915,0.3603 0.24248,0.068 0.30154,-0.071 0.23527,-0.1234 -2.54804,-2.0117 -5.97279,-3.7725 -9.70449,-4.9432 -0.2987,-0.094 1.14802,-0.062 0.84568,-0.1485 -1.82479,-0.1798 -3.80391,-0.67966 -5.45372,-0.95466 -0.4505,-0.074 1.9961,-0.6222 1.54437,-0.6765 -1.97261,0.2414 -4.11526,0.3 -5.98353,0.2788 -16.676392,1.67506 -36.833789,6.68976 -29.322075,23.65106 z"
       style="opacity:0.2;fill:#011842;fill-opacity:1;stroke:none;stroke-width:0.24911684px;stroke-linecap:butt;stroke-linejoin:miter;stroke-opacity:1" />
    <path
       id="path826-0"
       d="m 58.920681,996.34054 c -5.5367,-0.086 -10.71114,1.6458 -15.490924,3.2381 l 0.775024,21.12346 c 13.56109,-1.4527 33.98638,-9.208 42.17343,8.839 2.0765,4.5771 3.1589,9.5643 3.17203,14.6148 1.70663,-14.3959 -1.42487,-29.104 -9.71609,-38.3396 -0.0981,-0.1093 0.65939,0.2762 0.55986,0.1686 -0.3066,-0.3319 -1.47636,-1.1504 -1.79669,-1.4672 -0.19604,-0.1938 0.88829,0.5085 1.10028,0.3327 0.278,-0.2306 -2.26496,-1.4271 -2.55698,-1.679 -0.10124,-0.087 0.53896,0.278 0.92071,0.3939 0.25103,0.076 0.31556,-0.068 0.24765,-0.1235 -2.61077,-2.1476 -6.1394,-4.05276 -10.00008,-5.34956 -0.30902,-0.1038 1.19632,-0.041 0.88335,-0.1365 -1.89608,-0.2254 -3.94601,-0.7873 -5.65791,-1.108 -0.46748,-0.087 2.0912,-0.6061 1.62202,-0.6721 -2.05878,0.2101 -4.29103,0.2261 -6.23568,0.165 z"
       style="fill:url(#linearGradient1345-9);fill-opacity:1;stroke:none;stroke-width:0.25941357px;stroke-linecap:butt;stroke-linejoin:miter;stroke-opacity:1" />
    <path
       id="path834-8"
       d="m 57.294401,1015.26 c -6.28754,2.4584 -13.731237,9.0219 -13.667868,9.0814 0.04502,0.043 0.179136,-0.118 0.221699,-0.086 0.0069,0 -0.683671,0.5043 -0.609944,0.568 0.06314,0.055 0.171216,-0.1121 0.238722,-0.06 0.08166,0.063 -1.796327,2.3522 -2.446839,3.4121 0,0 -1.601848,3.7598 1.050787,3.9455 3.587803,0.2513 3.135263,-2.4366 4.659973,-3.7106 1.61265,-1.3475 3.80746,-3.2556 5.90144,-5.0968 0.179,-0.1573 -0.12014,0.9317 0.057,0.7757 0.65286,-1.1908 1.25052,-1.9267 2.20787,-2.7747 0.22265,-0.1972 -0.18824,1.0302 0.0238,0.842 0.87647,-2.0408 2.56999,-3.1433 4.19081,-4.5964"
       style="fill:url(#linearGradient914-1);fill-opacity:1;stroke:none;stroke-width:0.25941357px;stroke-linecap:butt;stroke-linejoin:miter;stroke-opacity:1" />
    <path
       id="path836-5"
       d="m 28.208277,1019.9515 c -0.732161,0.9494 -2.609908,3.3281 -2.456928,3.4019 0.07769,0.038 0.247513,-0.2866 0.316339,-0.235 0.01593,0.012 -0.652196,0.8641 -0.579825,0.9372 0.0589,0.06 0.25272,-0.3703 0.337541,-0.3129 0.112716,0.077 -1.913028,3.6796 -2.327837,4.8974 -0.258776,0.7598 -0.05937,2.4895 1.271651,2.4682 1.342421,-0.022 2.869679,-1.178 3.251039,-2.5014 0.387433,-1.3445 2.347531,-4.3688 2.778224,-4.2845"
       style="fill:url(#linearGradient878-8);fill-opacity:1;stroke:none;stroke-width:0.25941357px;stroke-linecap:butt;stroke-linejoin:miter;stroke-opacity:1" />
    <path
       id="path828-5-0"
       d="m 46.512851,998.57454 c -1.04338,0.33 -2.07455,0.6694 -3.083094,1.0053 l 0.775024,21.12226 c 1.27827,-0.1766 2.57665,-0.369 3.8836,-0.5528 0.26892,-0.2728 0.45196,-0.5814 0.50219,-0.9379 0.73419,-5.5857 0.23557,-10.2639 -1.18977,-15.5948 0.14733,-0.3029 -0.16859,-2.5221 -0.88795,-5.04206 z"
       style="fill:url(#radialGradient3304-7);fill-opacity:1;stroke:none;stroke-width:0.2594063px;stroke-linecap:butt;stroke-linejoin:miter;stroke-opacity:1" />
    <path
       id="path828-6"
       d="m 35.224252,1003.0991 c -4.042275,2.8134 -13.50052,8.3879 -5.594461,20.3329 -0.07432,0.3738 -0.117834,0.925 -0.136044,1.6307 -0.0032,0.1234 0.122473,-0.2492 0.120824,-0.1164 -0.0014,0.1129 -0.0046,0.238 -0.0089,0.3728 -0.0012,0.038 0.09633,-0.1876 0.09499,-0.1486 -0.03024,0.8757 -0.81023,2.6088 -0.162306,3.3617 1.953166,2.2697 4.341559,1.498 6.397764,0.054 0.186151,-0.1308 0.373088,-0.2708 0.561194,-0.4193 0.24315,-0.1919 0.488254,-0.3982 0.736138,-0.6169 0.103922,-0.092 0.02718,0.4072 0.132126,0.3112 0.910921,-1.6241 2.541617,-2.9352 3.641191,-4.0696 0.811958,-0.8368 5.179373,-1.3657 5.459533,-3.3545 0.0997,-0.7587 -0.15665,-3.3297 0.004,-3.3427 0.14111,-0.012 0.0486,0.4938 0.21829,0.5044 0.19215,0.012 0.0668,-0.622 0.095,-0.6184 0.0398,0 0.25679,0.5515 0.30123,0.5507 0.21957,0 -0.50213,-2.5982 -0.36852,-2.6022 0.17313,0 0.14219,0.4999 0.36088,0.5024 0.11614,0 -1.05295,-3.6172 -0.7559,-3.6102 0.24113,0.01 0.313,0.6858 0.57592,0.7454 0.217,0.049 -1.01787,-5.367 -1.53085,-7.3797 -0.014,-0.055 0.12646,-0.074 0.15943,-0.1241 0.021,-0.032 -0.0795,-0.1024 -0.0394,-0.1186 0.0458,-0.019 0.18353,0.04 0.19766,0.011 0.0494,-0.099 -0.34407,-0.2154 -0.26889,-0.3329 0.036,-0.056 -0.006,-0.2686 0.0371,-0.337 0.24766,-0.3969 0.6446,-0.7934 0.49255,-0.8228 -0.17032,-0.033 -0.36908,0.4399 -0.54543,0.4352 -0.0908,0 0.29142,-0.9909 0.21069,-1.0061 -0.19333,-0.036 -0.42664,0.4777 -0.5922,0.5597 -0.0523,0.026 0.26487,-0.4707 0.0507,-0.4762 -0.039,-10e-4 -0.22721,0.2909 -0.28562,0.1508 -0.65161,-1.5629 -2.701221,-10.17826 -5.50809,-11.21776 -0.05591,-0.021 0.03833,-0.7625 -0.13018,-0.7733 -0.05077,0 -0.23326,0.7916 -0.401617,0.7505 -0.164269,-0.04 -0.313963,-0.9174 -0.403422,-0.8257 -0.09741,0.1 0.01124,0.7358 -0.04864,0.7 -0.327277,-0.1958 -0.472924,-0.3306 -0.57446,-0.3256 -0.254074,0.013 0.442441,0.4665 0.224549,0.6044 -0.109436,0.069 -0.494426,-0.061 -0.595261,0.036 -0.05941,0.057 0.162576,0.3327 0.106052,0.3985 -2.08184,2.4244 -2.227848,10.62716 -2.227848,10.62716 z"
       style="fill:url(#linearGradient862-2);fill-opacity:1;stroke:none;stroke-width:0.25941357px;stroke-linecap:butt;stroke-linejoin:miter;stroke-opacity:1" />
    <path
       id="path838-4"
       d="m 28.818859,1022.1754 c 0.325721,-0.084 0.617134,0.1144 0.913719,0.2701 l -0.605335,0.1644 z"
       style="fill:#501616;stroke:none;stroke-width:0.25941357px;stroke-linecap:butt;stroke-linejoin:miter;stroke-opacity:1" />
    <path
       id="path840-6"
       d="m 32.94203,1020.919 c 0.885785,-1.2491 1.66327,-2.6467 2.78685,-3.5698 l 0.342643,0.1644 c -1.163525,0.9805 -2.130419,2.2136 -3.129493,3.4054 z"
       style="fill:#501616;stroke:none;stroke-width:0.25941357px;stroke-linecap:butt;stroke-linejoin:miter;stroke-opacity:1" />
    <path
       id="path844-2"
       d="m 30.494112,1027.7974 c -0.102876,-0.1034 -0.07491,-0.363 0.01649,-0.4762 0.339097,-0.4199 0.531937,-0.7551 1.333348,-0.8038 0.09059,-0.01 0.162935,0 0.251981,0.056 0.0594,0.04 0.06187,0.084 0.07945,0.1573 0.04445,0.1854 0.103875,0.3713 0.0091,0.5304 -0.293164,0.4923 -0.04164,0.6262 -0.0084,0.7939 -0.04361,0.1335 -0.109721,0.2624 -0.365483,0.3523 -0.609317,-0.024 -0.89919,-0.1901 -1.316534,-0.6095 z"
       style="fill:#550000;stroke:none;stroke-width:0.25941357px;stroke-linecap:butt;stroke-linejoin:miter;stroke-opacity:1" />
    <path
       id="path846-5"
       d="m 32.439481,1029.4442 -0.01857,-0.038 c 1.028461,-0.4724 1.999357,-1.142 2.964917,-1.8299 l 0.06894,0.1067 c -0.972261,0.6344 -1.939502,1.276 -3.015295,1.7614 z"
       style="fill:#501616;stroke:none;stroke-width:0.25941357px;stroke-linecap:butt;stroke-linejoin:miter;stroke-opacity:1" />
    <path
       id="path1352-1-8"
       d="m 77.839771,1050.4179 c -0.13551,-0.1462 -1.5204,-1.2826 -1.1744,-0.9483 1.40725,1.3598 0.84635,6.5309 -2.329,10.3749 -2.58944,3.1347 -11.48659,6.1962 -15.40684,0.035 2.19586,1.1583 4.4592,1.3763 6.39405,1.0228 0.48381,-0.088 -0.72114,-0.4516 -0.28457,-0.6055 0.91927,-0.01 1.71653,-0.1018 2.4287,-0.3276 0.20908,-0.067 -0.85616,-0.059 -0.66085,-0.1502 1.41543,-0.096 2.29461,-0.7201 3.13684,-1.5957 3.53409,-5.3556 1.91176,-12.2433 -5.59144,-13.3724 -3.31286,-0.2992 -7.43796,1.0085 -11.43225,3.2979 -0.33389,0.1912 1.0332,0.1079 0.7017,0.3126 -2.36804,0.4859 -4.35282,2.015 -5.98915,3.367 -0.27906,0.2316 1.49266,-0.1307 1.22053,0.1092 -7.882521,4.2518 -12.476372,16.3158 -8.962158,21.6582 -2.320757,0.07 -5.638863,-0.1453 -7.376667,-0.3382 -3.047951,-0.3383 -5.292639,-1.8147 -7.767327,-3.7583 -0.504188,-0.4136 1.941496,1.0085 1.52922,0.5271 -0.993004,-1.8909 -2.352202,-2.4438 -3.471958,-4.2703 -0.142255,-0.2922 1.601497,1.2317 1.480732,0.9265 -0.407441,-2.6958 -1.986213,-5.7898 -2.167757,-8.3898 -0.0048,-0.5212 1.106697,1.3699 1.138835,0.8363 0.943979,-4.7342 3.173383,-7.4327 5.245183,-11.437 0.324056,-0.3424 0.08554,1.5064 0.436525,1.1721 10.361908,-9.8738 32.051972,-16.1544 41.118862,-9.6214 1.16607,1.1471 2.54329,1.8031 3.76004,2.9621 0.18127,0.1905 -1.24693,-0.684 -1.06737,-0.4788 1.04635,2.0083 2.87425,2.9691 4.17522,4.7832 0.14388,0.2377 -1.45579,-0.9484 -1.31345,-0.6996 0.7752,1.3553 1.5204,2.8871 2.22892,4.6079 z"
       style="opacity:0.3;fill:#001842;fill-opacity:1;stroke:none;stroke-width:0.27301776px;stroke-linecap:butt;stroke-linejoin:miter;stroke-opacity:1" />
    <path
       id="path1352-6"
       d="m 80.675111,1049.7284 c -0.14106,-0.158 -1.58981,-1.3932 -1.22886,-1.031 1.46803,1.4729 0.76872,6.956 -2.68195,10.9768 -2.81394,3.2789 -12.32842,6.3538 -16.37056,-0.2712 2.30996,1.2746 4.71043,1.5514 6.77328,1.2145 0.51584,-0.084 -0.75719,-0.4941 -0.29026,-0.6491 0.97687,0.01 1.82591,-0.073 2.58703,-0.2998 0.22351,-0.067 -0.90849,-0.08 -0.69914,-0.1727 1.50584,-0.073 2.45243,-0.7193 3.36479,-1.6328 3.86206,-5.6197 2.27598,-12.9704 -5.67366,-14.32 -3.51394,-0.3841 -7.92303,0.9229 -12.21275,3.2754 -0.35859,0.1966 1.09563,0.1354 0.73931,0.3463 -2.52576,0.4689 -4.66517,2.0539 -6.43081,3.4578 -0.30112,0.2405 1.58863,-0.1085 1.29465,0.1403 -8.460224,4.3601 -13.582343,17.0864 -9.955248,22.8329 -2.46721,0.028 -5.988425,-0.2671 -7.831004,-0.5068 -3.231707,-0.4204 -5.587196,-2.0339 -8.177719,-4.1484 -0.527432,-0.4496 2.042702,1.1104 1.614272,0.5906 -1.01728,-2.029 -2.450381,-2.6436 -3.603623,-4.6067 -0.145313,-0.3133 1.676981,1.3407 1.554771,1.014 -0.37903,-2.8724 -1.994645,-6.1913 -2.135572,-8.9575 0.0053,-0.5539 1.148497,1.4777 1.193312,0.9114 1.097607,-5.0113 3.520292,-7.8339 5.801638,-12.0471 0.351151,-0.3572 0.06077,1.6023 0.440376,1.254 11.206954,-10.2837 34.378327,-16.5234 43.881377,-9.4008 1.21603,1.2421 2.66622,1.9665 3.93586,3.2223 0.18879,0.2062 -1.3112,-0.7516 -1.12452,-0.5301 1.07162,2.1549 2.99456,3.2122 4.3406,5.1658 0.14811,0.2553 -1.52783,-1.0369 -1.38157,-0.7697 0.79657,1.4555 1.55772,3.0979 2.27615,4.9405 z"
       style="fill:url(#linearGradient1174);fill-opacity:1;stroke:none;stroke-width:0.29013452px;stroke-linecap:butt;stroke-linejoin:miter;stroke-opacity:1" />
    <path
       id="path832-6-8-0-6"
       d="m 140.23828,1095.3126 c -0.0278,0.029 0.003,0.2115 -0.0137,0.2012 -0.0935,-0.056 -0.13504,-0.095 -0.16406,-0.094 -0.0726,0 0.12667,0.1344 0.0644,0.1738 -0.0313,0.02 -0.14111,-0.017 -0.16992,0.01 -0.017,0.016 0.0474,0.095 0.0312,0.1133 -0.59481,0.6927 -0.63672,3.0371 -0.63672,3.0371 v 0 c -0.33774,0.2583 -0.68755,0.5005 -1.0332,0.7481 -0.98619,-0.2705 -1.90466,-0.864 -2.93164,-1.4961 -0.01,-0.073 0.0285,-0.2435 -0.0469,-0.2305 -0.0633,0.011 0.0101,0.2048 -0.0176,0.2051 -0.025,3e-4 -0.0516,-0.3027 -0.12304,-0.3027 -0.0333,0 -0.0183,0.2617 -0.0273,0.2617 -0.0233,0 -0.0778,-0.1719 -0.14648,-0.1719 -0.0839,0 0.0899,0.2467 0.0859,0.2617 -0.2571,0.9287 0.45729,2.0098 1.7246,3.2227 0.0161,0.015 -0.0612,0.073 -0.0449,0.088 0.004,0 0.0677,-0.031 0.0781,-0.012 0.0104,0.019 -0.0779,0.011 -0.0957,0.1152 -0.0137,0.08 0.17469,-0.068 0.17969,-0.068 0.006,0.01 -0.0726,0.067 -0.0391,0.088 0.0135,0.01 0.0299,0 0.0449,-0.014 0.011,-0.045 0.0338,-0.083 0.0469,-0.1269 -0.19834,0.6745 -0.15025,1.4922 0.32812,2.4785 -0.0191,-0.04 -0.0502,-0.085 -0.0684,-0.125 -0.23768,0.306 -0.66082,0.8463 -0.62109,0.8652 0.0222,0.011 0.0721,-0.081 0.0918,-0.066 0.005,0 -0.18669,0.2467 -0.16602,0.2676 0.0168,0.017 0.0714,-0.1048 0.0957,-0.088 0.0322,0.022 -0.54554,1.0505 -0.66406,1.3984 -0.0739,0.2171 -0.017,0.7112 0.36328,0.7051 0.38355,-0.01 0.81878,-0.3366 0.92774,-0.7148 0.062,-0.2153 0.26259,-0.5697 0.45117,-0.8457 0.008,-0.041 0.0222,-0.095 0.0254,-0.1309 8.9e-4,-10e-4 0.004,-0.01 0.004,-0.01 -0.0173,0.2002 -0.23292,0.7402 -0.0469,0.961 0.55805,0.6485 1.24063,0.4266 1.82812,0.014 0.0532,-0.037 0.10641,-0.076 0.16016,-0.1192 0.0695,-0.055 0.14012,-0.1133 0.21094,-0.1758 0.0297,-0.026 0.007,0.1152 0.0371,0.088 0.26027,-0.464 0.72685,-0.838 1.04101,-1.1621 0.23199,-0.2391 1.47855,-0.3908 1.5586,-0.959 4.5e-4,0 -4e-4,-0.014 0,-0.018 0.25365,-0.037 0.49764,-0.065 0.76172,-0.1093 -0.89862,0.6417 -1.58239,1.2345 -1.57227,1.2441 0.0129,0.012 0.0524,-0.033 0.0644,-0.023 0.002,0 -0.19685,0.1439 -0.17578,0.1621 0.018,0.016 0.0491,-0.033 0.0684,-0.018 0.0233,0.018 -0.51336,0.6718 -0.69922,0.9746 0,0 -0.45712,1.0739 0.30078,1.127 1.02509,0.072 0.89641,-0.6966 1.33203,-1.0606 0.46077,-0.385 1.08727,-0.9291 1.68555,-1.4551 0.0511,-0.045 -0.035,0.2653 0.0156,0.2208 0.18653,-0.3403 0.35733,-0.5507 0.63086,-0.793 0.0636,-0.056 -0.053,0.296 0.008,0.2422 0.18945,-0.4412 0.52059,-0.7317 0.86719,-1.0254 3.17406,-0.4601 6.48998,-0.4541 8.11718,3.1328 0.59328,1.3077 0.90249,2.7328 0.90625,4.1758 0.4876,-4.1131 -0.40647,-8.3144 -2.77539,-10.9532 -0.028,-0.031 0.1886,0.078 0.16016,0.047 -0.0876,-0.095 -0.42215,-0.3274 -0.51367,-0.4179 -0.056,-0.055 0.25389,0.144 0.31445,0.094 0.0794,-0.066 -0.64704,-0.4065 -0.73047,-0.4785 -0.0289,-0.025 0.1546,0.078 0.26367,0.1113 0.0717,0.022 0.0897,-0.019 0.0703,-0.035 -0.74593,-0.6135 -1.75438,-1.1569 -2.85743,-1.5274 -0.0883,-0.03 0.34138,-0.012 0.25196,-0.039 -0.54173,-0.064 -1.12808,-0.2247 -1.61719,-0.3164 -0.13357,-0.025 0.59888,-0.1745 0.46484,-0.1933 -0.58823,0.06 -1.22564,0.065 -1.78125,0.047 v 0 c -1.56569,-0.025 -3.03079,0.4591 -4.38476,0.9101 -0.28729,-0.8932 -0.67643,-1.9745 -1.23047,-2.1797 -0.016,-0.01 0.011,-0.2195 -0.0371,-0.2226 -0.0145,0 -0.0651,0.2265 -0.11328,0.2148 -0.0469,-0.012 -0.0916,-0.2625 -0.11719,-0.2363 z m -0.74414,7.5157 0.0977,0.047 c -0.33244,0.2802 -0.60908,0.6321 -0.89453,0.9726 0.25308,-0.3569 0.47585,-0.7558 0.79687,-1.0195 z m -1.9375,1.3828 c 0.0782,0 0.15156,0.034 0.22461,0.072 l -0.16211,0.043 c -0.0233,-0.039 -0.0407,-0.077 -0.0625,-0.1152 z m 0.82813,1.2363 c 0.0259,0 0.0469,-4e-4 0.0723,0.016 0.017,0.012 0.0165,0.024 0.0215,0.045 0.0127,0.053 0.0306,0.107 0.004,0.1523 -0.0838,0.1406 -0.0119,0.1788 -0.002,0.2266 -0.0125,0.038 -0.0323,0.074 -0.10547,0.1 -0.17409,-0.01 -0.25576,-0.054 -0.375,-0.1738 h -0.002 c -0.0294,-0.03 -0.0205,-0.1027 0.006,-0.1348 0.0969,-0.12 0.15189,-0.2163 0.38086,-0.2305 z m 1.01171,0.3027 0.0195,0.029 c -0.27779,0.1812 -0.55396,0.3651 -0.86133,0.5039 l -0.006,-0.01 c 0.29384,-0.135 0.57177,-0.3269 0.84765,-0.5234 z m 7.17383,2.0215 c -3.053,0.063 -6.86895,1.5366 -9.07031,3.5567 -0.10842,0.099 -0.0266,-0.4596 -0.12695,-0.3575 -0.65182,1.2038 -1.34264,2.0097 -1.65625,3.4415 -0.0128,0.1619 -0.3408,-0.4181 -0.3418,-0.2598 0.0403,0.7903 0.50109,1.7379 0.60938,2.5586 0.0349,0.093 -0.48486,-0.3781 -0.44336,-0.2891 0.3295,0.5609 0.73864,0.7367 1.02929,1.3164 0.12241,0.1485 -0.61164,-0.2984 -0.46093,-0.1699 0.74014,0.6041 1.41258,1.0654 2.33593,1.1856 0.52645,0.069 1.53336,0.1545 2.23828,0.1445 -1.03631,-1.6417 0.42655,-5.2777 2.84375,-6.5235 0.084,-0.071 -0.45514,0.03 -0.36914,-0.039 0.50446,-0.4011 1.11429,-0.8542 1.83594,-0.9882 0.1018,-0.06 -0.31339,-0.044 -0.21094,-0.1 1.22563,-0.6722 2.48625,-1.0453 3.49024,-0.9356 2.27132,0.3856 2.72454,2.4861 1.62109,4.0918 -0.26067,0.261 -0.53071,0.4458 -0.96094,0.4668 -0.0598,0.026 0.26312,0.03 0.19922,0.049 -0.21747,0.065 -0.46113,0.086 -0.74023,0.086 -0.13344,0.044 0.23136,0.1615 0.084,0.1855 -0.58939,0.096 -1.27555,0.016 -1.93554,-0.3476 1.1549,1.8924 3.87374,1.013 4.67773,0.076 0.9859,-1.1488 1.18506,-2.7139 0.76563,-3.1348 -0.10314,-0.1036 0.31126,0.2499 0.35156,0.2949 -0.20526,-0.5264 -0.4228,-0.9963 -0.65039,-1.4121 -0.0418,-0.076 0.43683,0.2918 0.39453,0.2188 -0.38458,-0.5582 -0.93406,-0.8589 -1.24024,-1.4746 -0.0533,-0.063 0.37617,0.2094 0.32227,0.1504 -0.36276,-0.3588 -0.77756,-0.5651 -1.125,-0.92 -0.84849,-0.6359 -2.07907,-0.8995 -3.4668,-0.8711 z"
       style="fill:#000000;fill-opacity:0.23137255;stroke:none;stroke-width:0.06921396px;stroke-linecap:butt;stroke-linejoin:miter;stroke-opacity:1" />
    <path
       id="path916-2-3-3-2"
       d="m 148.22656,1102.9689 c -0.78264,0.01 -1.58539,0.094 -2.3789,0.209 -0.3466,0.2937 -0.67774,0.5843 -0.86719,1.0254 -0.061,0.054 0.0558,-0.2982 -0.008,-0.2422 -0.27353,0.2423 -0.44433,0.4527 -0.63086,0.793 -0.0506,0.045 0.0355,-0.2658 -0.0156,-0.2208 -0.59828,0.5259 -1.22478,1.0701 -1.68555,1.4551 -0.43559,0.364 -0.30694,1.1326 -1.33203,1.0606 -0.7579,-0.053 -0.30078,-1.127 -0.30078,-1.127 0.18586,-0.3028 0.72252,-0.9566 0.69922,-0.9746 -0.0193,-0.015 -0.0504,0.034 -0.0684,0.018 -0.0211,-0.018 0.17778,-0.1621 0.17578,-0.1621 -0.012,-0.01 -0.0515,0.035 -0.0644,0.023 -0.0101,-0.01 0.67365,-0.6025 1.57227,-1.2441 -0.26408,0.044 -0.50807,0.072 -0.76172,0.1093 -3.6e-4,0 4e-4,0.013 0,0.016 -0.08,0.5682 -1.32856,0.718 -1.56055,0.9571 -0.31416,0.3241 -0.77879,0.7 -1.03906,1.164 -0.0297,0.027 -0.009,-0.1158 -0.0391,-0.09 -0.0708,0.062 -0.13949,0.1208 -0.20899,0.1758 -0.0538,0.043 -0.10696,0.084 -0.16016,0.1211 -0.58749,0.413 -1.27007,0.6329 -1.82812,-0.016 -0.15876,-0.1845 -0.0312,-0.5549 0.0176,-0.8203 -0.18858,0.276 -0.38917,0.6304 -0.45117,0.8457 -0.10896,0.3782 -0.54419,0.7048 -0.92774,0.7148 -0.0479,8e-4 -0.0772,-0.026 -0.11523,-0.039 -0.45584,1.1194 -0.71485,2.3408 -0.71485,3.625 0,1.0693 0.17962,2.095 0.5,3.0567 0.3567,-0.8682 0.85821,-1.5422 1.33985,-2.4317 0.10032,-0.1021 0.0185,0.4568 0.12695,0.3574 3.20198,-2.9383 9.82196,-4.7205 12.53711,-2.6855 0.34744,0.3549 0.76224,0.5611 1.125,0.9199 0.0539,0.059 -0.3756,-0.2136 -0.32227,-0.1504 0.30618,0.6157 0.85566,0.9164 1.24024,1.4746 0.0423,0.073 -0.43632,-0.2951 -0.39453,-0.2187 0.22759,0.4158 0.44513,0.8857 0.65039,1.4121 -0.0403,-0.045 -0.4547,-0.3985 -0.35156,-0.2949 0.41942,0.4209 0.22027,1.9859 -0.76563,3.1347 -0.80399,0.9368 -3.52283,1.8163 -4.67773,-0.076 0.65999,0.3642 1.34615,0.4439 1.93554,0.3477 0.14738,-0.024 -0.21742,-0.1411 -0.084,-0.1855 0.2791,0 0.52276,-0.021 0.74023,-0.086 0.0639,-0.019 -0.25904,-0.023 -0.19922,-0.049 0.43023,-0.021 0.70027,-0.2058 0.96094,-0.4668 1.10345,-1.6057 0.65023,-3.7062 -1.62109,-4.0918 -1.00399,-0.1097 -2.26461,0.2633 -3.49024,0.9355 -0.10245,0.056 0.31274,0.04 0.21094,0.1 -0.72165,0.134 -1.33148,0.5872 -1.83594,0.9883 -0.086,0.069 0.45314,-0.032 0.36914,0.039 -2.41434,1.2443 -3.87684,4.8731 -2.84765,6.5176 1.35117,0.7172 2.88906,1.1269 4.52539,1.1269 5.29507,0 9.5899,-4.2561 9.66601,-9.5332 -0.004,-1.443 -0.31297,-2.868 -0.90625,-4.1757 -1.2204,-2.6902 -3.39034,-3.3661 -5.73828,-3.3418 z"
       style="fill:#000000;fill-opacity:0.52941165;stroke:none;stroke-width:0.1458209;stroke-miterlimit:4;stroke-dasharray:none;stroke-opacity:1" />
    <rect
       y="1092.5197"
       x="0"
       height="30"
       width="30"
       id="rect3153-7"
       style="opacity:1;fill:#263769;fill-opacity:1;stroke:none;stroke-width:1.81288326;stroke-miterlimit:4;stroke-dasharray:none;stroke-opacity:1" />
    <path
       id="path1352-7-2"
       d="m 76.764301,1059.6742 c -2.81394,3.2789 -12.32842,6.3538 -16.37056,-0.2712 2.30996,1.2746 4.71043,1.5515 6.77328,1.2146 0.51584,-0.084 -0.75719,-0.4941 -0.29026,-0.6492 0.97687,0.01 1.82591,-0.073 2.58703,-0.2998 0.22351,-0.067 -0.90849,-0.08 -0.69914,-0.1727 1.50584,-0.073 2.45243,-0.7193 3.36479,-1.6328 0.63193,-0.8983 0.99905,-1.7408 0.99905,-1.7408 0.2343,0.1002 -0.42353,2.1868 0.0147,2.4993 0.0915,0.065 0.72373,-0.8535 0.72373,-0.8535 0.18106,0.065 0.14046,0.9801 0.45201,0.5611 0.70725,-0.951 1.50495,-2.3622 1.50495,-2.3622 0.13427,0.045 -0.47564,1.9785 -0.34036,2.0875 0.16401,0.1321 0.42164,-0.4206 0.42164,-0.4206 0.10754,0.034 0.0671,0.5083 0.0558,0.6516 -0.0194,0.2469 0.44072,-0.2098 0.58193,-0.2887 0.16448,-0.092 -0.13672,0.9596 -0.0775,1.0558 0.0741,0.1204 1.4339,-1.3888 1.65217,-1.2375 0,0 -0.62103,1.0134 -1.35328,1.8591 z"
       style="fill:#501616;fill-opacity:1;stroke:none;stroke-width:0.29013452px;stroke-linecap:butt;stroke-linejoin:miter;stroke-opacity:1" />
    <rect
       y="872.51965"
       x="0"
       height="110"
       width="300"
       id="rect3300-6"
       style="opacity:1;fill:#263769;fill-opacity:1;stroke:none;stroke-width:3.38424516;stroke-miterlimit:4;stroke-dasharray:none;stroke-opacity:1" />
    <path
       id="path832-5-5"
       d="m 21.346897,890.47998 c 4.05536,2.4962 7.60436,4.9144 11.5837,5.6131 l -4.52511,7.5678 c -0.54042,-0.4773 -0.90397,-0.7761 -1.40105,-1.2427 -0.024,-0.023 -0.19459,0.2333 -0.3106,0.159 -0.11728,-0.075 0.1565,-0.2899 0.13599,-0.3092 -0.0171,-0.016 -0.67702,0.5201 -0.62921,0.2404 0.0624,-0.3648 0.36992,-0.3358 0.33354,-0.4028 -0.0364,-0.067 -0.25877,0.05 -0.27116,0.038 -0.0569,-0.054 0.21238,-0.2507 0.15602,-0.3047 -4.4356,-4.2452 -6.93292,-8.027 -6.03315,-11.2773 0.0143,-0.052 -0.59997,-0.9328 -0.3062,-0.9195 0.24035,0.011 0.43175,0.6175 0.51339,0.6005 0.0309,-0.01 -0.0168,-0.9223 0.0989,-0.9147 0.25003,0.016 0.34105,1.0635 0.42847,1.0626 0.0969,-10e-4 -0.15603,-0.6829 0.0655,-0.7208 0.26401,-0.045 0.12741,0.5529 0.161,0.8103 z"
       style="fill:url(#linearGradient854-0-7);fill-opacity:1;stroke:none;stroke-width:0.24224885px;stroke-linecap:butt;stroke-linejoin:miter;stroke-opacity:1" />
    <path
       id="path916-1-6"
       d="m 55.720777,899.80418 c -18.69907,0 -33.85766,15.1586 -33.85769,33.8577 3e-5,18.6991 15.15862,33.8577 33.85769,33.8577 18.69908,0 33.85767,-15.1586 33.8577,-33.8577 -3e-5,-18.6991 -15.15862,-33.8577 -33.8577,-33.8577 z"
       style="fill:url(#radialGradient3302-0-5);fill-opacity:1;stroke:none;stroke-width:0.51037312;stroke-miterlimit:4;stroke-dasharray:none;stroke-opacity:1" />
    <path
       id="path826-7-1-9"
       d="m 29.898567,912.48888 c -0.78655,1.0567 -2.13614,2.8628 -2.00392,2.9233 0.0753,0.035 0.23226,-0.2795 0.29933,-0.2313 0.0155,0.011 -0.60965,0.8421 -0.53876,0.9109 0.0577,0.056 0.23554,-0.3604 0.31808,-0.307 0.10971,0.072 -1.76551,3.5698 -2.1403,4.747 -0.23381,0.7345 -0.009,2.3912 1.26843,2.3452 1.28846,-0.047 2.73223,-1.1863 3.07287,-2.4644 0.20142,-0.7557 0.90214,-2.0572 1.53562,-3.0079 -0.0312,0.8535 -0.12679,2.0607 -0.0795,2.9069 2.3212,1.6973 4.19754,1.3549 6.14389,-0.071 0.17621,-0.1292 0.35272,-0.2672 0.53046,-0.4134 0.22975,-0.1891 0.46135,-0.3919 0.69513,-0.6066 0.098,-0.09 0.0341,0.3905 0.13298,0.2963 0.84328,-1.577 2.3833,-2.867 3.41715,-3.9774 0.76344,-0.8192 4.94684,-1.4112 5.17749,-3.326 5.6e-4,-0.01 4.3e-4,-0.016 10e-4,-0.022 0.79647,-0.1305 1.61196,-0.2753 2.44247,-0.4302 -2.96107,2.2082 -5.1296,4.225 -5.09505,4.2561 0.044,0.04 0.16981,-0.1164 0.2113,-0.086 0.007,-10e-5 -0.64655,0.4975 -0.57453,0.5573 0.0617,0.052 0.16227,-0.1113 0.22809,-0.063 0.0796,0.059 -1.67943,2.2932 -2.28356,3.3234 0,0 -1.46546,3.6406 1.08495,3.7678 3.44955,0.1721 2.963,-2.4 4.40233,-3.6525 1.52236,-1.325 3.59286,-3.1991 5.56783,-5.0071 0.16883,-0.1546 -0.0972,0.8966 0.0698,0.7434 0.60387,-1.156 1.16329,-1.8736 2.06612,-2.7062 0.20997,-0.1936 -0.16054,0.9928 0.0394,0.8079 0.6174,-1.5211 1.7107,-2.5185 2.87812,-3.5474 10.62222,-1.7536 21.75433,-1.8973 27.45669,10.0302 2.08191,4.3547 3.21773,9.1218 3.32768,13.9707 1.36107,-13.8547 -1.92912,-27.9159 -10.06766,-36.6233 -0.0963,-0.1031 0.63845,0.2527 0.54081,0.1512 -0.30077,-0.3127 -1.43993,-1.0759 -1.75359,-1.374 -0.19196,-0.1823 0.8626,0.4709 1.06274,0.298 0.26247,-0.2268 -2.2017,-1.3262 -2.48693,-1.5624 -0.0989,-0.082 0.52273,0.2562 0.8915,0.3603 0.24248,0.068 0.30154,-0.071 0.23527,-0.1234 -2.54804,-2.0117 -5.97279,-3.7725 -9.70449,-4.9432 -0.2987,-0.094 1.14802,-0.062 0.84568,-0.1485 -1.82479,-0.1798 -3.80391,-0.6797 -5.45372,-0.9547 -0.4505,-0.074 1.9961,-0.6222 1.54437,-0.6765 -1.97261,0.2414 -4.11526,0.3 -5.98353,0.2788 -16.67639,1.6751 -36.83379,6.6898 -29.32207,23.6511 z"
       style="opacity:0.2;fill:#011842;fill-opacity:1;stroke:none;stroke-width:0.24911684px;stroke-linecap:butt;stroke-linejoin:miter;stroke-opacity:1" />
    <path
       id="path826-0-3"
       d="m 58.920677,886.34048 c -5.5367,-0.086 -10.71114,1.6458 -15.49092,3.2381 l 0.77502,21.1235 c 13.56109,-1.4527 33.98638,-9.208 42.17343,8.839 2.0765,4.5771 3.1589,9.5643 3.17203,14.6148 1.70663,-14.3959 -1.42487,-29.104 -9.71609,-38.3396 -0.0981,-0.1093 0.65939,0.2762 0.55986,0.1686 -0.3066,-0.3319 -1.47636,-1.1504 -1.79669,-1.4672 -0.19604,-0.1938 0.88829,0.5085 1.10028,0.3327 0.278,-0.2306 -2.26496,-1.4271 -2.55698,-1.679 -0.10124,-0.087 0.53896,0.278 0.92071,0.3939 0.25103,0.076 0.31556,-0.068 0.24765,-0.1235 -2.61077,-2.1476 -6.1394,-4.0528 -10.00008,-5.3496 -0.30902,-0.1038 1.19632,-0.041 0.88335,-0.1365 -1.89608,-0.2254 -3.94601,-0.7873 -5.65791,-1.108 -0.46748,-0.087 2.0912,-0.6061 1.62202,-0.6721 -2.05878,0.2101 -4.29103,0.2261 -6.23568,0.165 z"
       style="fill:url(#linearGradient1345-9-2);fill-opacity:1;stroke:none;stroke-width:0.25941357px;stroke-linecap:butt;stroke-linejoin:miter;stroke-opacity:1" />
    <path
       id="path834-8-7"
       d="m 57.294397,905.25998 c -6.28754,2.4584 -13.73124,9.0219 -13.66787,9.0814 0.045,0.043 0.17914,-0.118 0.2217,-0.086 0.007,0 -0.68367,0.5043 -0.60994,0.568 0.0631,0.055 0.17121,-0.1121 0.23872,-0.06 0.0817,0.063 -1.79633,2.3522 -2.44684,3.4121 0,0 -1.60185,3.7598 1.05079,3.9455 3.5878,0.2513 3.13526,-2.4366 4.65997,-3.7106 1.61265,-1.3475 3.80746,-3.2556 5.90144,-5.0968 0.179,-0.1573 -0.12014,0.9317 0.057,0.7757 0.65286,-1.1908 1.25052,-1.9267 2.20787,-2.7747 0.22265,-0.1972 -0.18824,1.0302 0.0238,0.842 0.87647,-2.0408 2.56999,-3.1433 4.19081,-4.5964"
       style="fill:url(#linearGradient914-1-0);fill-opacity:1;stroke:none;stroke-width:0.25941357px;stroke-linecap:butt;stroke-linejoin:miter;stroke-opacity:1" />
    <path
       id="path836-5-4"
       d="m 28.208277,909.95148 c -0.73216,0.9494 -2.60991,3.3281 -2.45693,3.4019 0.0777,0.038 0.24751,-0.2866 0.31634,-0.235 0.0159,0.012 -0.6522,0.8641 -0.57983,0.9372 0.0589,0.06 0.25272,-0.3703 0.33754,-0.3129 0.11272,0.077 -1.91302,3.6796 -2.32783,4.8974 -0.25878,0.7598 -0.0594,2.4895 1.27165,2.4682 1.34242,-0.022 2.86968,-1.178 3.25104,-2.5014 0.38743,-1.3445 2.34753,-4.3688 2.77822,-4.2845"
       style="fill:url(#linearGradient878-8-3);fill-opacity:1;stroke:none;stroke-width:0.25941357px;stroke-linecap:butt;stroke-linejoin:miter;stroke-opacity:1" />
    <path
       id="path828-5-0-5"
       d="m 46.512847,888.57448 c -1.04338,0.33 -2.07455,0.6694 -3.08309,1.0053 l 0.77502,21.1223 c 1.27827,-0.1766 2.57665,-0.369 3.8836,-0.5528 0.26892,-0.2728 0.45196,-0.5814 0.50219,-0.9379 0.73419,-5.5857 0.23557,-10.2639 -1.18977,-15.5948 0.14733,-0.3029 -0.16859,-2.5221 -0.88795,-5.0421 z"
       style="fill:url(#radialGradient3304-7-4);fill-opacity:1;stroke:none;stroke-width:0.2594063px;stroke-linecap:butt;stroke-linejoin:miter;stroke-opacity:1" />
    <path
       id="path828-6-2"
       d="m 35.224247,893.09908 c -4.04227,2.8134 -13.50052,8.3879 -5.59446,20.3329 -0.0743,0.3738 -0.11783,0.925 -0.13604,1.6307 -0.003,0.1234 0.12247,-0.2492 0.12082,-0.1164 -0.001,0.1129 -0.005,0.238 -0.009,0.3728 -0.001,0.038 0.0963,-0.1876 0.095,-0.1486 -0.0302,0.8757 -0.81023,2.6088 -0.16231,3.3617 1.95317,2.2697 4.34156,1.498 6.39777,0.054 0.18615,-0.1308 0.37309,-0.2708 0.56119,-0.4193 0.24315,-0.1919 0.48826,-0.3982 0.73614,-0.6169 0.10392,-0.092 0.0272,0.4072 0.13213,0.3112 0.91092,-1.6241 2.54161,-2.9352 3.64119,-4.0696 0.81196,-0.8368 5.17937,-1.3657 5.45953,-3.3545 0.0997,-0.7587 -0.15665,-3.3297 0.004,-3.3427 0.14111,-0.012 0.0486,0.4938 0.21829,0.5044 0.19215,0.012 0.0668,-0.622 0.095,-0.6184 0.0398,0 0.25679,0.5515 0.30123,0.5507 0.21957,0 -0.50213,-2.5982 -0.36852,-2.6022 0.17313,0 0.14219,0.4999 0.36088,0.5024 0.11614,0 -1.05295,-3.6172 -0.7559,-3.6102 0.24113,0.01 0.313,0.6858 0.57592,0.7454 0.217,0.049 -1.01787,-5.367 -1.53085,-7.3797 -0.014,-0.055 0.12646,-0.074 0.15943,-0.1241 0.021,-0.032 -0.0795,-0.1024 -0.0394,-0.1186 0.0458,-0.019 0.18353,0.04 0.19766,0.011 0.0494,-0.099 -0.34407,-0.2154 -0.26889,-0.3329 0.036,-0.056 -0.006,-0.2686 0.0371,-0.337 0.24766,-0.3969 0.6446,-0.7934 0.49255,-0.8228 -0.17032,-0.033 -0.36908,0.4399 -0.54543,0.4352 -0.0908,0 0.29142,-0.9909 0.21069,-1.0061 -0.19333,-0.036 -0.42664,0.4777 -0.5922,0.5597 -0.0523,0.026 0.26487,-0.4707 0.0507,-0.4762 -0.039,-10e-4 -0.22721,0.2909 -0.28562,0.1508 -0.65161,-1.5629 -2.70122,-10.1783 -5.50809,-11.2178 -0.0559,-0.021 0.0383,-0.7625 -0.13018,-0.7733 -0.0508,0 -0.23326,0.7916 -0.40162,0.7505 -0.16427,-0.04 -0.31396,-0.9174 -0.40342,-0.8257 -0.0974,0.1 0.0112,0.7358 -0.0486,0.7 -0.32728,-0.1958 -0.47292,-0.3306 -0.57446,-0.3256 -0.25407,0.013 0.44244,0.4665 0.22455,0.6044 -0.10944,0.069 -0.49443,-0.061 -0.59526,0.036 -0.0594,0.057 0.16258,0.3327 0.10605,0.3985 -2.08184,2.4244 -2.22785,10.6272 -2.22785,10.6272 z"
       style="fill:url(#linearGradient862-2-4);fill-opacity:1;stroke:none;stroke-width:0.25941357px;stroke-linecap:butt;stroke-linejoin:miter;stroke-opacity:1" />
    <path
       id="path838-4-5"
       d="m 28.818857,912.17538 c 0.32572,-0.084 0.61713,0.1144 0.91372,0.2701 l -0.60534,0.1644 z"
       style="fill:#501616;stroke:none;stroke-width:0.25941357px;stroke-linecap:butt;stroke-linejoin:miter;stroke-opacity:1" />
    <path
       id="path840-6-4"
       d="m 32.942027,910.91898 c 0.88578,-1.2491 1.66327,-2.6467 2.78685,-3.5698 l 0.34264,0.1644 c -1.16352,0.9805 -2.13042,2.2136 -3.12949,3.4054 z"
       style="fill:#501616;stroke:none;stroke-width:0.25941357px;stroke-linecap:butt;stroke-linejoin:miter;stroke-opacity:1" />
    <path
       id="path844-2-7"
       d="m 30.494107,917.79738 c -0.10287,-0.1034 -0.0749,-0.363 0.0165,-0.4762 0.3391,-0.4199 0.53194,-0.7551 1.33335,-0.8038 0.0906,-0.01 0.16293,0 0.25198,0.056 0.0594,0.04 0.0619,0.084 0.0794,0.1573 0.0445,0.1854 0.10388,0.3713 0.009,0.5304 -0.29316,0.4923 -0.0416,0.6262 -0.008,0.7939 -0.0436,0.1335 -0.10972,0.2624 -0.36548,0.3523 -0.60932,-0.024 -0.89919,-0.1901 -1.31654,-0.6095 z"
       style="fill:#550000;stroke:none;stroke-width:0.25941357px;stroke-linecap:butt;stroke-linejoin:miter;stroke-opacity:1" />
    <path
       id="path846-5-4"
       d="m 32.439477,919.44418 -0.0186,-0.038 c 1.02846,-0.4724 1.99936,-1.142 2.96492,-1.8299 l 0.0689,0.1067 c -0.97226,0.6344 -1.9395,1.276 -3.0153,1.7614 z"
       style="fill:#501616;stroke:none;stroke-width:0.25941357px;stroke-linecap:butt;stroke-linejoin:miter;stroke-opacity:1" />
    <path
       id="path1352-1-8-4"
       d="m 77.839767,940.41788 c -0.13551,-0.1462 -1.5204,-1.2826 -1.1744,-0.9483 1.40725,1.3598 0.84635,6.5309 -2.329,10.3749 -2.58944,3.1347 -11.48659,6.1962 -15.40684,0.035 2.19586,1.1583 4.4592,1.3763 6.39405,1.0228 0.48381,-0.088 -0.72114,-0.4516 -0.28457,-0.6055 0.91927,-0.01 1.71653,-0.1018 2.4287,-0.3276 0.20908,-0.067 -0.85616,-0.059 -0.66085,-0.1502 1.41543,-0.096 2.29461,-0.7201 3.13684,-1.5957 3.53409,-5.3556 1.91176,-12.2433 -5.59144,-13.3724 -3.31286,-0.2992 -7.43796,1.0085 -11.43225,3.2979 -0.33389,0.1912 1.0332,0.1079 0.7017,0.3126 -2.36804,0.4859 -4.35282,2.015 -5.98915,3.367 -0.27906,0.2316 1.49266,-0.1307 1.22053,0.1092 -7.88252,4.2518 -12.47637,16.3158 -8.96216,21.6582 -2.32075,0.07 -5.63886,-0.1453 -7.37666,-0.3382 -3.04796,-0.3383 -5.29264,-1.8147 -7.76733,-3.7583 -0.50419,-0.4136 1.94149,1.0085 1.52922,0.5271 -0.99301,-1.8909 -2.3522,-2.4438 -3.47196,-4.2703 -0.14225,-0.2922 1.6015,1.2317 1.48073,0.9265 -0.40744,-2.6958 -1.98621,-5.7898 -2.16775,-8.3898 -0.005,-0.5212 1.10669,1.3699 1.13883,0.8363 0.94398,-4.7342 3.17338,-7.4327 5.24518,-11.437 0.32406,-0.3424 0.0855,1.5064 0.43653,1.1721 10.36191,-9.8738 32.05197,-16.1544 41.11886,-9.6214 1.16607,1.1471 2.54329,1.8031 3.76004,2.9621 0.18127,0.1905 -1.24693,-0.684 -1.06737,-0.4788 1.04635,2.0083 2.87425,2.9691 4.17522,4.7832 0.14388,0.2377 -1.45579,-0.9484 -1.31345,-0.6996 0.7752,1.3553 1.5204,2.8871 2.22892,4.6079 z"
       style="opacity:0.3;fill:#001842;fill-opacity:1;stroke:none;stroke-width:0.27301776px;stroke-linecap:butt;stroke-linejoin:miter;stroke-opacity:1" />
    <path
       id="path1352-6-3"
       d="m 80.675107,939.72838 c -0.14106,-0.158 -1.58981,-1.3932 -1.22886,-1.031 1.46803,1.4729 0.76872,6.956 -2.68195,10.9768 -2.81394,3.2789 -12.32842,6.3538 -16.37056,-0.2712 2.30996,1.2746 4.71043,1.5514 6.77328,1.2145 0.51584,-0.084 -0.75719,-0.4941 -0.29026,-0.6491 0.97687,0.01 1.82591,-0.073 2.58703,-0.2998 0.22351,-0.067 -0.90849,-0.08 -0.69914,-0.1727 1.50584,-0.073 2.45243,-0.7193 3.36479,-1.6328 3.86206,-5.6197 2.27598,-12.9704 -5.67366,-14.32 -3.51394,-0.3841 -7.92303,0.9229 -12.21275,3.2754 -0.35859,0.1966 1.09563,0.1354 0.73931,0.3463 -2.52576,0.4689 -4.66517,2.0539 -6.43081,3.4578 -0.30112,0.2405 1.58863,-0.1085 1.29465,0.1403 -8.46022,4.3601 -13.58234,17.0864 -9.95525,22.8329 -2.46721,0.028 -5.98842,-0.2671 -7.831,-0.5068 -3.23171,-0.4204 -5.5872,-2.0339 -8.17772,-4.1484 -0.52743,-0.4496 2.0427,1.1104 1.61427,0.5906 -1.01728,-2.029 -2.45038,-2.6436 -3.60362,-4.6067 -0.14531,-0.3133 1.67698,1.3407 1.55477,1.014 -0.37903,-2.8724 -1.99465,-6.1913 -2.13557,-8.9575 0.005,-0.5539 1.14849,1.4777 1.19331,0.9114 1.09761,-5.0113 3.52029,-7.8339 5.80164,-12.0471 0.35115,-0.3572 0.0608,1.6023 0.44037,1.254 11.20696,-10.2837 34.37833,-16.5234 43.88138,-9.4008 1.21603,1.2421 2.66622,1.9665 3.93586,3.2223 0.18879,0.2062 -1.3112,-0.7516 -1.12452,-0.5301 1.07162,2.1549 2.99456,3.2122 4.3406,5.1658 0.14811,0.2553 -1.52783,-1.0369 -1.38157,-0.7697 0.79657,1.4555 1.55772,3.0979 2.27615,4.9405 z"
       style="fill:url(#linearGradient1174-3);fill-opacity:1;stroke:none;stroke-width:0.29013452px;stroke-linecap:butt;stroke-linejoin:miter;stroke-opacity:1" />
    <path
       id="path1352-7-2-8"
       d="m 76.764297,949.67418 c -2.81394,3.2789 -12.32842,6.3538 -16.37056,-0.2712 2.30996,1.2746 4.71043,1.5515 6.77328,1.2146 0.51584,-0.084 -0.75719,-0.4941 -0.29026,-0.6492 0.97687,0.01 1.82591,-0.073 2.58703,-0.2998 0.22351,-0.067 -0.90849,-0.08 -0.69914,-0.1727 1.50584,-0.073 2.45243,-0.7193 3.36479,-1.6328 0.63193,-0.8983 0.99905,-1.7408 0.99905,-1.7408 0.2343,0.1002 -0.42353,2.1868 0.0147,2.4993 0.0915,0.065 0.72373,-0.8535 0.72373,-0.8535 0.18106,0.065 0.14046,0.9801 0.45201,0.5611 0.70725,-0.951 1.50495,-2.3622 1.50495,-2.3622 0.13427,0.045 -0.47564,1.9785 -0.34036,2.0875 0.16401,0.1321 0.42164,-0.4206 0.42164,-0.4206 0.10754,0.034 0.0671,0.5083 0.0558,0.6516 -0.0194,0.2469 0.44072,-0.2098 0.58193,-0.2887 0.16448,-0.092 -0.13672,0.9596 -0.0775,1.0558 0.0741,0.1204 1.4339,-1.3888 1.65217,-1.2375 0,0 -0.62103,1.0134 -1.35328,1.8591 z"
       style="fill:#501616;fill-opacity:1;stroke:none;stroke-width:0.29013452px;stroke-linecap:butt;stroke-linejoin:miter;stroke-opacity:1" />
    <text
       xml:space="preserve"
       style="font-style:normal;font-weight:normal;font-size:53.18236542px;line-height:1.25;font-family:sans-serif;letter-spacing:0px;word-spacing:0px;fill:#ffffff;fill-opacity:1;stroke:none;stroke-width:1.32955909"
       x="110.01084"
       y="951.58948"
       id="text1586-2-3"><tspan
         id="tspan1584-8-6"
         x="110.01084"
         y="951.58948"
         style="font-style:normal;font-variant:normal;font-weight:normal;font-stretch:normal;font-family:'Source Sans Pro';-inkscape-font-specification:'Source Sans Pro';fill:#ffffff;fill-opacity:1;stroke-width:1.32955909">Fennec</tspan></text>
    <text
       id="text1165-3"
       y="913.34296"
       x="113.08994"
       style="font-style:normal;font-weight:normal;font-size:20.56698608px;line-height:1.25;font-family:sans-serif;letter-spacing:0px;word-spacing:0px;fill:#000000;fill-opacity:1;stroke:none;stroke-width:0.51417464"
       xml:space="preserve"><tspan
         style="font-style:normal;font-variant:normal;font-weight:600;font-stretch:normal;font-family:'Source Sans Pro';-inkscape-font-specification:'Source Sans Pro Semi-Bold';fill:#ffffff;fill-opacity:1;stroke-width:0.51417464"
         y="913.34296"
         x="113.08994"
         id="tspan1163-6">F-Droid</tspan></text>
    <text
       xml:space="preserve"
       style="font-style:normal;font-weight:normal;font-size:53.18236542px;line-height:1.25;font-family:sans-serif;letter-spacing:0px;word-spacing:0px;fill:#263769;fill-opacity:1;stroke:none;stroke-width:1.32955909;"
       x="110.01085"
       y="1061.5895"
       id="text1586-2-3-7"><tspan
         id="tspan1584-8-6-5"
         x="110.01085"
         y="1061.5895"
         style="font-style:normal;font-variant:normal;font-weight:normal;font-stretch:normal;font-family:'Source Sans Pro';-inkscape-font-specification:'Source Sans Pro';fill:#263769;fill-opacity:1;stroke-width:1.32955909;">Fennec</tspan></text>
    <text
       id="text1165-3-3"
       y="1023.343"
       x="113.08994"
       style="font-style:normal;font-weight:normal;font-size:20.56698608px;line-height:1.25;font-family:sans-serif;letter-spacing:0px;word-spacing:0px;fill:#263769;fill-opacity:1;stroke:none;stroke-width:0.51417464"
       xml:space="preserve"><tspan
         style="font-style:normal;font-variant:normal;font-weight:600;font-stretch:normal;font-family:'Source Sans Pro';-inkscape-font-specification:'Source Sans Pro Semi-Bold';fill:#263769;fill-opacity:1;stroke-width:0.51417464"
         y="1023.343"
         x="113.08994"
         id="tspan1163-6-5">F-Droid</tspan></text>
  </g>
</svg>
