<?xml version="1.0" encoding="UTF-8" standalone="no"?>
<svg
   xmlns:dc="http://purl.org/dc/elements/1.1/"
   xmlns:cc="http://creativecommons.org/ns#"
   xmlns:rdf="http://www.w3.org/1999/02/22-rdf-syntax-ns#"
   xmlns:svg="http://www.w3.org/2000/svg"
   xmlns="http://www.w3.org/2000/svg"
   xmlns:xlink="http://www.w3.org/1999/xlink"
   width="32"
   height="32"
   viewBox="0 0 32 32.000001"
   version="1.1"
   id="svg4319">
  <defs
     id="defs4313">
    <linearGradient
       xlink:href="#linearGradient2936"
       id="linearGradient1360-7-6-5-6"
       x1="136.81311"
       y1="173.91913"
       x2="167.58571"
       y2="126.60291"
       gradientUnits="userSpaceOnUse"
       gradientTransform="matrix(0.23539085,0.20035389,-0.2050631,0.24247238,9.3364647,1046.5908)" />
    <linearGradient
       id="linearGradient2936">
      <stop
         id="stop2932"
         offset="0"
         style="stop-color:#dfb14e;stop-opacity:1" />
      <stop
         id="stop2934"
         offset="1"
         style="stop-color:#b54047;stop-opacity:1" />
    </linearGradient>
    <linearGradient
       xlink:href="#linearGradient860"
       id="linearGradient862-2-9-8-4"
       x1="112.46608"
       y1="104.08393"
       x2="133.64702"
       y2="104.08393"
       gradientUnits="userSpaceOnUse"
       gradientTransform="matrix(0.27627502,0,0,0.28404281,-24.228929,1071.3903)" />
    <linearGradient
       id="linearGradient860">
      <stop
         style="stop-color:#dfb24f;stop-opacity:1"
         offset="0"
         id="stop856" />
      <stop
         style="stop-color:#d58b2f;stop-opacity:1"
         offset="1"
         id="stop858" />
    </linearGradient>
    <radialGradient
       xlink:href="#linearGradient1019"
       id="radialGradient3304-9-4-7-2"
       gradientUnits="userSpaceOnUse"
       gradientTransform="matrix(0.10687192,-0.00263104,0.00695107,0.35223233,-43.676245,964.8987)"
       cx="495.03906"
       cy="390.91138"
       fx="495.03906"
       fy="390.91138"
       r="10.743572" />
    <linearGradient
       id="linearGradient1019">
      <stop
         id="stop1015"
         offset="0"
         style="stop-color:#be5133;stop-opacity:1" />
      <stop
         id="stop1017"
         offset="1"
         style="stop-color:#81176b;stop-opacity:0" />
    </linearGradient>
    <linearGradient
       xlink:href="#linearGradient860"
       id="linearGradient878-6-5-2-9"
       x1="109.17788"
       y1="119.1124"
       x2="116.98858"
       y2="119.1124"
       gradientUnits="userSpaceOnUse"
       gradientTransform="matrix(0.27627502,0,0,0.28404281,-24.228929,1071.3903)" />
    <linearGradient
       xlink:href="#linearGradient912"
       id="linearGradient914-1-4-2-0"
       x1="124.89785"
       y1="118.32003"
       x2="144.10342"
       y2="118.32003"
       gradientUnits="userSpaceOnUse"
       gradientTransform="matrix(0.27627502,0,0,0.28404281,-23.634519,1071.3637)" />
    <linearGradient
       id="linearGradient912">
      <stop
         style="stop-color:#d99b3c;stop-opacity:1"
         offset="0"
         id="stop908" />
      <stop
         style="stop-color:#c96e35;stop-opacity:1"
         offset="1"
         id="stop910" />
    </linearGradient>
    <linearGradient
       xlink:href="#linearGradient2453"
       id="linearGradient1345-3-4-0-5"
       gradientUnits="userSpaceOnUse"
       x1="130.76288"
       y1="128.29868"
       x2="176.97937"
       y2="115.77173"
       gradientTransform="matrix(0.27627502,0,0,0.28404281,-24.228929,1071.3903)" />
    <linearGradient
       id="linearGradient2453">
      <stop
         id="stop2447"
         offset="0"
         style="stop-color:#d68e31;stop-opacity:1" />
      <stop
         id="stop2449"
         offset="0.82477462"
         style="stop-color:#be5133;stop-opacity:1" />
      <stop
         id="stop2451"
         offset="1"
         style="stop-color:#a3206d;stop-opacity:1" />
    </linearGradient>
    <radialGradient
       xlink:href="#linearGradient922"
       id="radialGradient3302-7-8-9-3"
       gradientUnits="userSpaceOnUse"
       gradientTransform="matrix(0.27639026,0,0,0.27639024,-24.241337,1072.3024)"
       cx="146.95654"
       cy="147.13304"
       fx="146.95654"
       fy="147.13304"
       r="35" />
    <linearGradient
       id="linearGradient922">
      <stop
         style="stop-color:#9d1c6f;stop-opacity:1"
         offset="0"
         id="stop918" />
      <stop
         style="stop-color:#590f66;stop-opacity:1"
         offset="1"
         id="stop920" />
    </linearGradient>
    <linearGradient
       xlink:href="#linearGradient860"
       id="linearGradient854-5-8-0-6"
       x1="105.04161"
       y1="99.608566"
       x2="119.384"
       y2="99.608566"
       gradientUnits="userSpaceOnUse"
       gradientTransform="matrix(0.25799463,0,0,0.26524846,-22.050474,1073.4006)" />
    <linearGradient
       gradientTransform="matrix(0.23539055,0.20035364,-0.20506283,0.24247206,-20.875383,-44.721101)"
       gradientUnits="userSpaceOnUse"
       y2="126.60291"
       x2="167.58571"
       y1="173.91913"
       x1="136.81311"
       id="linearGradient1360-6"
       xlink:href="#linearGradient2936" />
    <linearGradient
       gradientTransform="matrix(0.27627466,0,0,0.28404246,-54.440729,-19.921766)"
       gradientUnits="userSpaceOnUse"
       y2="104.08393"
       x2="133.64702"
       y1="104.08393"
       x1="112.46608"
       id="linearGradient862-2"
       xlink:href="#linearGradient860" />
    <radialGradient
       r="10.743572"
       fy="390.91138"
       fx="495.03906"
       cy="390.91138"
       cx="495.03906"
       gradientTransform="matrix(0.10687178,-0.00263104,0.00695106,0.35223189,-73.888015,-126.41296)"
       gradientUnits="userSpaceOnUse"
       id="radialGradient3304-7"
       xlink:href="#linearGradient1019" />
    <linearGradient
       gradientTransform="matrix(0.27627466,0,0,0.28404246,-54.440729,-19.921766)"
       gradientUnits="userSpaceOnUse"
       y2="119.1124"
       x2="116.98858"
       y1="119.1124"
       x1="109.17788"
       id="linearGradient878-8"
       xlink:href="#linearGradient860" />
    <linearGradient
       gradientTransform="matrix(0.27627466,0,0,0.28404246,-53.846317,-19.948338)"
       gradientUnits="userSpaceOnUse"
       y2="118.32003"
       x2="144.10342"
       y1="118.32003"
       x1="124.89785"
       id="linearGradient914-1"
       xlink:href="#linearGradient912" />
    <linearGradient
       gradientTransform="matrix(0.27627466,0,0,0.28404246,-54.440729,-19.921766)"
       y2="115.77173"
       x2="176.97937"
       y1="128.29868"
       x1="130.76288"
       gradientUnits="userSpaceOnUse"
       id="linearGradient1345-9"
       xlink:href="#linearGradient2453" />
    <radialGradient
       r="35"
       fy="147.13304"
       fx="146.95654"
       cy="147.13304"
       cx="146.95654"
       gradientTransform="matrix(0.2763899,0,0,0.27638988,-54.45314,-19.009563)"
       gradientUnits="userSpaceOnUse"
       id="radialGradient3302-0"
       xlink:href="#linearGradient922" />
    <linearGradient
       gradientTransform="matrix(0.2579943,0,0,0.26524812,-52.26228,-17.911309)"
       gradientUnits="userSpaceOnUse"
       y2="99.608566"
       x2="119.384"
       y1="99.608566"
       x1="105.04161"
       id="linearGradient854-0"
       xlink:href="#linearGradient860" />
  </defs>
  <metadata
     id="metadata4316">
    <rdf:RDF>
      <cc:Work
         rdf:about="">
        <dc:format>image/svg+xml</dc:format>
        <dc:type
           rdf:resource="http://purl.org/dc/dcmitype/StillImage" />
        <dc:title></dc:title>
      </cc:Work>
    </rdf:RDF>
  </metadata>
  <g
     id="layer1"
     transform="translate(1.0000003,-1091.52)">
    <path
       style="fill:url(#linearGradient854-5-8-0-6);fill-opacity:1;stroke:none;stroke-width:0.06921405px;stroke-linecap:butt;stroke-linejoin:miter;stroke-opacity:1"
       d="m 5.3848037,1098.0087 c 1.158677,0.7131 2.172674,1.404 3.309634,1.6036 l -1.292892,2.1623 c -0.154409,-0.1365 -0.258274,-0.2218 -0.400302,-0.3551 -0.0068,-0.01 -0.05559,0.067 -0.08874,0.045 -0.03352,-0.022 0.04472,-0.083 0.03886,-0.088 -0.0048,0 -0.193433,0.1486 -0.179779,0.069 0.01781,-0.1042 0.105694,-0.096 0.0953,-0.1151 -0.01041,-0.019 -0.07393,0.014 -0.07747,0.011 -0.01627,-0.015 0.06067,-0.072 0.04458,-0.087 -1.267315,-1.213 -1.980834,-2.2934 -1.72376,-3.2221 0.0042,-0.014 -0.17142,-0.2666 -0.08748,-0.2628 0.06867,0 0.12336,0.1766 0.146686,0.1717 0.0088,0 -0.0048,-0.2636 0.02825,-0.2614 0.07143,0 0.09744,0.3039 0.122418,0.3036 0.02771,0 -0.04457,-0.1952 0.01871,-0.206 0.07543,-0.013 0.03642,0.1581 0.04599,0.2316 z"
       id="path832-3-3-1-1" />
    <path
       style="fill:url(#radialGradient3302-7-8-9-3);fill-opacity:1;stroke:none;stroke-width:0.14582108;stroke-miterlimit:4;stroke-dasharray:none;stroke-opacity:1"
       d="m 15.205925,1100.6727 c -5.3426003,0 -9.6736323,4.3311 -9.6736363,9.6736 4e-6,5.3426 4.331036,9.6737 9.6736363,9.6737 5.342596,0 9.673629,-4.3311 9.673639,-9.6737 -10e-6,-5.3425 -4.331043,-9.6736 -9.673639,-9.6736 z"
       id="path916-6-1-7-5" />
    <path
       style="opacity:0.2;fill:#3c1842;fill-opacity:1;stroke:none;stroke-width:0.07117633px;stroke-linecap:butt;stroke-linejoin:miter;stroke-opacity:1"
       d="m 7.8281397,1104.2968 c -0.224723,0.3019 -0.610324,0.818 -0.57255,0.8353 0.02151,0.01 0.06636,-0.08 0.08552,-0.066 0.0047,0 -0.174191,0.2406 -0.15393,0.2603 0.01645,0.016 0.06729,-0.103 0.09087,-0.088 0.03136,0.021 -0.504434,1.02 -0.611511,1.3563 -0.0668,0.2099 -0.0023,0.6832 0.362407,0.6701 0.368129,-0.013 0.780638,-0.339 0.877959,-0.7041 0.05755,-0.216 0.257758,-0.5878 0.438755,-0.8594 -0.0089,0.2438 -0.03619,0.5888 -0.02269,0.8305 0.663203,0.4849 1.199302,0.3872 1.7554043,-0.021 0.05034,-0.037 0.100776,-0.076 0.151558,-0.1181 0.06564,-0.054 0.131814,-0.1119 0.198609,-0.1733 0.02798,-0.026 0.0097,0.1116 0.03802,0.085 0.240939,-0.4506 0.68094,-0.8192 0.976331,-1.1364 0.218124,-0.2341 1.413384,-0.4033 1.479284,-0.9504 1.59e-4,0 1.22e-4,0 2.06e-4,-0.01 0.227559,-0.037 0.460561,-0.079 0.697853,-0.1229 -0.846022,0.6309 -1.465605,1.2072 -1.455733,1.2161 0.01256,0.012 0.04852,-0.033 0.06037,-0.025 0.0019,-10e-5 -0.184729,0.1421 -0.164154,0.1593 0.01763,0.014 0.04636,-0.032 0.06517,-0.018 0.02273,0.017 -0.479837,0.6552 -0.652443,0.9494 0,0 -0.418705,1.0403 0.309984,1.0768 0.985584,0.049 0.846575,-0.6859 1.257813,-1.0437 0.434957,-0.3785 1.026532,-0.9139 1.590809,-1.4305 0.04824,-0.044 -0.0278,0.2562 0.01992,0.2124 0.172535,-0.3305 0.332367,-0.5355 0.590317,-0.7734 0.05999,-0.055 -0.04584,0.2836 0.0113,0.2309 0.176398,-0.4347 0.488772,-0.7195 0.822321,-1.0135 3.034921,-0.501 6.215535,-0.5421 7.844778,2.8658 0.594828,1.2441 0.919352,2.6062 0.950765,3.9917 0.388881,-3.9586 -0.551171,-7.9761 -2.876477,-10.4639 -0.02752,-0.03 0.182417,0.072 0.154521,0.043 -0.08594,-0.089 -0.411412,-0.3072 -0.501031,-0.3925 -0.05484,-0.052 0.24646,0.1346 0.303641,0.085 0.07499,-0.065 -0.629061,-0.3789 -0.710553,-0.4464 -0.02826,-0.023 0.149356,0.073 0.254716,0.103 0.06928,0.019 0.08615,-0.021 0.06721,-0.036 -0.728009,-0.5749 -1.70651,-1.0779 -2.772714,-1.4124 -0.08534,-0.027 0.328003,-0.018 0.241627,-0.042 -0.52137,-0.051 -1.086834,-0.1944 -1.55821,-0.2729 -0.12872,-0.021 0.570315,-0.1778 0.441249,-0.1934 -0.563603,0.069 -1.175793,0.086 -1.709587,0.08 -4.764686,0.4785 -10.5239463,1.9113 -8.3777463,6.7574 z"
       id="path826-7-1-4-7-9" />
    <path
       style="fill:url(#linearGradient1345-3-4-0-5);fill-opacity:1;stroke:none;stroke-width:0.07411826px;stroke-linecap:butt;stroke-linejoin:miter;stroke-opacity:1"
       d="m 16.120182,1096.8259 c -1.581921,-0.025 -3.060329,0.4702 -4.425982,0.9251 l 0.221432,6.0353 c 3.874602,-0.415 9.71041,-2.6308 12.049568,2.5255 0.593289,1.3077 0.902547,2.7326 0.906297,4.1756 0.48761,-4.1131 -0.407104,-8.3154 -2.776034,-10.9542 -0.02803,-0.031 0.188404,0.079 0.159964,0.048 -0.0876,-0.095 -0.421818,-0.3288 -0.513341,-0.4192 -0.05601,-0.055 0.253802,0.1452 0.314366,0.095 0.07943,-0.066 -0.647133,-0.4077 -0.730564,-0.4797 -0.02892,-0.025 0.153986,0.079 0.26306,0.1125 0.07172,0.022 0.09015,-0.019 0.07075,-0.035 -0.745935,-0.6136 -1.754114,-1.1581 -2.857172,-1.5286 -0.08828,-0.029 0.341807,-0.012 0.252385,-0.039 -0.541734,-0.064 -1.12743,-0.2249 -1.616544,-0.3166 -0.133567,-0.025 0.597485,-0.1731 0.463435,-0.192 -0.588222,0.06 -1.226012,0.065 -1.781626,0.047 z"
       id="path826-0-9-1-8" />
    <path
       style="fill:url(#linearGradient914-1-4-2-0);fill-opacity:1;stroke:none;stroke-width:0.07411826px;stroke-linecap:butt;stroke-linejoin:miter;stroke-opacity:1"
       d="m 15.655533,1102.2314 c -1.796445,0.7025 -3.923217,2.5777 -3.905114,2.5947 0.01284,0.012 0.05118,-0.034 0.06334,-0.025 0.0019,0 -0.195332,0.1442 -0.17427,0.1623 0.01805,0.016 0.04892,-0.032 0.06821,-0.017 0.02334,0.018 -0.513242,0.672 -0.6991,0.9748 0,0 -0.45767,1.0742 0.300227,1.1272 1.025088,0.072 0.895788,-0.6961 1.33142,-1.0601 0.460754,-0.3849 1.087852,-0.9301 1.686129,-1.4563 0.05114,-0.045 -0.03431,0.2663 0.01631,0.2217 0.186533,-0.3402 0.357292,-0.5505 0.630825,-0.7928 0.06361,-0.056 -0.05378,0.2944 0.0068,0.2406 0.250427,-0.5831 0.734286,-0.8979 1.197379,-1.3132"
       id="path834-6-2-1-4" />
    <path
       style="fill:url(#linearGradient878-6-5-2-9);fill-opacity:1;stroke:none;stroke-width:0.07411826px;stroke-linecap:butt;stroke-linejoin:miter;stroke-opacity:1"
       d="m 7.3451997,1103.5719 c -0.209193,0.2713 -0.745691,0.9508 -0.701978,0.9719 0.02217,0.011 0.07071,-0.082 0.09038,-0.067 0.0047,0 -0.186345,0.2469 -0.165673,0.2677 0.01683,0.017 0.07221,-0.1058 0.09644,-0.089 0.0322,0.022 -0.546583,1.0514 -0.665092,1.3993 -0.07394,0.2171 -0.01696,0.7112 0.363327,0.7052 0.383547,-0.01 0.819912,-0.3366 0.928867,-0.7147 0.110696,-0.3841 0.670726,-1.2482 0.793783,-1.2241"
       id="path836-3-0-5-8" />
    <path
       style="fill:url(#radialGradient3304-9-4-7-2);fill-opacity:1;stroke:none;stroke-width:0.07411617px;stroke-linecap:butt;stroke-linejoin:miter;stroke-opacity:1"
       d="m 12.57508,1097.4642 c -0.2981,0.094 -0.592723,0.1912 -0.88088,0.2872 l 0.221432,6.0349 c 0.36522,-0.051 0.73619,-0.1054 1.109603,-0.158 0.07683,-0.078 0.129133,-0.166 0.143481,-0.2679 0.20977,-1.5959 0.0673,-2.9325 -0.339933,-4.4556 0.04209,-0.087 -0.04816,-0.7205 -0.253703,-1.4406 z"
       id="path828-5-2-6-9-1" />
    <path
       style="fill:url(#linearGradient862-2-9-8-4);fill-opacity:1;stroke:none;stroke-width:0.07411826px;stroke-linecap:butt;stroke-linejoin:miter;stroke-opacity:1"
       d="m 9.3497637,1098.7569 c -1.154937,0.8038 -3.857298,2.3966 -1.598417,5.8093 -0.02119,0.1069 -0.03366,0.2643 -0.03886,0.4661 -9.37e-4,0.035 0.03502,-0.071 0.0345,-0.033 -2.11e-4,0.032 -0.0019,0.068 -0.0023,0.1065 -2.07e-4,0.011 0.02752,-0.054 0.02714,-0.043 -0.0086,0.2502 -0.231493,0.7453 -0.04636,0.9604 0.558052,0.6485 1.24045,0.428 1.82794,0.016 0.05318,-0.038 0.106594,-0.077 0.160339,-0.1198 0.06947,-0.055 0.139501,-0.1137 0.210327,-0.1763 0.02967,-0.026 0.0078,0.1164 0.03774,0.089 0.2602613,-0.4641 0.7261763,-0.8387 1.0403413,-1.1629 0.231989,-0.239 1.479823,-0.3901 1.55987,-0.9584 0.02845,-0.2167 -0.04477,-0.9513 0.0014,-0.955 0.04027,0 0.01392,0.1411 0.06236,0.1441 0.0549,0 0.01908,-0.1776 0.02714,-0.1766 0.01139,0 0.07337,0.1575 0.08606,0.1573 0.06273,0 -0.143458,-0.7424 -0.105287,-0.7436 0.04946,0 0.04064,0.1429 0.103107,0.1436 0.03319,0 -0.300843,-1.0334 -0.215973,-1.0314 0.06889,0 0.08943,0.1959 0.164553,0.2129 0.062,0.014 -0.29082,-1.5334 -0.437386,-2.1085 -0.0042,-0.015 0.03614,-0.021 0.04556,-0.035 0.006,-0.01 -0.02269,-0.03 -0.01125,-0.034 0.01308,-0.01 0.05243,0.012 0.05647,0 0.01411,-0.028 -0.0983,-0.062 -0.07682,-0.095 0.01031,-0.016 -0.0019,-0.077 0.01064,-0.096 0.07076,-0.1135 0.184171,-0.2267 0.14073,-0.2351 -0.04866,-0.01 -0.105451,0.1257 -0.155839,0.1243 -0.02597,0 0.08326,-0.2832 0.06019,-0.2874 -0.05523,-0.01 -0.121896,0.1365 -0.169199,0.1599 -0.01495,0.01 0.07568,-0.1345 0.01448,-0.136 -0.01116,0 -0.06491,0.083 -0.0816,0.043 -0.186176,-0.4465 -0.771784,-2.9081 -1.573741,-3.2051 -0.01594,-0.01 0.01097,-0.2179 -0.03722,-0.2211 -0.01448,0 -0.06664,0.2264 -0.114745,0.2146 -0.04693,-0.012 -0.0897,-0.2622 -0.115265,-0.236 -0.02784,0.029 0.0033,0.2103 -0.01392,0.2 -0.09351,-0.056 -0.135124,-0.094 -0.164135,-0.093 -0.07259,0 0.126408,0.1334 0.06415,0.1728 -0.03127,0.02 -0.1412643,-0.017 -0.1700703,0.01 -0.01697,0.017 0.04645,0.095 0.03028,0.1139 -0.594812,0.6927 -0.636533,3.0363 -0.636533,3.0363 z"
       id="path828-0-8-7-0" />
    <path
       style="fill:#501616;stroke:none;stroke-width:0.07411826px;stroke-linecap:butt;stroke-linejoin:miter;stroke-opacity:1"
       d="m 7.5196517,1104.2073 c 0.09306,-0.024 0.176319,0.032 0.261063,0.077 l -0.172952,0.047 z"
       id="path838-6-9-7-3" />
    <path
       style="fill:#501616;stroke:none;stroke-width:0.07411826px;stroke-linecap:butt;stroke-linejoin:miter;stroke-opacity:1"
       d="m 8.6976997,1103.8483 c 0.253084,-0.3568 0.47522,-0.7562 0.796248,-1.0199 l 0.09789,0.047 c -0.332432,0.2802 -0.608693,0.6325 -0.894142,0.973 z"
       id="path840-1-2-6-0" />
    <path
       style="fill:#550000;stroke:none;stroke-width:0.07411826px;stroke-linecap:butt;stroke-linejoin:miter;stroke-opacity:1"
       d="m 7.9982947,1105.8136 c -0.02944,-0.03 -0.02142,-0.1037 0.0047,-0.1361 0.09688,-0.1199 0.151984,-0.2157 0.380955,-0.2296 0.02587,0 0.04655,0 0.07199,0.016 0.01697,0.012 0.01772,0.024 0.02274,0.045 0.0127,0.053 0.02967,0.1061 0.0023,0.1515 -0.08376,0.1407 -0.01191,0.179 -0.0023,0.2269 -0.01247,0.038 -0.03136,0.075 -0.104423,0.1006 -0.174092,-0.01 -0.256909,-0.054 -0.376156,-0.1741 z"
       id="path844-5-6-7-4" />
    <path
       style="fill:#501616;stroke:none;stroke-width:0.07411826px;stroke-linecap:butt;stroke-linejoin:miter;stroke-opacity:1"
       d="m 8.5541197,1106.2841 -0.0053,-0.011 c 0.29384,-0.135 0.571239,-0.3263 0.847115,-0.5228 l 0.01969,0.03 c -0.277789,0.1813 -0.554143,0.3645 -0.861515,0.5033 z"
       id="path846-5-6-3-4" />
    <path
       style="opacity:0.3;fill:#3c1842;fill-opacity:1;stroke:none;stroke-width:0.07800517px;stroke-linecap:butt;stroke-linejoin:miter;stroke-opacity:1"
       d="m 21.525644,1112.2766 c -0.03872,-0.042 -0.434399,-0.3664 -0.335545,-0.2709 0.402069,0.3885 0.241815,1.8659 -0.665429,2.9642 -0.73984,0.8956 -3.281887,1.7704 -4.401961,0.01 0.627388,0.3309 1.274065,0.3932 1.826876,0.2922 0.138231,-0.025 -0.206043,-0.129 -0.0813,-0.173 0.262647,0 0.490437,-0.029 0.693911,-0.094 0.05973,-0.019 -0.244614,-0.017 -0.188812,-0.043 0.404409,-0.028 0.655603,-0.2057 0.896238,-0.4559 1.009744,-1.5302 0.54622,-3.4981 -1.597555,-3.8207 -0.946531,-0.085 -2.125132,0.2881 -3.266362,0.9422 -0.0954,0.055 0.295204,0.031 0.200489,0.089 -0.676586,0.139 -1.243667,0.5758 -1.71119,0.9621 -0.07973,0.066 0.426474,-0.038 0.348723,0.031 -2.252149,1.2147 -3.5646823,4.6617 -2.560619,6.1881 -0.663075,0.02 -1.6111063,-0.042 -2.1076233,-0.097 -0.870848,-0.097 -1.512182,-0.5185 -2.219238,-1.0737 -0.144051,-0.1182 0.55471,0.288 0.436923,0.1505 -0.283719,-0.5402 -0.672062,-0.6981 -0.991992,-1.22 -0.04063,-0.083 0.45757,0.3519 0.423069,0.2647 -0.116414,-0.7703 -0.567492,-1.6542 -0.619365,-2.3971 -0.0017,-0.1489 0.316202,0.3914 0.325385,0.2389 0.269708,-1.3527 0.906681,-2.1236 1.49862,-3.2677 0.09259,-0.098 0.02447,0.4305 0.124731,0.3348 2.9605453,-2.821 9.1577143,-4.6154 11.7482553,-2.7489 0.333164,0.3277 0.726654,0.5152 1.074299,0.8464 0.05179,0.054 -0.35627,-0.1954 -0.304963,-0.1369 0.298958,0.5738 0.821215,0.8483 1.192921,1.3666 0.04111,0.068 -0.41594,-0.2709 -0.375269,-0.1999 0.221485,0.3873 0.4344,0.8249 0.636833,1.3166 z"
       id="path1352-1-4-4-6-4" />
    <path
       style="fill:url(#linearGradient1360-7-6-5-6);fill-opacity:1;stroke:none;stroke-width:0.08289568px;stroke-linecap:butt;stroke-linejoin:miter;stroke-opacity:1"
       d="m 22.335741,1112.0796 c -0.04027,-0.045 -0.454229,-0.3981 -0.351104,-0.2947 0.419436,0.4209 0.219637,1.9875 -0.766271,3.1364 -0.803987,0.9368 -3.522409,1.8154 -4.677303,-0.077 0.659986,0.3641 1.345829,0.4433 1.935219,0.347 0.147385,-0.024 -0.216338,-0.1412 -0.08293,-0.1855 0.279106,0 0.521685,-0.021 0.739148,-0.086 0.06386,-0.019 -0.259563,-0.023 -0.199748,-0.049 0.430237,-0.021 0.700694,-0.2055 0.961367,-0.4665 1.103448,-1.6056 0.650278,-3.7058 -1.621044,-4.0914 -1.003988,-0.1098 -2.263733,0.2636 -3.489365,0.9357 -0.102454,0.056 0.31304,0.039 0.211232,0.099 -0.721648,0.134 -1.33291,0.5869 -1.837376,0.988 -0.08604,0.069 0.453895,-0.031 0.369902,0.04 -2.417214,1.2457 -3.8806773,4.8818 -2.844361,6.5238 -0.7049183,0.01 -1.7109843,-0.076 -2.2374363,-0.145 -0.923346,-0.12 -1.59634,-0.581 -2.336494,-1.1852 -0.150694,-0.1285 0.583627,0.3173 0.461221,0.1688 -0.290651,-0.5797 -0.700107,-0.7553 -1.029608,-1.3162 -0.0415,-0.09 0.479142,0.3831 0.444223,0.2897 -0.108296,-0.8207 -0.569899,-1.769 -0.610164,-2.5593 0.0017,-0.1583 0.328139,0.4222 0.340949,0.2604 0.3136,-1.4318 1.005798,-2.2382 1.657613,-3.442 0.100326,-0.1021 0.01739,0.4577 0.125818,0.3581 3.2019953,-2.9382 9.8223933,-4.7209 12.5375523,-2.6859 0.347437,0.3549 0.761779,0.5618 1.124532,0.9207 0.05394,0.059 -0.374627,-0.2148 -0.32129,-0.1515 0.306177,0.6158 0.85559,0.9178 1.240178,1.476 0.04233,0.073 -0.436528,-0.2963 -0.394742,-0.22 0.227597,0.4159 0.445069,0.8851 0.650329,1.4117 z"
       id="path1352-7-9-5-4" />
  </g>
  <path
     id="path1352-7"
     d="m 22.218364,23.401761 c -0.803983,0.936828 -3.522406,1.815371 -4.677303,-0.07749 0.659989,0.364172 1.345836,0.443286 1.935222,0.347029 0.147385,-0.024 -0.216338,-0.141172 -0.08293,-0.185486 0.279106,0.0029 0.521687,-0.02086 0.739151,-0.08566 0.06386,-0.01914 -0.259569,-0.02286 -0.199753,-0.04934 0.430238,-0.02086 0.700693,-0.205514 0.961368,-0.466514 0.180551,-0.256657 0.285441,-0.497372 0.285441,-0.497372 0.06694,0.02863 -0.121008,0.6248 0.0042,0.714086 0.02616,0.01857 0.20678,-0.243857 0.20678,-0.243857 0.05173,0.01857 0.04013,0.280028 0.129145,0.160314 0.202073,-0.271714 0.429987,-0.674914 0.429987,-0.674914 0.03836,0.01286 -0.135898,0.565286 -0.09725,0.596428 0.04686,0.03774 0.120467,-0.120171 0.120467,-0.120171 0.03073,0.0097 0.01917,0.145229 0.01595,0.186171 -0.0055,0.07054 0.12592,-0.05994 0.166265,-0.08248 0.04699,-0.02629 -0.03906,0.274171 -0.02213,0.301657 0.02118,0.0344 0.409688,-0.3968 0.472049,-0.353572 0,0 -0.177438,0.289543 -0.386652,0.531172 z"
     style="fill:#501616;fill-opacity:1;stroke:none;stroke-width:0.08289558px;stroke-linecap:butt;stroke-linejoin:miter;stroke-opacity:1" />
</svg>
