<?xml version="1.0" encoding="UTF-8" standalone="no"?>
<svg
   xmlns:dc="http://purl.org/dc/elements/1.1/"
   xmlns:cc="http://creativecommons.org/ns#"
   xmlns:rdf="http://www.w3.org/1999/02/22-rdf-syntax-ns#"
   xmlns:svg="http://www.w3.org/2000/svg"
   xmlns="http://www.w3.org/2000/svg"
   xmlns:xlink="http://www.w3.org/1999/xlink"
   id="svg4319"
   version="1.1"
   viewBox="0 0 144 144"
   height="144"
   width="144">
  <defs
     id="defs4313">
    <linearGradient
       y2="128.17346"
       x2="165.79822"
       y1="173.91913"
       x1="136.81311"
       gradientTransform="matrix(1.1769527,1.0017682,-1.0253141,1.2123603,44.682408,743.37388)"
       gradientUnits="userSpaceOnUse"
       id="linearGradient1174"
       xlink:href="#linearGradient1346" />
    <linearGradient
       id="linearGradient1346">
      <stop
         style="stop-color:#ffe198;stop-opacity:1"
         offset="0"
         id="stop1339" />
      <stop
         style="stop-color:#ffbb4d;stop-opacity:1"
         offset="1"
         id="stop1343" />
    </linearGradient>
    <linearGradient
       gradientTransform="matrix(1.3813733,0,0,1.4202122,-123.14432,867.37055)"
       gradientUnits="userSpaceOnUse"
       y2="104.08393"
       x2="133.64702"
       y1="104.08393"
       x1="112.46608"
       id="linearGradient862-2"
       xlink:href="#linearGradient1160" />
    <linearGradient
       id="linearGradient1160">
      <stop
         style="stop-color:#fff9d1;stop-opacity:1"
         offset="0"
         id="stop1156" />
      <stop
         style="stop-color:#ffdc8e;stop-opacity:1"
         offset="1"
         id="stop1158" />
    </linearGradient>
    <radialGradient
       r="10.743572"
       fy="390.91138"
       fx="495.03906"
       cy="390.91138"
       cx="495.03906"
       gradientTransform="matrix(0.5343589,-0.01315521,0.03475529,1.7611594,-220.38076,334.91458)"
       gradientUnits="userSpaceOnUse"
       id="radialGradient3304-7"
       xlink:href="#linearGradient1172" />
    <linearGradient
       id="linearGradient1172">
      <stop
         id="stop1168"
         offset="0"
         style="stop-color:#ff9912;stop-opacity:1" />
      <stop
         id="stop1170"
         offset="1"
         style="stop-color:#ff9810;stop-opacity:0" />
    </linearGradient>
    <linearGradient
       gradientTransform="matrix(1.3813733,0,0,1.4202122,-123.14432,867.37055)"
       gradientUnits="userSpaceOnUse"
       y2="119.1124"
       x2="116.98858"
       y1="119.1124"
       x1="109.17788"
       id="linearGradient878-8"
       xlink:href="#linearGradient1166" />
    <linearGradient
       id="linearGradient1166">
      <stop
         style="stop-color:#ffd782;stop-opacity:1"
         offset="0"
         id="stop1162" />
      <stop
         style="stop-color:#ffd57d;stop-opacity:1"
         offset="1"
         id="stop1164" />
    </linearGradient>
    <linearGradient
       gradientTransform="matrix(1.3813733,0,0,1.4202122,-120.17226,867.23769)"
       gradientUnits="userSpaceOnUse"
       y2="118.32003"
       x2="144.10342"
       y1="118.32003"
       x1="124.89785"
       id="linearGradient914-1"
       xlink:href="#linearGradient1154" />
    <linearGradient
       id="linearGradient1154">
      <stop
         style="stop-color:#ffe5a3;stop-opacity:1"
         offset="0"
         id="stop1150" />
      <stop
         style="stop-color:#ffd987;stop-opacity:1"
         offset="1"
         id="stop1152" />
    </linearGradient>
    <linearGradient
       gradientTransform="matrix(1.3813733,0,0,1.4202122,-123.14432,867.37055)"
       y2="115.77173"
       x2="176.97937"
       y1="129.18776"
       x1="130.21443"
       gradientUnits="userSpaceOnUse"
       id="linearGradient1345-9"
       xlink:href="#linearGradient1148" />
    <linearGradient
       id="linearGradient1148">
      <stop
         id="stop1142"
         offset="0"
         style="stop-color:#ffe198;stop-opacity:1" />
      <stop
         id="stop1144"
         offset="0.73873258"
         style="stop-color:#ffd277;stop-opacity:1" />
      <stop
         id="stop1146"
         offset="1"
         style="stop-color:#ff8f00;stop-opacity:1" />
    </linearGradient>
    <radialGradient
       r="35"
       fy="147.13304"
       fx="146.95654"
       cy="147.13304"
       cx="146.95654"
       gradientTransform="matrix(1.3819494,0,0,1.3819493,-123.20638,871.93156)"
       gradientUnits="userSpaceOnUse"
       id="radialGradient3302-0"
       xlink:href="#linearGradient1140" />
    <linearGradient
       id="linearGradient1140">
      <stop
         style="stop-color:#8baccb;stop-opacity:1"
         offset="0"
         id="stop1136" />
      <stop
         style="stop-color:#395477;stop-opacity:1"
         offset="1"
         id="stop1138" />
    </linearGradient>
    <linearGradient
       gradientTransform="matrix(1.2899714,0,0,1.3262405,-112.25208,877.42283)"
       gradientUnits="userSpaceOnUse"
       y2="99.608566"
       x2="119.384"
       y1="99.608566"
       x1="105.04161"
       id="linearGradient854-0"
       xlink:href="#linearGradient1166" />
  </defs>
  <metadata
     id="metadata4316">
    <rdf:RDF>
      <cc:Work
         rdf:about="">
        <dc:format>image/svg+xml</dc:format>
        <dc:type
           rdf:resource="http://purl.org/dc/dcmitype/StillImage" />
        <dc:title></dc:title>
      </cc:Work>
    </rdf:RDF>
  </metadata>
  <g
     transform="translate(0,-978.5197)"
     id="layer1">
    <path
       id="path832-5"
       d="m 24.924143,1000.4628 c 5.793365,3.566 10.863372,7.0204 16.548145,8.0186 l -6.46444,10.8113 c -0.772038,-0.6819 -1.291386,-1.1087 -2.00151,-1.7754 -0.03429,-0.033 -0.277983,0.3334 -0.443715,0.2272 -0.167534,-0.1071 0.223569,-0.4142 0.194277,-0.4418 -0.02436,-0.023 -0.967178,0.7431 -0.89887,0.3434 0.08912,-0.5211 0.528456,-0.4797 0.476489,-0.5754 -0.05206,-0.096 -0.369671,0.071 -0.387371,0.054 -0.08131,-0.077 0.3034,-0.3581 0.222885,-0.4353 -6.336578,-6.0646 -9.90418,-11.467 -8.618795,-16.1105 0.02036,-0.073 -0.857096,-1.33254 -0.43742,-1.31354 0.343345,0.0157 0.616781,0.88234 0.733414,0.85804 0.04414,-0.014 -0.02393,-1.31775 0.1413,-1.30689 0.357174,0.0229 0.487214,1.51939 0.612096,1.51799 0.138385,0 -0.222906,-0.97542 0.09351,-1.02971 0.377156,-0.0643 0.18201,0.79001 0.230001,1.15761 z"
       style="fill:url(#linearGradient854-0);fill-opacity:1;stroke:none;stroke-width:0.34606978px;stroke-linecap:butt;stroke-linejoin:miter;stroke-opacity:1" />
    <path
       id="path916-1"
       d="m 74.029689,1013.783 c -26.712967,0 -48.368091,21.6553 -48.368136,48.3683 4.5e-5,26.713 21.655169,48.3681 48.368136,48.3681 26.712971,0 48.368091,-21.6551 48.368131,-48.3681 -4e-5,-26.713 -21.65516,-48.3683 -48.368131,-48.3683 z"
       style="fill:url(#radialGradient3302-0);fill-opacity:1;stroke:none;stroke-width:0.72910446;stroke-miterlimit:4;stroke-dasharray:none;stroke-opacity:1" />
    <path
       id="path826-7-1"
       d="m 37.140813,1031.9041 c -1.12364,1.5096 -3.051631,4.0897 -2.862745,4.1762 0.1076,0.05 0.3318,-0.3993 0.427618,-0.3305 0.02217,0.016 -0.870936,1.203 -0.769657,1.3013 0.08241,0.08 0.336484,-0.5148 0.454403,-0.4386 0.156721,0.1029 -2.522167,5.0998 -3.057579,6.7815 -0.334013,1.0493 -0.013,3.416 1.812049,3.3503 1.84065,-0.067 3.903177,-1.6948 4.389804,-3.5206 0.287754,-1.0796 1.288783,-2.9389 2.193753,-4.297 -0.04454,1.2193 -0.181136,2.9438 -0.113629,4.1527 3.316002,2.4247 5.996478,1.9356 8.776989,-0.1014 0.251721,-0.1846 0.503884,-0.3817 0.7578,-0.5906 0.328214,-0.2701 0.659066,-0.5599 0.993043,-0.8666 0.140014,-0.1285 0.04866,0.5579 0.189966,0.4233 1.204688,-2.2528 3.404711,-4.0957 4.881641,-5.682 1.090627,-1.1703 7.066913,-2.016 7.396413,-4.7514 8.08e-4,-0.014 6.2e-4,-0.023 0.0016,-0.031 1.137812,-0.1864 2.302809,-0.3933 3.489246,-0.6146 -4.230097,3.1546 -7.328006,6.0357 -7.278646,6.0802 0.06292,0.057 0.242589,-0.1663 0.301859,-0.1229 0.0094,-10e-5 -0.923636,0.7107 -0.820759,0.7961 0.08813,0.074 0.231815,-0.159 0.32584,-0.09 0.113743,0.084 -2.399174,3.276 -3.262227,4.7477 0,0 -2.09351,5.2009 1.54993,5.3826 4.927926,0.2459 4.232857,-3.4286 6.289052,-5.2179 2.174792,-1.8928 5.132657,-4.5701 7.954041,-7.1529 0.241183,-0.2209 -0.138929,1.2808 0.09969,1.062 0.862665,-1.6515 1.661844,-2.6766 2.95159,-3.866 0.299957,-0.2766 -0.229339,1.4183 0.05634,1.1541 0.88201,-2.173 2.44387,-3.5978 4.111605,-5.0677 15.174599,-2.5051 31.077617,-2.7104 39.223847,14.3288 2.97415,6.221 4.59675,13.0312 4.75383,19.9582 1.94438,-19.7925 -2.75589,-39.8799 -14.38237,-52.3191 -0.13754,-0.1473 0.91207,0.361 0.77258,0.216 -0.42967,-0.4468 -2.05704,-1.537 -2.50513,-1.9629 -0.27422,-0.2604 1.23229,0.6727 1.5182,0.4257 0.37495,-0.324 -3.14528,-1.8946 -3.55275,-2.232 -0.14126,-0.1172 0.74675,0.366 1.27356,0.5147 0.3464,0.097 0.43077,-0.1014 0.3361,-0.1763 -3.64005,-2.8739 -8.532558,-5.3893 -13.863558,-7.0617 -0.426703,-0.1343 1.640038,-0.089 1.208127,-0.212 -2.606854,-0.25701 -5.434169,-0.97101 -7.791034,-1.36387 -0.643579,-0.10571 2.851577,-0.88886 2.206248,-0.96643 -2.818021,0.34472 -5.878951,0.42857 -8.547905,0.39829 -23.823419,2.39301 -52.6197,9.55671 -41.88868,33.78731 z"
       style="opacity:0.2;fill:#011842;fill-opacity:1;stroke:none;stroke-width:0.35588118px;stroke-linecap:butt;stroke-linejoin:miter;stroke-opacity:1" />
    <path
       id="path826-0"
       d="m 78.60097,994.54921 c -7.909577,-0.12285 -15.301622,2.35115 -22.129891,4.62586 l 1.107173,30.17643 c 19.372984,-2.0752 48.551988,-13.1544 60.247758,12.6272 2.96643,6.5387 4.51272,13.6633 4.53148,20.8783 2.43803,-20.5656 -2.03553,-41.5772 -13.88013,-54.771 -0.14013,-0.1562 0.94199,0.3945 0.79979,0.2408 -0.438,-0.4742 -2.10908,-1.6434 -2.5667,-2.096 -0.28005,-0.2769 1.269,0.7264 1.57183,0.4753 0.39714,-0.3295 -3.23566,-2.0386 -3.65283,-2.3985 -0.14462,-0.1242 0.76995,0.3972 1.31531,0.5626 0.35861,0.1086 0.45079,-0.097 0.35379,-0.1763 -3.72967,-3.0681 -8.770573,-5.78969 -14.285841,-7.64226 -0.441451,-0.14828 1.709028,-0.0586 1.261928,-0.195 -2.708687,-0.322 -5.637152,-1.12471 -8.082728,-1.583 -0.66783,-0.12428 2.987429,-0.86571 2.317183,-0.96 -2.941119,0.30015 -6.130046,0.323 -8.908122,0.23557 z"
       style="fill:url(#linearGradient1345-9);fill-opacity:1;stroke:none;stroke-width:0.37059081px;stroke-linecap:butt;stroke-linejoin:miter;stroke-opacity:1" />
    <path
       id="path834-8"
       d="m 76.277712,1021.5771 c -8.982204,3.512 -19.616052,12.8884 -19.525524,12.9734 0.06431,0.061 0.255908,-0.1685 0.316712,-0.1228 0.0099,0 -0.976672,0.7204 -0.871348,0.8114 0.0902,0.079 0.244594,-0.1601 0.341031,-0.086 0.116657,0.09 -2.566181,3.3603 -3.495484,4.8744 0,0 -2.288354,5.3712 1.501124,5.6365 5.125435,0.359 4.478952,-3.4809 6.657102,-5.3009 2.30379,-1.925 5.439234,-4.6508 8.430628,-7.2811 0.255717,-0.2247 -0.17163,1.331 0.08139,1.1081 0.93266,-1.7011 1.78646,-2.7524 3.154103,-3.9638 0.318076,-0.2818 -0.26891,1.4717 0.03406,1.2028 1.252107,-2.9154 3.671413,-4.4904 5.986866,-6.5663"
       style="fill:url(#linearGradient914-1);fill-opacity:1;stroke:none;stroke-width:0.37059081px;stroke-linecap:butt;stroke-linejoin:miter;stroke-opacity:1" />
    <path
       id="path836-5"
       d="m 34.726108,1028.2793 c -1.045945,1.3562 -3.72844,4.7544 -3.509898,4.8598 0.110986,0.054 0.35359,-0.4094 0.451913,-0.3357 0.02276,0.017 -0.931708,1.2344 -0.828321,1.3389 0.08414,0.086 0.361028,-0.529 0.482201,-0.447 0.161023,0.11 -2.732897,5.2565 -3.325481,6.9962 -0.36968,1.0855 -0.08481,3.5565 1.816644,3.526 1.917744,-0.031 4.099542,-1.6828 4.644342,-3.5734 0.553475,-1.9207 3.353615,-6.2411 3.968891,-6.1207"
       style="fill:url(#linearGradient878-8);fill-opacity:1;stroke:none;stroke-width:0.37059081px;stroke-linecap:butt;stroke-linejoin:miter;stroke-opacity:1" />
    <path
       id="path828-5-0"
       d="m 60.875499,997.74064 c -1.490541,0.47143 -2.96364,0.95615 -4.40442,1.43615 l 1.107173,30.17471 c 1.826106,-0.2522 3.680937,-0.5271 5.548001,-0.7897 0.384179,-0.3897 0.645663,-0.8305 0.717415,-1.3398 1.048851,-7.9796 0.336534,-14.6629 -1.699666,-22.2785 0.210464,-0.4327 -0.240847,-3.6029 -1.268503,-7.20286 z"
       style="fill:url(#radialGradient3304-7);fill-opacity:1;stroke:none;stroke-width:0.37058043px;stroke-linecap:butt;stroke-linejoin:miter;stroke-opacity:1" />
    <path
       id="path828-6"
       d="m 44.748929,1004.2044 c -5.774679,4.019 -19.286457,11.9826 -7.992087,29.047 -0.106172,0.534 -0.168334,1.3214 -0.194349,2.3296 -0.0046,0.1763 0.174962,-0.356 0.172606,-0.1663 -0.002,0.1613 -0.0066,0.34 -0.01271,0.5326 -0.0017,0.054 0.137614,-0.268 0.1357,-0.2123 -0.0432,1.251 -1.157472,3.7268 -0.231866,4.8024 2.790237,3.2424 6.202227,2.14 9.139663,0.077 0.26593,-0.1868 0.532983,-0.3868 0.801706,-0.599 0.347357,-0.2741 0.697505,-0.5688 1.051625,-0.8812 0.14846,-0.1315 0.03883,0.5817 0.188752,0.4445 1.301315,-2.3201 3.630881,-4.1931 5.201701,-5.8137 1.15994,-1.1954 7.399106,-1.951 7.79933,-4.7921 0.142443,-1.0839 -0.223777,-4.7567 0.0059,-4.7753 0.201596,-0.017 0.06944,0.7054 0.311846,0.7206 0.274496,0.017 0.09543,-0.8886 0.135671,-0.8835 0.0569,0 0.366848,0.7879 0.430328,0.7867 0.31367,0 -0.71732,-3.7117 -0.52645,-3.7174 0.247325,0 0.203127,0.7142 0.515544,0.7177 0.16591,0 -1.50422,-5.1675 -1.07987,-5.1575 0.344473,0.014 0.447148,0.9797 0.822743,1.065 0.310013,0.07 -1.454087,-7.6673 -2.18692,-10.5427 -0.02002,-0.079 0.180654,-0.1057 0.22776,-0.1772 0.03,-0.046 -0.1135,-0.1463 -0.05624,-0.1695 0.06549,-0.027 0.262174,0.057 0.282367,0.016 0.07053,-0.1414 -0.491526,-0.3077 -0.384126,-0.4755 0.05144,-0.08 -0.008,-0.3837 0.05307,-0.4815 0.3538,-0.567 0.920857,-1.1334 0.703643,-1.1754 -0.243315,-0.047 -0.527262,0.6284 -0.779195,0.6217 -0.129657,0 0.416323,-1.4154 0.300989,-1.4373 -0.276179,-0.053 -0.609489,0.6825 -0.845992,0.7996 -0.07467,0.037 0.378385,-0.6724 0.0725,-0.6801 -0.05573,-0 -0.324587,0.4155 -0.408028,0.2154 -0.930883,-2.2327 -3.858894,-14.54044 -7.868707,-16.02544 -0.07987,-0.03 0.05476,-1.08928 -0.185972,-1.10471 -0.07253,0 -0.333228,1.13085 -0.573738,1.07214 -0.23467,-0.0571 -0.448519,-1.31057 -0.576317,-1.17957 -0.139158,0.14286 0.01606,1.05114 -0.06949,0.99986 -0.467539,-0.27958 -0.675606,-0.47215 -0.820657,-0.465 -0.362963,0.0171 0.632058,0.66642 0.320784,0.86342 -0.156337,0.0986 -0.706323,-0.0871 -0.850373,0.0514 -0.08487,0.0814 0.232252,0.47529 0.151503,0.56929 -2.974057,3.46343 -3.18264,15.18171 -3.18264,15.18171 z"
       style="fill:url(#linearGradient862-2);fill-opacity:1;stroke:none;stroke-width:0.37059081px;stroke-linecap:butt;stroke-linejoin:miter;stroke-opacity:1" />
    <path
       id="path838-4"
       d="m 35.598368,1031.4563 c 0.465315,-0.12 0.88162,0.1634 1.305312,0.3858 l -0.864764,0.2349 z"
       style="fill:#501616;stroke:none;stroke-width:0.37059081px;stroke-linecap:butt;stroke-linejoin:miter;stroke-opacity:1" />
    <path
       id="path840-6"
       d="m 41.488612,1029.6614 c 1.265407,-1.7844 2.3761,-3.781 3.981214,-5.0997 l 0.48949,0.2348 c -1.662178,1.4008 -3.043456,3.1623 -4.470704,4.8649 z"
       style="fill:#501616;stroke:none;stroke-width:0.37059081px;stroke-linecap:butt;stroke-linejoin:miter;stroke-opacity:1" />
    <path
       id="path844-2"
       d="m 37.991586,1039.4877 c -0.146966,-0.1477 -0.107014,-0.5186 0.02356,-0.6803 0.484425,-0.5999 0.75991,-1.0787 1.904783,-1.1483 0.129414,-0.014 0.232764,0 0.359973,0.08 0.08486,0.057 0.08839,0.12 0.1135,0.2247 0.0635,0.2649 0.148393,0.5305 0.013,0.7577 -0.418806,0.7033 -0.05949,0.8946 -0.012,1.1342 -0.0623,0.1907 -0.156744,0.3748 -0.522119,0.5033 -0.870452,-0.034 -1.284557,-0.2716 -1.880762,-0.8707 z"
       style="fill:#550000;stroke:none;stroke-width:0.37059081px;stroke-linecap:butt;stroke-linejoin:miter;stroke-opacity:1" />
    <path
       id="path846-5"
       d="m 40.770685,1041.8403 -0.02653,-0.054 c 1.46923,-0.6749 2.856224,-1.6315 4.235596,-2.6142 l 0.09849,0.1525 c -1.388945,0.9062 -2.770718,1.8228 -4.307565,2.5162 z"
       style="fill:#501616;stroke:none;stroke-width:0.37059081px;stroke-linecap:butt;stroke-linejoin:miter;stroke-opacity:1" />
    <path
       id="path1352-1-8"
       d="m 105.62825,1071.8027 c -0.1936,-0.2089 -2.17201,-1.8323 -1.67773,-1.3547 2.01036,1.9425 1.20908,9.3298 -3.32714,14.8213 -3.699191,4.4781 -16.40941,8.8517 -22.009765,0.05 3.13694,1.6547 6.370291,1.9661 9.134351,1.4611 0.691162,-0.1257 -1.030198,-0.6451 -0.406527,-0.865 1.31325,-0.014 2.452194,-0.1454 3.469569,-0.468 0.298692,-0.096 -1.223086,-0.084 -0.944059,-0.2146 2.022037,-0.1371 3.278014,-1.0287 4.481187,-2.2795 5.048709,-7.6509 2.731089,-17.4905 -7.987771,-19.1035 -4.732645,-0.4274 -10.625656,1.4407 -16.33178,4.7113 -0.476989,0.2732 1.476005,0.1542 1.002425,0.4466 -3.382905,0.6941 -6.21831,2.8786 -8.555928,4.81 -0.398649,0.3308 2.132381,-0.1867 1.743621,0.156 -11.260748,6.074 -17.823393,23.3083 -12.803087,30.9403 -3.315367,0.1 -8.055518,-0.2076 -10.538096,-0.4832 -4.354215,-0.4833 -7.560912,-2.5924 -11.096181,-5.369 -0.720269,-0.5908 2.773566,1.4407 2.1846,0.753 -1.418577,-2.7013 -3.360289,-3.4911 -4.95994,-6.1004 -0.203221,-0.4174 2.287853,1.7596 2.115331,1.3236 -0.582058,-3.8512 -2.837447,-8.2712 -3.096795,-11.9855 -0.0069,-0.7445 1.580995,1.957 1.626907,1.1948 1.348541,-6.7632 4.533404,-10.6182 7.493118,-16.3386 0.462938,-0.4892 0.1222,2.152 0.623608,1.6744 14.802725,-14.1054 45.788538,-23.0777 58.741235,-13.7448 1.665817,1.6387 3.633264,2.5758 5.37148,4.2315 0.258957,0.2722 -1.78133,-0.9771 -1.524813,-0.684 1.494786,2.869 4.10607,4.2416 5.96461,6.8332 0.20553,0.3395 -2.07971,-1.3549 -1.87636,-0.9995 1.10742,1.9362 2.17199,4.1245 3.18416,6.5828 z"
       style="opacity:0.3;fill:#001842;fill-opacity:1;stroke:none;stroke-width:0.39002538px;stroke-linecap:butt;stroke-linejoin:miter;stroke-opacity:1" />
    <path
       id="path1352-6"
       d="m 109.67873,1070.8177 c -0.20152,-0.2257 -2.27116,-1.9903 -1.75552,-1.4729 2.09719,2.1042 1.09818,9.9372 -3.83135,15.6812 -4.01992,4.6841 -17.612031,9.0768 -23.386517,-0.3875 3.299946,1.8209 6.72918,2.2163 9.676107,1.735 0.736926,-0.12 -1.08169,-0.7058 -0.414647,-0.9272 1.395532,0.014 2.608434,-0.1043 3.695753,-0.4283 0.319294,-0.096 -1.297846,-0.1143 -0.998766,-0.2467 2.151193,-0.1043 3.503469,-1.0276 4.806845,-2.3326 5.517215,-8.0282 3.251385,-18.5292 -8.10523,-20.4572 -5.01992,-0.5487 -11.318623,1.3185 -17.446797,4.6792 -0.512259,0.2808 1.56519,0.1934 1.056161,0.4947 -3.608229,0.6699 -6.664529,2.9341 -9.186863,4.9397 -0.430184,0.3436 2.269462,-0.155 1.84949,0.2004 -12.086031,6.2288 -19.403344,24.4092 -14.22178,32.6185 -3.524586,0.04 -8.554893,-0.3816 -11.187148,-0.724 -4.616725,-0.6006 -7.981709,-2.9056 -11.682456,-5.9263 -0.753474,-0.6423 2.918146,1.5863 2.306103,0.8437 -1.453257,-2.8986 -3.500545,-3.7766 -5.148033,-6.581 -0.20759,-0.4476 2.395687,1.9153 2.221101,1.4486 -0.541471,-4.1035 -2.849493,-8.8447 -3.050817,-12.7965 0.0076,-0.7912 1.64071,2.111 1.704732,1.302 1.56801,-7.159 5.028988,-11.1912 8.288054,-17.2101 0.501644,-0.5103 0.08681,2.289 0.629108,1.7914 16.009935,-14.691 49.111902,-23.6048 62.687683,-13.4297 1.737186,1.7744 3.808877,2.8093 5.622657,4.6033 0.26971,0.2946 -1.87315,-1.0737 -1.60646,-0.7573 1.53088,3.0784 4.27795,4.5889 6.20087,7.3797 0.21158,0.3647 -2.18263,-1.4813 -1.97368,-1.0995 1.13796,2.0792 2.22532,4.4255 3.25164,7.0578 z"
       style="fill:url(#linearGradient1174);fill-opacity:1;stroke:none;stroke-width:0.41447788px;stroke-linecap:butt;stroke-linejoin:miter;stroke-opacity:1" />
    <path
       id="path1352-7-2"
       d="m 104.09186,1085.026 c -4.01992,4.6841 -17.612031,9.0768 -23.386517,-0.3875 3.299946,1.8209 6.72918,2.2165 9.676107,1.7352 0.736926,-0.12 -1.08169,-0.7059 -0.414647,-0.9274 1.395532,0.014 2.608434,-0.1043 3.695753,-0.4283 0.319294,-0.096 -1.297846,-0.1143 -0.998766,-0.2467 2.151193,-0.1043 3.503469,-1.0276 4.806845,-2.3326 0.902754,-1.2833 1.427204,-2.4869 1.427204,-2.4869 0.334716,0.1432 -0.60504,3.124 0.02094,3.5705 0.130785,0.093 1.033901,-1.2193 1.033901,-1.2193 0.25866,0.093 0.20067,1.4001 0.64572,0.8015 1.01037,-1.3585 2.14994,-3.3745 2.14994,-3.3745 0.19182,0.064 -0.67949,2.8264 -0.48623,2.9821 0.2343,0.1887 0.60234,-0.6008 0.60234,-0.6008 0.15364,0.048 0.0958,0.7261 0.0798,0.9308 -0.0277,0.3527 0.6296,-0.2997 0.83133,-0.4124 0.23497,-0.1314 -0.19531,1.3708 -0.11067,1.5083 0.10591,0.172 2.04844,-1.984 2.36024,-1.7679 0,0 -0.88719,1.4477 -1.93326,2.6559 z"
       style="fill:#501616;fill-opacity:1;stroke:none;stroke-width:0.41447788px;stroke-linecap:butt;stroke-linejoin:miter;stroke-opacity:1" />
  </g>
</svg>
